{
   "r0Lmsbar" : [
      0.47328718753656146,
      0.48597094330908158,
      0.49551794055939102,
      0.50678663681163227,
      0.51665617610919667,
      0.52171720041872505,
      0.52857664362752366,
      0.53473555141877249,
      0.54375058004381915
   ],
   "r0Lmsbar_err" : [
      0.0010327338880162069,
      0.00065725039668554852,
      0.001171160341667215,
      0.0011477564350273815,
      0.0025098446842296354,
      0.0016562450806943652,
      0.0045738662812151651,
      0.0013800475088846286,
      0.0040671792523415762
   ],
   "scale" : [
      8.2990960000000005,
      9.5641390000000008,
      10.945596999999999,
      12.565059,
      14.378546,
      16.298100000000002,
      18.535855000000002,
      21.050419000000002,
      26.977236000000001
   ],
   "scale_err" : [
      0.018109,
      0.012935,
      0.025870000000000001,
      0.028457,
      0.069848999999999994,
      0.051740000000000001,
      0.16039400000000001,
      0.054327,
      0.20178599999999999
   ]
}
