{
   "r0Lmsbar" : [
      0.64589352283770862,
      0.64502332844708699,
      0.64333309447573517,
      0.64305204123657678
   ],
   "r0Lmsbar_err" : [
      0.01137610895069566,
      0.0086984329401682894,
      0.010233632236053806,
      0.02262818892125552
   ],
   "scale" : [
      5.4550000000000001,
      5.8849999999999998,
      6.2539999999999996,
      7.3899999999999997
   ],
   "scale_err" : [
      0.096000000000000002,
      0.079000000000000001,
      0.099000000000000005,
      0.26000000000000001
   ]
}
