{
   "r0Lmsbar" : [
      0.51767375545636851,
      0.52936195224424165,
      0.53664375887598548,
      0.55713246445505515
   ],
   "r0Lmsbar_err" : [
      0.0091189047649388299,
      0.0071431889075429843,
      0.0085418786989749518,
      0.019605159740963683
   ],
   "scale" : [
      5.4550000000000001,
      5.8849999999999998,
      6.2539999999999996,
      7.3899999999999997
   ],
   "scale_err" : [
      0.096000000000000002,
      0.079000000000000001,
      0.099000000000000005,
      0.26000000000000001
   ]
}
