{
   "mu_star" : [
      1.3670952120415094,
      1.4068974676764392,
      1.4348225540758983,
      1.5014789712548335
   ],
   "r0Lmsbar" : [
      0.51827959252460709,
      0.52993644711408894,
      0.53719239099194793,
      0.55762261107437006
   ],
   "r0Lmsbar_err" : [
      0.0091295766803490812,
      0.0071509411182266872,
      0.0085506113990341664,
      0.019622407708693515
   ],
   "scale" : [
      5.4550000000000001,
      5.8849999999999998,
      6.2539999999999996,
      7.3899999999999997
   ],
   "scale_err" : [
      0.096000000000000002,
      0.079000000000000001,
      0.099000000000000005,
      0.26000000000000001
   ]
}
