{
   "r0Lmsbar" : [
      0.48883609061315431,
      0.51422818295529671,
      0.5460901539719426,
      0.55790875588549649,
      0.56963924118741727,
      0.58606390889001037,
      0.59761861613462819,
      0.60308273713784044,
      0.60546155510144806,
      0.60795846076046889,
      0.61451116335328881
   ],
   "r0Lmsbar_err" : [
      0.0015146403546870088,
      0.000714303546231206,
      0.0013452898521417252,
      0.0034302440967436147,
      0.0016104565101803874,
      0.0020647768600840547,
      0.0030680033328551091,
      0.0049527026078720511,
      0.0051178256757482355,
      0.0044119195347185509,
      0.0048193100823614192
   ],
   "scale" : [
      2.9220000000000002,
      3.673,
      4.8979999999999997,
      5.3680000000000003,
      6.0330000000000004,
      7.3799999999999999,
      9.7400000000000002,
      12.18,
      14.199999999999999,
      16.539999999999999,
      19.129999999999999
   ],
   "scale_err" : [
      0.0089999999999999993,
      0.0050000000000000001,
      0.012,
      0.033000000000000002,
      0.017000000000000001,
      0.025999999999999999,
      0.050000000000000003,
      0.10000000000000001,
      0.12,
      0.12,
      0.14999999999999999
   ]
}
