{
   "r0Lmsbar" : [
      0.48877151814244152,
      0.51400511435140284,
      0.54570634583953548,
      0.55748155300958802,
      0.5691610662218155,
      0.58551153365096964,
      0.59699594719700055,
      0.60242585820799621,
      0.60479044704170593,
      0.60727820496287155,
      0.6138213739160634
   ],
   "r0Lmsbar_err" : [
      0.0015077920238841622,
      0.00070375352753746011,
      0.0013392490145897101,
      0.0034272917619016328,
      0.0016055437345368938,
      0.0020627962131730257,
      0.0030647158961219422,
      0.0049465387515062976,
      0.0051114244022340003,
      0.0044063602621910438,
      0.0048134155949123049
   ],
   "scale" : [
      2.9220000000000002,
      3.673,
      4.8979999999999997,
      5.3680000000000003,
      6.0330000000000004,
      7.3799999999999999,
      9.7400000000000002,
      12.18,
      14.199999999999999,
      16.539999999999999,
      19.129999999999999
   ],
   "scale_err" : [
      0.0089999999999999993,
      0.0050000000000000001,
      0.012,
      0.033000000000000002,
      0.017000000000000001,
      0.025999999999999999,
      0.050000000000000003,
      0.10000000000000001,
      0.12,
      0.12,
      0.14999999999999999
   ]
}
