{
   "r0Lmsbar" : [
      0.33290780827957639,
      0.37292621290553807,
      0.41833978892195506,
      0.43279746534285918,
      0.44868925096965012,
      0.47243041968488431,
      0.49498235762435944,
      0.50864934210111734,
      0.51623922630242536,
      0.52344244894482184,
      0.53311429111025821
   ],
   "r0Lmsbar_err" : [
      0.0010253833930583076,
      0.00050765887953383966,
      0.0010249239418259426,
      0.0026606401557962818,
      0.001264332382974338,
      0.0016643890124400347,
      0.002540977195196996,
      0.0041761029729156041,
      0.0043625850110064123,
      0.0037976477553433329,
      0.0041801956961076709
   ],
   "scale" : [
      2.9220000000000002,
      3.673,
      4.8979999999999997,
      5.3680000000000003,
      6.0330000000000004,
      7.3799999999999999,
      9.7400000000000002,
      12.18,
      14.199999999999999,
      16.539999999999999,
      19.129999999999999
   ],
   "scale_err" : [
      0.0089999999999999993,
      0.0050000000000000001,
      0.012,
      0.033000000000000002,
      0.017000000000000001,
      0.025999999999999999,
      0.050000000000000003,
      0.10000000000000001,
      0.12,
      0.12,
      0.14999999999999999
   ]
}
