{
   "r0Lmsbar" : [
      0.38937827746466752,
      0.40008880897786525,
      0.4085179195932318,
      0.43050134997507988
   ],
   "r0Lmsbar_err" : [
      0.0068524866428245805,
      0.0053707758554377844,
      0.0064667851038903027,
      0.015146190932817426
   ],
   "scale" : [
      5.4550000000000001,
      5.8849999999999998,
      6.2539999999999996,
      7.3899999999999997
   ],
   "scale_err" : [
      0.096000000000000002,
      0.079000000000000001,
      0.099000000000000005,
      0.26000000000000001
   ]
}
