{
   "r0Lmsbar" : [ 0.59459139512223091, 0.60161424792254603, 0.62515606667809964 ],
   "r0Lmsbar_err" : [ 0.0048418674211726529, 0.0047453411617322267, 0.0056003101200333555 ],
   "scale" : [ 6.6029999999999998, 7.0039999999999996, 8.2850000000000001 ],
   "scale_err" : [ 0.052999999999999999, 0.053999999999999999, 0.073999999999999996 ]
}
