{
   "r0Lmsbar" : [ 0.69274988471519872, 0.69050813355804297, 0.69303027254751071 ],
   "r0Lmsbar_err" : [ 0.0055781204565087776, 0.0053515963480277691, 0.0061944956113595597 ],
   "scale" : [ 6.6029999999999998, 7.0039999999999996, 8.2850000000000001 ],
   "scale_err" : [ 0.052999999999999999, 0.053999999999999999, 0.073999999999999996 ]
}
