{
   "r0Lmsbar" : [ 0.56544837938278014, 0.57341861097489777, 0.59893595811863221 ],
   "r0Lmsbar_err" : [ 0.004553078694515383, 0.0044441374292494926, 0.0053534562376897138 ],
   "scale" : [ 6.6029999999999998, 7.0039999999999996, 8.2850000000000001 ],
   "scale_err" : [ 0.052999999999999999, 0.053999999999999999, 0.073999999999999996 ]
}
