{
	"beta" : [ 
		5.70,
		5.80,
		5.95,
		6.00,
		6.07,
		6.20,
		6.40,
		6.57,
		6.69,
		6.81,
		6.92
	],
	"scale" : [
		2.922,
		3.673,
		4.898,
		5.368,
		6.033,
		7.380,
		9.740,
		12.18,
		14.20,
		16.54,
		19.13
	],
	"scale_err" : [
		0.009,
		0.005,
		0.012,
		0.033,
		0.017,
		0.026,
		0.050,
		0.10,
		0.12,
		0.12,
		0.15
	],
	"P" : [
		0.549195,
		0.567651,
		0.588006,
		0.593679,
		0.601099,
		0.613633,
		0.630633,
		0.643524,
		0.651936,
		0.659877,
		0.666721
	],
	"P_err" : [
		0.000025,
		0.000021,
		0.000020,
		0.000008,
		0.000018,
		0.000002,
		0.000004,
		0.000015,
		0.000015,
		0.000013,
		0.000012
	]
}