{
   "r0Lmsbar" : [
      0.15702886667883822,
      0.15874957175453178,
      0.16012774379407735,
      0.16150520014375058,
      0.16250765748874368,
      0.16338901256972979,
      0.16437806307441669,
      0.16479244632655016,
      0.16549766702071272
   ],
   "r0Lmsbar_err" : [
      0.00013933396703142589,
      0.00012258664454736502,
      0.00021602438059830967,
      0.00019056666971851746,
      0.00042067765151523222,
      0.00029740893277075623,
      0.00075613922353641623,
      0.00023271663818066313,
      0.00070706011369832487
   ],
   "scale" : [
      2.254,
      2.5899999999999999,
      2.9649999999999999,
      3.3900000000000001,
      3.863,
      4.3949999999999996,
      5.0,
      5.665,
      7.2560000000000002
   ],
   "scale_err" : [
      0.002,
      0.002,
      0.0040000000000000001,
      0.0040000000000000001,
      0.01,
      0.0080000000000000002,
      0.023,
      0.0080000000000000002,
      0.031
   ]
}
