{
   "r0Lmsbar" : [
      0.15708553821035329,
      0.15882209617093518,
      0.16021340449845445,
      0.16160187437806736,
      0.16261334438956759,
      0.16350212712922943,
      0.16449741510701471,
      0.16491653850116578,
      0.16562849936722734
   ],
   "r0Lmsbar_err" : [
      0.00013938505408866362,
      0.00012264281768854685,
      0.00021614063398985728,
      0.00019068083087692229,
      0.0004209516706987289,
      0.00029761487756567228,
      0.00075668841117003133,
      0.00023289191784469637,
      0.00070761914871293188
   ],
   "scale" : [
      2.254,
      2.5899999999999999,
      2.9649999999999999,
      3.3900000000000001,
      3.863,
      4.3949999999999996,
      5.0,
      5.665,
      7.2560000000000002
   ],
   "scale_err" : [
      0.002,
      0.002,
      0.0040000000000000001,
      0.0040000000000000001,
      0.01,
      0.0080000000000000002,
      0.023,
      0.0080000000000000002,
      0.031
   ]
}
