{
   "r0Lmsbar" : [
      0.19757653097886052,
      0.20009131266631719,
      0.20187429315555677,
      0.20388531466519,
      0.20533986381887412,
      0.20639585922934359,
      0.20769443631411677,
      0.20826353335169281,
      0.20913565479638052
   ],
   "r0Lmsbar_err" : [
      0.00020907702088774453,
      0.00018396410617799972,
      0.00032421045035358403,
      0.00028602117911199668,
      0.00067352222637317863,
      0.00044642227951670316,
      0.0011843816960264092,
      0.00034933784541617881,
      0.0010956682833316959
   ],
   "scale" : [
      2.835,
      3.2629999999999999,
      3.7360000000000002,
      4.2770000000000001,
      4.8780000000000001,
      5.548,
      6.3129999999999997,
      7.1539999999999999,
      9.1620000000000008
   ],
   "scale_err" : [
      0.0030000000000000001,
      0.0030000000000000001,
      0.0060000000000000001,
      0.0060000000000000001,
      0.016,
      0.012,
      0.035999999999999997,
      0.012,
      0.048000000000000001
   ]
}
