{
   "r0Lmsbar" : [
      0.22966924647768999,
      0.23262416634800653,
      0.2345453757812889,
      0.23696820039487948,
      0.23882669206428436,
      0.23973239032508381,
      0.24115386344398887,
      0.24186064090062689,
      0.24280427935424215
   ],
   "r0Lmsbar_err" : [
      0.00028102820764818679,
      0.00018535827708671663,
      0.00043535222025330053,
      0.0003839097592529365,
      0.00084720436580053282,
      0.00059876971733572812,
      0.001554977889557644,
      0.00046826849920214586,
      0.0014220543124704743
   ],
   "scale" : [
      3.2690000000000001,
      3.7650000000000001,
      4.3099999999999996,
      4.9379999999999997,
      5.6379999999999999,
      6.4059999999999997,
      7.2889999999999997,
      8.2639999999999993,
      10.586
   ],
   "scale_err" : [
      0.0040000000000000001,
      0.0030000000000000001,
      0.0080000000000000002,
      0.0080000000000000002,
      0.02,
      0.016,
      0.047,
      0.016,
      0.062
   ]
}
