{
	"beta" : [ 
		6.3,
		6.4,
		6.5,
		6.6,
		6.7,
		6.8,
		6.9,
		7.0,
		7.2
	],
	"scale" : [
		2.460,
		2.837,
		3.249,
		3.725,
		4.252,
		4.833,
		5.503,
		6.236,
		7.984
	],
	"scale_err" : [
		0.004,
		0.003,
		0.007,
		0.007,
		0.017,
		0.013,
		0.040,
		0.013,
		0.052
	],
	"P" : [
		0.62242085,
		0.63063288,
		0.63836133,
		0.64566958,
		0.65260839,
		0.65921511,
		0.66552254,
		0.671556729,
		0.68289186
	],
	"P_err" : [
		0.00000030,
		0.00000013,
		0.00000035,
		0.00000012,
		0.00000039,
		0.00000011,
		0.00000033,
		0.000000089,
		0.00000022
	]
}