{
   "r0Lmsbar" : [
      0.20050359069706583,
      0.20340266138957222,
      0.20517042053309667,
      0.20765125805040155,
      0.20963356330832167,
      0.21026485154366437,
      0.21157657531064236,
      0.21242647510026594,
      0.21338136880992853
   ],
   "r0Lmsbar_err" : [
      0.00034846031006333794,
      0.00024528531398999425,
      0.00043227993004385512,
      0.00042903163727929874,
      0.00096818767474202302,
      0.00063243150149073309,
      0.0017107733378548965,
      0.00052400670659063944,
      0.0015065437964000344
   ],
   "scale" : [
      2.8769999999999998,
      3.3170000000000002,
      3.7970000000000002,
      4.3559999999999999,
      4.9800000000000004,
      5.6520000000000001,
      6.431,
      7.2969999999999997,
      9.3480000000000008
   ],
   "scale_err" : [
      0.0050000000000000001,
      0.0040000000000000001,
      0.0080000000000000002,
      0.0089999999999999993,
      0.023,
      0.017000000000000001,
      0.051999999999999998,
      0.017999999999999999,
      0.066000000000000003
   ]
}
