{
   "r0Lmsbar" : [
      0.18297760095784077,
      0.18787985381286004,
      0.19156943849689786,
      0.19592466767333594,
      0.19973900586508986,
      0.20169441337283936,
      0.2043451276428899,
      0.20672505631104474,
      0.21020819983474096
   ],
   "r0Lmsbar_err" : [
      0.00039926533874841326,
      0.00025409771951980566,
      0.00045277579413117677,
      0.00044372479810720814,
      0.0009703046344651722,
      0.00064029972499314092,
      0.0017682341819761685,
      0.00053351679765662277,
      0.0015723283071643478
   ],
   "scale" : [
      3.2080000000000002,
      3.6970000000000001,
      4.2309999999999999,
      4.8570000000000002,
      5.5579999999999998,
      6.2999999999999998,
      7.165,
      8.1370000000000005,
      10.428000000000001
   ],
   "scale_err" : [
      0.0070000000000000001,
      0.0050000000000000001,
      0.01,
      0.010999999999999999,
      0.027,
      0.02,
      0.062,
      0.021000000000000001,
      0.078
   ]
}
