{
   "r0Lmsbar" : [
      0.22349095133350178,
      0.22660122269363095,
      0.22849932006500548,
      0.23139550356878955,
      0.23381246707803194,
      0.2342095060726502,
      0.2355537643856391,
      0.23670187745086302,
      0.23784587537100227
   ],
   "r0Lmsbar_err" : [
      0.00048766755186418359,
      0.00030646643840019871,
      0.00054006020493631084,
      0.00052405821774805048,
      0.0011358290620765369,
      0.00074352227122936366,
      0.0020382880837394868,
      0.00061088111527081489,
      0.0017790543610924226
   ],
   "scale" : [
      3.2080000000000002,
      3.6970000000000001,
      4.2309999999999999,
      4.8570000000000002,
      5.5579999999999998,
      6.2999999999999998,
      7.165,
      8.1370000000000005,
      10.428000000000001
   ],
   "scale_err" : [
      0.0070000000000000001,
      0.0050000000000000001,
      0.01,
      0.010999999999999999,
      0.027,
      0.02,
      0.062,
      0.021000000000000001,
      0.078
   ]
}
