%!PS-Adobe-3.0 EPSF-3.0
%%Creator: SM
%%BoundingBox: 18 144 592 718
%%DocumentNeededResources: font Helvetica
%%LanguageLevel: 1
%%Pages: 1
%%EndComments
%%Page: 1 1
 20 dict begin
72 300 div dup scale
1 setlinejoin 0 setlinecap
/Helvetica findfont 55 scalefont setfont 
/B {CS newpath moveto} def
/F {moveto 0 setlinecap} def
/C {CS M 1 1 3 {pop 3 1 roll 255 div} for SET_COLOUR} def
/CS {currentpoint stroke} def
/CF {currentpoint eofill} def
/L {lineto} def /l {rlineto} def /M {moveto} def /m {rmoveto} def
/P {gsave 0 1 rlineto stroke grestore} def
/T {currentlinecap exch 1 setlinecap show setlinecap} def
errordict /nocurrentpoint {pop 0 0 M currentpoint} put
/SET_COLOUR statusdict begin /processcolors where
  {pop processcolors 1 gt} {false} ifelse
  {(setrgbcolor)} {(pop pop pop)} ifelse cvx end def
 80 600 translate
gsave
CS [] 0 setdash M
CS M 1 100 mul 72 div dup setlinewidth
/P [ /gsave cvx 0 5 -1 roll .05 add dup -2 div 0 exch /rmoveto cvx /rlineto cvx /stroke cvx /grestore cvx ] cvx def
 0 0 0 C
CS M 3 100 mul 72 div dup setlinewidth
/P [ /gsave cvx 0 5 -1 roll .05 add dup -2 div 0 exch /rmoveto cvx /rlineto cvx /stroke cvx /grestore cvx ] cvx def
CS [] 0 setdash M
328 328 M 1933 0 l
0 1933 l
328 2261 L
328 328 L
1933 0 l
328 328 M 1933 0 l
 0 0 0 C
 0 0 0 C
 0 0 0 C
 0 0 0 C
328 328 M 0 26 l
121 -26 m 0 26 l
121 -26 m 0 52 l
 0 0 0 C
-60 -146 m 21 50 m -7 -2 l
-5 -7 l
-2 -12 l
0 -7 l
2 -12 l
5 -8 l
7 -2 l
5 0 l
7 2 l
5 8 l
3 12 l
0 7 l
-3 12 l
-5 7 l
-7 2 l
-5 0 l
-4 -2 l
-3 -2 l
-2 -5 l
-3 -12 l
0 -7 l
3 -12 l
2 -5 l
3 -3 l
4 -2 l
5 0 m 5 2 l
2 3 l
3 5 l
2 12 l
0 7 l
-2 12 l
-3 5 l
-2 2 l
-5 2 l
34 -45 m -3 -3 l
3 -2 l
2 2 l
-2 3 l
26 36 m 5 2 l
7 7 l
0 -50 l
-2 48 m 0 -48 l
-10 0 m 22 0 l
 0 0 0 C
73 94 m 0 26 l
120 -26 m 0 26 l
121 -26 m 0 26 l
121 -26 m 0 52 l
 0 0 0 C
-84 -146 m 21 50 m -7 -2 l
-5 -7 l
-2 -12 l
0 -7 l
2 -12 l
5 -8 l
7 -2 l
5 0 l
8 2 l
4 8 l
3 12 l
0 7 l
-3 12 l
-4 7 l
-8 2 l
-5 0 l
-4 -2 l
-3 -2 l
-2 -5 l
-3 -12 l
0 -7 l
3 -12 l
2 -5 l
3 -3 l
4 -2 l
5 0 m 5 2 l
3 3 l
2 5 l
2 12 l
0 7 l
-2 12 l
-2 5 l
-3 2 l
-5 2 l
34 -45 m -2 -3 l
2 -2 l
2 2 l
-2 3 l
26 36 m 5 2 l
8 7 l
0 -50 l
-3 48 m 0 -48 l
-10 0 m 22 0 l
22 41 m 2 -3 l
-2 -2 l
-3 2 l
0 3 l
3 5 l
2 2 l
7 2 l
10 0 l
7 -2 l
3 -2 l
2 -5 l
0 -5 l
-2 -5 l
-8 -5 l
-12 -4 l
-4 -3 l
-5 -5 l
-3 -7 l
0 -7 l
22 50 m 5 -2 l
2 -2 l
3 -5 l
0 -5 l
-3 -5 l
-7 -5 l
-10 -4 l
-12 -17 m 3 2 l
5 0 l
12 -5 l
7 0 l
5 3 l
2 2 l
-26 0 m 12 -7 l
9 0 l
3 2 l
2 5 l
0 5 l
 0 0 0 C
44 82 m 0 26 l
121 -26 m 0 26 l
120 -26 m 0 26 l
121 -26 m 0 52 l
 0 0 0 C
-84 -146 m 22 50 m -8 -2 l
-4 -7 l
-3 -12 l
0 -7 l
3 -12 l
4 -8 l
8 -2 l
4 0 l
8 2 l
4 8 l
3 12 l
0 7 l
-3 12 l
-4 7 l
-8 2 l
-4 0 l
-5 -2 l
-3 -2 l
-2 -5 l
-2 -12 l
0 -7 l
2 -12 l
2 -5 l
3 -3 l
5 -2 l
4 0 m 5 2 l
3 3 l
2 5 l
2 12 l
0 7 l
-2 12 l
-2 5 l
-3 2 l
-5 2 l
34 -45 m -2 -3 l
2 -2 l
3 2 l
-3 3 l
27 36 m 4 2 l
8 7 l
0 -50 l
-3 48 m 0 -48 l
-9 0 m 21 0 l
41 46 m 0 -46 l
3 50 m 0 -50 l
0 50 m -27 -36 l
39 0 l
-22 -14 m 17 0 l
 0 0 0 C
46 94 m 0 26 l
121 -26 m 0 26 l
121 -26 m 0 26 l
120 -26 m 0 52 l
 0 0 0 C
-84 -146 m 22 50 m -7 -2 l
-5 -7 l
-3 -12 l
0 -7 l
3 -12 l
5 -8 l
7 -2 l
5 0 l
7 2 l
5 8 l
2 12 l
0 7 l
-2 12 l
-5 7 l
-7 2 l
-5 0 l
-5 -2 l
-2 -2 l
-3 -5 l
-2 -12 l
0 -7 l
2 -12 l
3 -5 l
2 -3 l
5 -2 l
5 0 m 4 2 l
3 3 l
2 5 l
3 12 l
0 7 l
-3 12 l
-2 5 l
-3 2 l
-4 2 l
33 -45 m -2 -3 l
2 -2 l
3 2 l
-3 3 l
27 36 m 5 2 l
7 7 l
0 -50 l
-3 48 m 0 -48 l
-9 0 m 21 0 l
49 43 m -3 -2 l
3 -3 l
2 3 l
0 2 l
-2 5 l
-5 2 l
-7 0 l
-8 -2 l
-4 -5 l
-3 -5 l
-2 -9 l
0 -15 l
2 -7 l
5 -5 l
7 -2 l
5 0 l
7 2 l
5 5 l
2 7 l
0 3 l
-2 7 l
-5 5 l
-7 2 l
-2 0 l
-8 -2 l
-4 -5 l
-3 -7 l
15 33 m -5 -2 l
-5 -5 l
-2 -5 l
-3 -9 l
0 -15 l
3 -7 l
4 -5 l
5 -2 l
5 0 m 5 2 l
5 5 l
2 7 l
0 3 l
-2 7 l
-5 5 l
-5 2 l
 0 0 0 C
58 63 m 0 26 l
121 -26 m 0 26 l
328 2261 M 1933 0 l
 0 0 0 C
 0 0 0 C
 0 0 0 C
 0 0 0 C
328 2261 M 0 -26 l
121 26 m 0 -26 l
121 26 m 0 -51 l
121 51 m 0 -26 l
120 26 m 0 -26 l
121 26 m 0 -26 l
121 26 m 0 -51 l
121 51 m 0 -26 l
121 26 m 0 -26 l
120 26 m 0 -26 l
121 26 m 0 -51 l
121 51 m 0 -26 l
121 26 m 0 -26 l
121 26 m 0 -26 l
120 26 m 0 -51 l
121 51 m 0 -26 l
121 26 m 0 -26 l
328 328 M 0 1933 l
2261 328 M 0 1933 l
CS [] 0 setdash M
CS [] 0 setdash M
 0 0 0 C
 0 0 0 C
 0 0 0 C
 0 0 0 C
 0 0 0 C
1048 61 M 40 56 m -12 -4 l
CS M
-8 -8 l
-4 -8 l
-4 -12 l
0 -12 l
4 -8 l
12 -4 l
8 0 l
8 4 l
12 12 l
8 12 l
8 16 l
4 12 l
-36 0 m -8 -4 l
-8 -8 l
-4 -8 l
-4 -12 l
0 -12 l
4 -8 l
8 -4 l
12 56 m 8 0 l
8 -4 l
4 -8 l
8 -32 l
4 -8 l
4 -4 l
-28 56 m 4 -4 l
4 -8 l
8 -32 l
4 -8 l
8 -4 l
4 0 l
 0 0 0 C
44 -10 m 2 5 l
0 -10 l
-2 5 l
-3 2 l
-5 3 l
-9 0 l
-5 -3 l
-2 -2 l
0 -5 l
2 -2 l
5 -3 l
12 -4 l
5 -3 l
2 -2 l
-26 17 m 2 -3 l
5 -2 l
12 -5 l
5 -2 l
2 -3 l
0 -7 l
-2 -2 l
-5 -3 l
-10 0 l
-5 3 l
-2 2 l
-2 5 l
0 -10 l
2 5 l
CS [] 0 setdash M
1140 166 M 110 0 l
CS [] 0 setdash M
 0 0 0 C
1152 150 M 0 -51 l
3 51 m 14 -44 l
-17 44 m 17 -51 l
17 51 m -17 -51 l
17 51 m 0 -51 l
2 51 m 0 -51 l
-43 51 m 10 0 l
31 0 m 10 0 l
-51 -51 m 15 0 l
19 0 m 17 0 l
43 44 m 2 7 l
0 -15 l
-2 8 l
-5 4 l
-7 3 l
-7 0 l
-7 -3 l
-5 -4 l
0 -5 l
2 -5 l
3 -3 l
4 -2 l
15 -5 l
5 -2 l
4 -5 l
-33 22 m 5 -5 l
4 -3 l
15 -4 l
5 -3 l
2 -2 l
2 -5 l
0 -10 l
-4 -4 l
-8 -3 l
-7 0 l
-7 3 l
-5 4 l
-2 8 l
0 -15 l
2 7 l
 0 0 0 C
 0 0 0 C
83 55 m -8 -8 l
-8 -12 l
-8 -16 l
-4 -20 l
0 -16 l
4 -20 l
8 -16 l
8 -12 l
8 -8 l
-8 120 m -8 -16 l
-4 -12 l
-4 -20 l
0 -16 l
4 -20 l
4 -12 l
8 -16 l
40 76 m 0 -56 l
4 56 m 0 -56 l
0 44 m 8 8 l
12 4 l
8 0 l
12 -4 l
4 -8 l
0 -44 l
-16 56 m 8 -4 l
4 -8 l
0 -44 l
4 44 m 8 8 l
12 4 l
8 0 l
12 -4 l
4 -8 l
0 -44 l
-16 56 m 8 -4 l
4 -8 l
0 -44 l
-100 56 m 16 0 l
-16 -56 m 28 0 l
16 0 m 28 0 l
16 0 m 28 0 l
47 12 m 1444 22 L
34 51 m 1447 22 L
0 51 m -3 -15 l
0 15 l
34 0 l
1444 22 M 34 0 l
0 15 l
-2 -15 l
21 139 m 8 -8 l
8 -12 l
8 -16 l
4 -20 l
0 -16 l
-4 -20 l
-8 -16 l
-8 -12 l
-8 -8 l
8 120 m 8 -16 l
4 -12 l
4 -20 l
0 -16 l
-4 -20 l
-4 -12 l
-8 -16 l
 0 0 0 C
CS [] 0 setdash M
836 2068 M 4 -28 m 8 2 l
7 5 l
5 7 l
3 7 l
0 9 l
-1 8 l
-5 7 l
-6 6 l
-7 3 l
-9 1 l
-8 -1 l
-7 -3 l
-6 -6 l
-5 -7 l
-1 -8 l
0 -9 l
3 -8 l
5 -6 l
7 -5 l
8 -2 l
9 0 l
-4 28 m -145 0 l
0 28 m -1 -56 l
146 28 m 144 0 l
0 28 m 0 -56 l
-125 -359 m 4 -28 m 8 2 l
7 5 l
5 7 l
3 7 l
1 9 l
-2 8 l
-4 7 l
-6 6 l
-8 3 l
-8 2 l
-8 -2 l
-8 -3 l
-6 -6 l
-4 -7 l
-2 -8 l
1 -9 l
3 -7 l
5 -7 l
7 -5 l
8 -2 l
8 0 l
-4 28 m -41 0 l
0 28 m 0 -56 l
41 28 m 41 0 l
0 28 m 0 -56 l
-143 -166 m 5 -28 m 8 3 l
6 5 l
6 6 l
3 8 l
0 8 l
-2 8 l
-4 8 l
-6 5 l
-7 4 l
-9 1 l
-8 -1 l
-7 -4 l
-7 -5 l
-4 -8 l
-1 -8 l
0 -8 l
3 -8 l
5 -6 l
7 -5 l
8 -3 l
9 0 l
-5 28 m -91 0 l
0 28 m 0 -56 l
91 28 m 92 0 l
0 28 m 0 -56 l
773 713 M 4 -28 m 8 3 l
7 5 l
5 6 l
3 8 l
1 8 l
-2 8 l
-4 8 l
-6 5 l
-8 4 l
-8 1 l
-9 -1 l
-7 -4 l
-6 -5 l
-4 -8 l
-2 -8 l
0 -8 l
3 -8 l
6 -6 l
7 -5 l
8 -3 l
8 0 l
-4 28 m -107 0 l
0 28 m 0 -56 l
107 28 m 106 0 l
0 28 m 0 -56 l
5 609 m 4 -28 m 8 2 l
7 5 l
5 7 l
3 7 l
1 9 l
-2 8 l
-4 7 l
-6 6 l
-8 3 l
-8 2 l
-8 -2 l
-8 -3 l
-6 -6 l
-4 -7 l
-2 -8 l
0 -9 l
4 -7 l
5 -7 l
7 -5 l
8 -2 l
8 0 l
-4 28 m -169 0 l
0 28 m 0 -56 l
169 28 m 169 0 l
0 28 m 0 -56 l
865 520 M B
4 -28 m 877 495 L
884 499 L
889 506 L
892 514 L
892 522 L
891 530 L
886 537 L
880 543 L
873 547 L
865 548 L
856 547 L
849 543 L
843 537 L
838 530 L
837 522 L
837 514 L
840 506 L
845 499 L
852 495 L
860 492 L
869 492 L
CF M
-4 28 m -73 0 l
0 28 m 0 -56 l
73 28 m 72 0 l
0 28 m 0 -56 l
53 1382 m 20 -20 m 0 40 l
-40 0 l
0 -40 l
40 0 l
-20 20 m -58 0 l
0 28 m 0 -56 l
58 28 m 58 0 l
0 28 m 0 -56 l
29 -746 m 20 -20 m 0 40 l
-40 0 l
0 -40 l
40 0 l
-20 20 m -72 0 l
0 28 m 0 -56 l
72 28 m 73 0 l
0 28 m 0 -56 l
-157 -165 m 19 -20 m 0 39 l
-39 0 l
0 -39 l
39 0 l
-19 20 m -37 0 l
0 28 m 0 -56 l
37 28 m 36 0 l
0 28 m 0 -56 l
266 1189 m CS [] 0 setdash M
1319 2118 M -17 -50 l
17 50 m 16 -50 l
-16 43 m 14 -43 l
-26 14 m 21 0 l
-31 -14 m 14 0 l
15 0 m 14 0 l
24 33 m -7 -2 l
-5 -5 l
-2 -7 l
0 -5 l
2 -7 l
5 -5 l
7 -2 l
5 0 l
7 2 l
5 5 l
3 7 l
0 5 l
-3 7 l
-5 5 l
-7 2 l
-5 0 l
-4 -2 l
-5 -5 l
-3 -7 l
0 -5 l
3 -7 l
5 -5 l
4 -2 l
5 0 m 5 2 l
5 5 l
2 7 l
0 5 l
-2 7 l
-5 5 l
-5 2 l
34 17 m 0 -50 l
2 50 m 0 -50 l
24 33 m -24 -24 l
12 10 m 15 -19 l
-17 19 m 14 -19 l
-33 50 m 9 0 l
17 -17 m 15 0 l
-41 -33 m 16 0 l
10 0 m 15 0 l
16 50 m -2 -2 l
2 -3 l
3 3 l
-3 2 l
0 -17 m 0 -33 l
3 33 m 0 -33 l
-10 33 m 10 0 l
-10 -33 m 17 0 l
53 19 m 29 0 l
0 5 l
-3 4 l
-2 3 l
-5 2 l
-7 0 l
-7 -2 l
-5 -5 l
-2 -7 l
0 -5 l
2 -7 l
5 -5 l
7 -2 l
5 0 l
7 2 l
5 5 l
-3 12 m 0 7 l
-2 5 l
-12 2 m -5 -2 l
-5 -5 l
-2 -7 l
0 -5 l
2 -7 l
5 -5 l
5 -2 l
36 50 m 0 -41 l
3 -7 l
4 -2 l
5 0 l
5 2 l
2 5 l
-16 43 m 0 -41 l
2 -7 l
2 -2 l
-14 33 m 19 0 l
63 -5 m 0 -2 l
-3 0 l
0 2 l
3 3 l
5 2 l
9 0 l
5 -2 l
2 -3 l
3 -4 l
0 -17 l
2 -5 l
3 -2 l
-8 28 m 0 -21 l
3 -5 l
5 -2 l
2 0 l
-10 24 m -2 -3 l
-14 -2 l
-8 -3 l
-2 -4 l
0 -5 l
2 -5 l
8 -2 l
7 0 l
5 2 l
4 5 l
-16 12 m -5 -3 l
-3 -4 l
0 -5 l
3 -5 l
5 -2 l
43 50 m 0 -50 l
2 50 m 0 -50 l
-9 50 m 9 0 l
-9 -50 m 17 0 l
16 4 m -2 -2 l
2 -2 l
3 2 l
-3 2 l
77 56 m -4 -5 l
-5 -7 l
-5 -10 l
-2 -12 l
0 -10 l
2 -12 l
5 -9 l
5 -7 l
4 -5 l
-4 72 m -5 -10 l
-3 -7 l
-2 -12 l
0 -10 l
2 -12 l
3 -7 l
5 -9 l
26 52 m 5 3 l
7 7 l
0 -50 l
-2 48 m 0 -48 l
-10 0 m 22 0 l
50 33 m -2 -7 l
-5 -5 l
-7 -2 l
-3 0 l
-7 2 l
-5 5 l
-2 7 l
0 3 l
2 7 l
5 5 l
7 2 l
5 0 l
7 -2 l
5 -5 l
3 -7 l
0 -15 l
-3 -9 l
-2 -5 l
-5 -5 l
-7 -2 l
-7 0 l
-5 2 l
-3 5 l
0 2 l
3 3 l
2 -3 l
-2 -2 l
9 12 m -4 2 l
-5 5 l
-3 7 l
0 3 l
3 7 l
5 5 l
4 2 l
5 0 m 5 -2 l
5 -5 l
2 -7 l
0 -15 l
-2 -9 l
-3 -5 l
-4 -5 l
-5 -2 l
62 33 m -2 -7 l
-5 -5 l
-7 -2 l
-2 0 l
-8 2 l
-4 5 l
-3 7 l
0 3 l
3 7 l
4 5 l
8 2 l
4 0 l
8 -2 l
4 -5 l
3 -7 l
0 -15 l
-3 -9 l
-2 -5 l
-5 -5 l
-7 -2 l
-7 0 l
-5 2 l
-2 5 l
0 2 l
2 3 l
2 -3 l
-2 -2 l
10 12 m -5 2 l
-5 5 l
-2 7 l
0 3 l
2 7 l
5 5 l
5 2 l
4 0 m 5 -2 l
5 -5 l
2 -7 l
0 -15 l
-2 -9 l
-2 -5 l
-5 -5 l
-5 -2 l
36 50 m -5 -24 l
5 5 l
7 2 l
7 0 l
8 -2 l
5 -5 l
2 -7 l
0 -5 l
-2 -7 l
-5 -5 l
-8 -2 l
-7 0 l
-7 2 l
-2 2 l
-3 5 l
0 3 l
3 2 l
2 -2 l
-2 -3 l
16 24 m 5 -2 l
5 -5 l
3 -7 l
0 -5 l
-3 -7 l
-5 -5 l
-5 -2 l
-14 50 m 24 0 l
-24 -2 m 12 0 l
12 2 l
19 10 m 5 -5 l
5 -7 l
5 -10 l
2 -12 l
0 -10 l
-2 -12 l
-5 -9 l
-5 -7 l
-5 -5 l
5 72 m 5 -10 l
2 -7 l
CS M
3 -12 l
0 -10 l
-3 -12 l
-2 -7 l
-5 -9 l
 0 0 0 C
22 12 m CS [] 0 setdash M
1295 1874 M CS [] 0 setdash M
1307 1925 M 0 -51 l
2 51 m 0 -51 l
-10 51 m 24 0 l
8 -3 l
4 -5 l
3 -4 l
2 -8 l
0 -12 l
-2 -7 l
-3 -5 l
-4 -5 l
-8 -2 l
-24 0 l
24 51 m 5 -3 l
5 -5 l
2 -4 l
3 -8 l
0 -12 l
-3 -7 l
-2 -5 l
-5 -5 l
-5 -2 l
37 29 m 0 -2 l
-3 0 l
0 2 l
3 2 l
4 3 l
10 0 l
5 -3 l
2 -2 l
3 -5 l
0 -17 l
2 -5 l
2 -2 l
-7 29 m 0 -22 l
3 -5 l
4 -2 l
3 0 l
-10 24 m -2 -2 l
-15 -3 l
-7 -2 l
-2 -5 l
0 -5 l
2 -5 l
7 -2 l
8 0 l
4 2 l
5 5 l
-17 12 m -4 -2 l
-3 -5 l
0 -5 l
3 -5 l
4 -2 l
39 34 m 14 -34 l
-12 34 m 12 -29 l
15 29 m -15 -34 l
-19 34 m 14 0 l
10 0 m 15 0 l
14 17 m -2 -3 l
2 -2 l
2 2 l
-2 3 l
0 -17 m 0 -34 l
2 34 m 0 -34 l
-9 34 m 9 0 l
-9 -34 m 17 0 l
14 19 m 29 0 l
0 5 l
-2 5 l
-3 2 l
-5 3 l
-7 0 l
-7 -3 l
-5 -4 l
-2 -8 l
0 -5 l
2 -7 l
5 -5 l
7 -2 l
5 0 l
7 2 l
5 5 l
-2 12 m 0 8 l
-3 4 l
-12 3 m -5 -3 l
-5 -4 l
-2 -8 l
0 -5 l
2 -7 l
5 -5 l
5 -2 l
55 29 m 3 5 l
0 -10 l
-3 5 l
-2 2 l
-5 3 l
-9 0 l
-5 -3 l
-3 -2 l
0 -5 l
3 -2 l
5 -3 l
12 -5 l
4 -2 l
3 -2 l
-27 17 m 3 -3 l
5 -2 l
12 -5 l
4 -3 l
3 -2 l
0 -7 l
-3 -3 l
-4 -2 l
-10 0 l
-5 2 l
-2 3 l
-3 5 l
0 -10 l
3 5 l
79 14 m 29 0 l
0 5 l
-2 5 l
-3 2 l
-5 3 l
-7 0 l
-7 -3 l
-5 -4 l
-2 -8 l
0 -5 l
2 -7 l
5 -5 l
7 -2 l
5 0 l
7 2 l
5 5 l
-2 12 m 0 8 l
-3 4 l
-12 3 m -5 -3 l
-4 -4 l
-3 -8 l
0 -5 l
3 -7 l
4 -5 l
5 -2 l
36 51 m 0 -41 l
3 -8 l
5 -2 l
4 0 l
5 2 l
3 5 l
-17 44 m 0 -41 l
2 -8 l
3 -2 l
-15 34 m 19 0 l
63 -5 m 0 -2 l
-2 0 l
0 2 l
2 2 l
5 3 l
9 0 l
5 -3 l
3 -2 l
2 -5 l
0 -17 l
2 -5 l
3 -2 l
-7 29 m 0 -22 l
2 -5 l
5 -2 l
2 0 l
-9 24 m -3 -2 l
-14 -3 l
-7 -2 l
-3 -5 l
0 -5 l
3 -5 l
7 -2 l
7 0 l
5 2 l
5 5 l
-17 12 m -5 -2 l
-2 -5 l
0 -5 l
2 -5 l
5 -2 l
43 51 m 0 -51 l
3 51 m 0 -51 l
-10 51 m 10 0 l
-10 -51 m 17 0 l
17 5 m -3 -3 l
3 -2 l
2 2 l
-2 3 l
77 55 m -5 -5 l
-5 -7 l
-5 -9 l
-2 -12 l
0 -10 l
2 -12 l
5 -10 l
5 -7 l
5 -5 l
-5 72 m -5 -9 l
-2 -7 l
-3 -12 l
0 -10 l
3 -12 l
2 -7 l
5 -10 l
26 53 m 5 2 l
7 8 l
0 -51 l
-2 48 m 0 -48 l
-10 0 m 22 0 l
50 34 m -2 -7 l
-5 -5 l
-7 -3 l
-2 0 l
-8 3 l
-4 5 l
-3 7 l
0 2 l
3 7 l
4 5 l
8 3 l
4 0 l
8 -3 l
4 -5 l
3 -7 l
0 -14 l
-3 -10 l
-2 -5 l
-5 -5 l
-7 -2 l
-7 0 l
-5 2 l
-2 5 l
0 3 l
2 2 l
2 -2 l
-2 -3 l
10 12 m -5 3 l
-5 5 l
-2 7 l
0 2 l
2 7 l
5 5 l
5 3 l
4 0 m 5 -3 l
5 -5 l
2 -7 l
0 -14 l
-2 -10 l
-2 -5 l
-5 -5 l
-5 -2 l
63 34 m -3 -7 l
-5 -5 l
-7 -3 l
-2 0 l
-7 3 l
-5 5 l
-3 7 l
0 2 l
3 7 l
5 5 l
7 3 l
5 0 l
7 -3 l
5 -5 l
2 -7 l
0 -14 l
-2 -10 l
-3 -5 l
-5 -5 l
-7 -2 l
-7 0 l
-5 2 l
-2 5 l
0 3 l
2 2 l
3 -2 l
-3 -3 l
10 12 m -5 3 l
-5 5 l
-2 7 l
0 2 l
2 7 l
5 5 l
5 3 l
5 0 m 4 -3 l
5 -5 l
3 -7 l
0 -14 l
-3 -10 l
CS M
-2 -5 l
-5 -5 l
-5 -2 l
31 51 m 0 -15 l
0 5 m 3 5 l
5 5 l
5 0 l
12 -8 l
4 0 l
3 3 l
2 5 l
-31 -5 m 5 2 l
5 0 l
12 -5 l
9 8 m 0 -8 l
-2 -7 l
-10 -12 l
-2 -5 l
-3 -7 l
0 -12 l
15 36 m -12 -12 l
-3 -5 l
-2 -7 l
0 -12 l
34 60 m 4 -5 l
5 -7 l
5 -9 l
2 -12 l
0 -10 l
-2 -12 l
-5 -10 l
-5 -7 l
-4 -5 l
4 72 m 5 -9 l
3 -7 l
2 -12 l
0 -10 l
-2 -12 l
-3 -7 l
-5 -10 l
 0 0 0 C
22 12 m CS [] 0 setdash M
1295 1681 M CS [] 0 setdash M
1333 1724 M 2 7 l
0 -14 l
-2 7 l
-5 5 l
-7 2 l
-7 0 l
-7 -2 l
-5 -5 l
0 -5 l
2 -5 l
3 -2 l
4 -3 l
15 -4 l
5 -3 l
4 -5 l
-33 22 m 5 -5 l
4 -2 l
15 -5 l
5 -2 l
2 -3 l
2 -5 l
0 -9 l
-4 -5 l
-8 -2 l
-7 0 l
-7 2 l
-5 5 l
-2 7 l
0 -14 l
2 7 l
51 43 m 0 -50 l
2 50 m 0 -50 l
15 36 m 0 -20 l
-24 34 m 38 0 l
0 -14 l
-2 14 l
-27 -24 m 15 0 l
-24 -26 m 38 0 l
0 14 l
-2 -14 l
48 43 m 2 7 l
0 -14 l
-2 7 l
-5 5 l
-7 2 l
-8 0 l
-7 -2 l
-5 -5 l
0 -5 l
3 -5 l
2 -2 l
5 -3 l
15 -4 l
4 -3 l
5 -5 l
-34 22 m 5 -5 l
5 -2 l
15 -5 l
4 -2 l
3 -3 l
2 -5 l
0 -9 l
-5 -5 l
-7 -2 l
-7 0 l
-7 2 l
-5 5 l
-3 7 l
0 -14 l
3 7 l
62 43 m -16 -50 l
16 50 m 17 -50 l
-17 43 m 15 -43 l
-27 14 m 22 0 l
-31 -14 m 14 0 l
15 0 m 14 0 l
15 50 m 0 -50 l
2 50 m 14 -43 l
-16 43 m 16 -50 l
17 50 m -17 -50 l
17 50 m 0 -50 l
3 50 m 0 -50 l
-44 50 m 10 0 l
31 0 m 10 0 l
-51 -50 m 15 0 l
19 0 m 17 0 l
70 60 m -5 -5 l
-5 -7 l
-5 -10 l
-2 -12 l
0 -10 l
2 -12 l
5 -9 l
5 -7 l
5 -5 l
-5 72 m -5 -10 l
-2 -7 l
-3 -12 l
0 -10 l
3 -12 l
2 -7 l
5 -9 l
26 53 m 5 2 l
7 7 l
0 -50 l
-2 48 m 0 -48 l
-10 0 m 22 0 l
51 33 m -3 -7 l
-5 -5 l
-7 -2 l
-2 0 l
-8 2 l
-4 5 l
-3 7 l
0 3 l
3 7 l
4 5 l
8 2 l
5 0 l
7 -2 l
5 -5 l
2 -7 l
0 -15 l
-2 -9 l
-3 -5 l
-5 -5 l
-7 -2 l
-7 0 l
-5 2 l
-2 5 l
0 2 l
2 3 l
2 -3 l
-2 -2 l
10 12 m -5 2 l
-5 5 l
-2 7 l
0 3 l
2 7 l
5 5 l
5 2 l
5 0 m 4 -2 l
5 -5 l
3 -7 l
0 -15 l
-3 -9 l
-2 -5 l
-5 -5 l
-5 -2 l
63 33 m -3 -7 l
-5 -5 l
-7 -2 l
-2 0 l
-7 2 l
-5 5 l
-3 7 l
0 3 l
3 7 l
5 5 l
7 2 l
5 0 l
7 -2 l
5 -5 l
2 -7 l
0 -15 l
-2 -9 l
-3 -5 l
-5 -5 l
-7 -2 l
-7 0 l
-5 2 l
-2 5 l
0 2 l
2 3 l
3 -3 l
-3 -2 l
10 12 m -5 2 l
-5 5 l
-2 7 l
0 3 l
2 7 l
5 5 l
5 2 l
5 0 m 4 -2 l
5 -5 l
3 -7 l
0 -15 l
-3 -9 l
-2 -5 l
-5 -5 l
-5 -2 l
63 33 m -3 -7 l
-4 -5 l
-8 -2 l
-2 0 l
-7 2 l
-5 5 l
-2 7 l
0 3 l
2 7 l
5 5 l
7 2 l
5 0 l
7 -2 l
5 -5 l
2 -7 l
0 -15 l
-2 -9 l
-3 -5 l
-4 -5 l
-8 -2 l
-7 0 l
-5 2 l
-2 5 l
0 2 l
2 3 l
3 -3 l
-3 -2 l
10 12 m -5 2 l
-5 5 l
-2 7 l
0 3 l
2 7 l
5 5 l
5 2 l
5 0 m 5 -2 l
4 -5 l
3 -7 l
0 -15 l
-3 -9 l
-2 -5 l
-5 -5 l
-5 -2 l
32 60 m 4 -5 l
5 -7 l
5 -10 l
3 -12 l
0 -10 l
-3 -12 l
-5 -9 l
-5 -7 l
-4 -5 l
4 72 m 5 -10 l
3 -7 l
2 -12 l
0 -10 l
-2 -12 l
-3 -7 l
-5 -9 l
 0 0 0 C
22 12 m CS [] 0 setdash M
1295 1487 M CS [] 0 setdash M
1319 1538 M -8 -3 l
-4 -5 l
-3 -4 l
-2 -10 l
0 -7 l
2 -10 l
3 -5 l
4 -4 l
8 -3 l
4 0 l
8 3 l
CS M
4 4 l
3 5 l
2 10 l
0 7 l
-2 10 l
-3 4 l
-4 5 l
-8 3 l
-4 0 l
-5 -3 l
-5 -5 l
-2 -4 l
-3 -10 l
0 -7 l
3 -10 l
2 -5 l
5 -4 l
5 -3 l
4 0 m 5 3 l
5 4 l
2 5 l
3 10 l
0 7 l
-3 10 l
-2 4 l
-5 5 l
-5 3 l
-12 -46 m 0 2 l
3 5 l
5 3 l
2 0 l
5 -3 l
2 -5 l
3 -17 l
2 -2 l
5 0 l
2 5 l
0 2 l
-12 12 m 3 -9 l
2 -5 l
2 -3 l
3 0 l
2 3 l
48 50 m 3 -7 l
0 15 l
-3 -8 l
-4 5 l
-8 3 l
-4 0 l
-8 -3 l
-4 -5 l
-3 -4 l
-2 -8 l
0 -12 l
2 -7 l
3 -5 l
4 -4 l
8 -3 l
4 0 l
8 3 l
4 4 l
3 5 l
-19 39 m -5 -3 l
-5 -5 l
-2 -4 l
-3 -8 l
0 -12 l
3 -7 l
2 -5 l
5 -4 l
5 -3 l
38 51 m 0 -51 l
2 51 m 0 -51 l
-9 51 m 24 0 l
7 -3 l
5 -5 l
2 -4 l
3 -8 l
0 -12 l
-3 -7 l
-2 -5 l
-5 -4 l
-7 -3 l
-24 0 l
24 51 m 5 -3 l
5 -5 l
2 -4 l
2 -8 l
0 -12 l
-2 -7 l
-2 -5 l
-5 -4 l
-5 -3 l
63 43 m 2 8 l
0 -15 l
-2 7 l
-5 5 l
-8 3 l
-7 0 l
-7 -3 l
-5 -5 l
0 -4 l
3 -5 l
2 -3 l
5 -2 l
14 -5 l
5 -2 l
5 -5 l
-34 22 m 5 -5 l
5 -3 l
14 -4 l
5 -3 l
3 -2 l
2 -5 l
0 -10 l
-5 -4 l
-7 -3 l
-7 0 l
-8 3 l
-4 4 l
-3 8 l
0 -15 l
3 7 l
50 44 m 0 -51 l
3 51 m 0 -51 l
14 36 m 0 -19 l
-24 34 m 38 0 l
0 -15 l
-2 15 l
-26 -24 m 14 0 l
-24 -27 m 17 0 l
36 22 m 43 0 l
22 29 m 0 -36 l
2 -8 l
5 -4 l
7 -3 l
5 0 l
7 3 l
5 4 l
3 8 l
0 36 l
-32 0 m 0 -36 l
3 -8 l
5 -4 l
4 -3 l
-21 51 m 17 0 l
16 0 m 15 0 l
17 0 m 0 -51 l
2 51 m 0 -51 l
31 51 m -31 -32 l
12 10 m 19 -29 l
-21 29 m 19 -29 l
-39 51 m 17 0 l
15 0 m 14 0 l
-46 -51 m 17 0 l
15 0 m 14 0 l
27 51 m -8 -3 l
-4 -5 l
-3 -4 l
-2 -10 l
0 -7 l
2 -10 l
3 -5 l
4 -4 l
8 -3 l
4 0 l
8 3 l
5 4 l
2 5 l
2 10 l
0 7 l
-2 10 l
-2 4 l
-5 5 l
-8 3 l
-4 0 l
-5 -3 l
-5 -5 l
-2 -4 l
-3 -10 l
0 -7 l
3 -10 l
2 -5 l
5 -4 l
5 -3 l
4 0 m 5 3 l
5 4 l
3 5 l
2 10 l
0 7 l
-2 10 l
-3 4 l
-5 5 l
-5 3 l
-12 -46 m 0 2 l
3 5 l
5 3 l
2 0 l
5 -3 l
2 -5 l
3 -17 l
2 -2 l
5 0 l
2 5 l
0 2 l
-12 12 m 3 -9 l
2 -5 l
3 -3 l
2 0 l
2 3 l
48 50 m 3 -7 l
0 15 l
-3 -8 l
-4 5 l
-8 3 l
-4 0 l
-8 -3 l
-4 -5 l
-3 -4 l
-2 -8 l
0 -12 l
2 -7 l
3 -5 l
4 -4 l
8 -3 l
4 0 l
8 3 l
4 4 l
3 5 l
-19 39 m -5 -3 l
-5 -5 l
-2 -4 l
-3 -8 l
0 -12 l
3 -7 l
2 -5 l
5 -4 l
5 -3 l
38 51 m 0 -51 l
3 51 m 0 -51 l
-10 51 m 24 0 l
7 -3 l
5 -5 l
2 -4 l
3 -8 l
0 -12 l
-3 -7 l
-2 -5 l
-5 -4 l
-7 -3 l
-24 0 l
24 51 m 5 -3 l
5 -5 l
2 -4 l
2 -8 l
0 -12 l
-2 -7 l
-2 -5 l
-5 -4 l
-5 -3 l
89 60 m -5 -5 l
-5 -7 l
-4 -9 l
-3 -12 l
0 -10 l
3 -12 l
4 -10 l
5 -7 l
5 -5 l
-5 72 m -5 -9 l
-2 -7 l
-2 -12 l
0 -10 l
2 -12 l
2 -7 l
5 -10 l
22 53 m 2 -2 l
-2 -3 l
-3 3 l
0 2 l
3 5 l
2 2 l
7 3 l
10 0 l
7 -3 l
3 -2 l
2 -5 l
0 -5 l
-2 -5 l
-7 -4 l
-13 -5 l
-4 -3 l
-5 -4 l
-3 -8 l
0 -7 l
22 51 m 5 -3 l
2 -2 l
3 -5 l
0 -5 l
-3 -5 l
CS M
-7 -4 l
-10 -5 l
-12 -17 m 3 2 l
5 0 l
12 -4 l
7 0 l
5 2 l
2 2 l
-26 0 m 12 -7 l
9 0 l
3 3 l
2 4 l
0 5 l
29 39 m -7 -3 l
-5 -7 l
-2 -12 l
0 -7 l
2 -12 l
5 -7 l
7 -3 l
5 0 l
7 3 l
5 7 l
2 12 l
0 7 l
-2 12 l
-5 7 l
-7 3 l
-5 0 l
-5 -3 l
-2 -2 l
-3 -5 l
-2 -12 l
0 -7 l
2 -12 l
3 -5 l
2 -2 l
5 -3 l
5 0 m 5 3 l
2 2 l
2 5 l
3 12 l
0 7 l
-3 12 l
-2 5 l
-2 2 l
-5 3 l
43 0 m -7 -3 l
-5 -7 l
-2 -12 l
0 -7 l
2 -12 l
5 -7 l
7 -3 l
5 0 l
7 3 l
5 7 l
2 12 l
0 7 l
-2 12 l
-5 7 l
-7 3 l
-5 0 l
-5 -3 l
-2 -2 l
-2 -5 l
-3 -12 l
0 -7 l
3 -12 l
2 -5 l
2 -2 l
5 -3 l
5 0 m 5 3 l
2 2 l
3 5 l
2 12 l
0 7 l
-2 12 l
-3 5 l
-2 2 l
-5 3 l
36 -10 m 5 2 l
7 8 l
0 -51 l
-2 48 m 0 -48 l
-10 0 m 22 0 l
19 60 m 5 -5 l
5 -7 l
4 -9 l
3 -12 l
0 -10 l
-3 -12 l
-4 -10 l
-5 -7 l
-5 -5 l
5 72 m 5 -9 l
2 -7 l
2 -12 l
0 -10 l
-2 -12 l
-2 -7 l
-5 -10 l
 0 0 0 C
21 12 m CS [] 0 setdash M
1295 1294 M CS [] 0 setdash M
1307 1344 M 0 -50 l
2 50 m 0 -50 l
-10 50 m 29 0 l
7 -2 l
3 -3 l
2 -4 l
0 -5 l
-2 -5 l
-3 -3 l
-7 -2 l
0 24 m 5 -2 l
2 -3 l
3 -4 l
0 -5 l
-3 -5 l
-2 -3 l
-5 -2 l
-19 0 m 19 0 l
7 -2 l
3 -3 l
2 -5 l
0 -7 l
-2 -5 l
-3 -2 l
-7 -2 l
-29 0 l
29 26 m 5 -2 l
2 -3 l
3 -5 l
0 -7 l
-3 -5 l
-2 -2 l
-5 -2 l
41 33 m -7 -2 l
-5 -5 l
-2 -7 l
0 -5 l
2 -7 l
5 -5 l
7 -2 l
5 0 l
7 2 l
5 5 l
2 7 l
0 5 l
-2 7 l
-5 5 l
-7 2 l
-5 0 l
-5 -2 l
-4 -5 l
-3 -7 l
0 -5 l
3 -7 l
4 -5 l
5 -2 l
5 0 m 5 2 l
5 5 l
2 7 l
0 5 l
-2 7 l
-5 5 l
-5 2 l
34 0 m 0 -26 l
2 -5 l
7 -2 l
5 0 l
7 2 l
5 5 l
-24 26 m 0 -26 l
2 -5 l
5 -2 l
17 33 m 0 -33 l
3 33 m 0 -33 l
-37 33 m 10 0 l
17 0 m 10 0 l
-3 -33 m 10 0 l
41 26 m -3 -2 l
3 -3 l
2 3 l
0 2 l
-5 5 l
-5 2 l
-7 0 l
-7 -2 l
-5 -5 l
-2 -7 l
0 -5 l
2 -7 l
5 -5 l
7 -2 l
5 0 l
7 2 l
5 5 l
-17 26 m -5 -2 l
-4 -5 l
-3 -7 l
0 -5 l
3 -7 l
4 -5 l
5 -2 l
36 28 m 0 -2 l
-2 0 l
0 2 l
2 3 l
5 2 l
10 0 l
5 -2 l
2 -3 l
2 -4 l
0 -17 l
3 -5 l
2 -2 l
-7 28 m 0 -21 l
2 -5 l
5 -2 l
3 0 l
-10 24 m -2 -3 l
-15 -2 l
-7 -3 l
-2 -4 l
0 -5 l
2 -5 l
7 -2 l
7 0 l
5 2 l
5 5 l
-17 12 m -5 -3 l
-2 -4 l
0 -5 l
2 -5 l
5 -2 l
44 33 m 0 -26 l
2 -5 l
7 -2 l
5 0 l
7 2 l
5 5 l
-24 26 m 0 -26 l
2 -5 l
5 -2 l
17 33 m 0 -33 l
2 33 m 0 -33 l
-36 33 m 10 0 l
17 0 m 9 0 l
-2 -33 m 10 0 l
41 50 m 0 -50 l
2 50 m 0 -50 l
-2 26 m -5 5 l
-5 2 l
-5 0 l
-7 -2 l
-5 -5 l
-2 -7 l
0 -5 l
2 -7 l
5 -5 l
7 -2 l
5 0 l
5 2 l
5 5 l
-15 26 m -5 -2 l
-5 -5 l
-2 -7 l
0 -5 l
2 -7 l
5 -5 l
5 -2 l
7 50 m 10 0 l
-2 -50 m 9 0 l
53 19 m 29 0 l
0 5 l
-2 4 l
-3 3 l
-5 2 l
-7 0 l
-7 -2 l
-5 -5 l
-2 -7 l
0 -5 l
2 -7 l
5 -5 l
7 -2 l
5 0 l
7 2 l
5 5 l
-2 12 m 0 7 l
-3 5 l
-12 2 m -5 -2 l
-4 -5 l
-3 -7 l
0 -5 l
3 -7 l
4 -5 l
5 -2 l
36 50 m 0 -41 l
3 -7 l
4 -2 l
CS M
5 0 l
5 2 l
3 5 l
-17 43 m 0 -41 l
2 -7 l
2 -2 l
-14 33 m 19 0 l
63 -5 m 0 -2 l
-3 0 l
0 2 l
3 3 l
5 2 l
9 0 l
5 -2 l
3 -3 l
2 -4 l
0 -17 l
2 -5 l
3 -2 l
-7 28 m 0 -21 l
2 -5 l
5 -2 l
2 0 l
-9 24 m -3 -3 l
-14 -2 l
-8 -3 l
-2 -4 l
0 -5 l
2 -5 l
8 -2 l
7 0 l
5 2 l
5 5 l
-17 12 m -5 -3 l
-3 -4 l
0 -5 l
3 -5 l
5 -2 l
43 50 m 0 -50 l
2 50 m 0 -50 l
-9 50 m 9 0 l
-9 -50 m 17 0 l
16 4 m -2 -2 l
2 -2 l
3 2 l
-3 2 l
77 56 m -4 -5 l
-5 -7 l
-5 -10 l
-2 -12 l
0 -10 l
2 -12 l
5 -9 l
5 -7 l
4 -5 l
-4 72 m -5 -10 l
-3 -7 l
-2 -12 l
0 -10 l
2 -12 l
3 -7 l
5 -9 l
21 53 m 3 -3 l
-3 -2 l
-2 2 l
0 3 l
2 4 l
3 3 l
7 2 l
10 0 l
7 -2 l
2 -3 l
3 -4 l
0 -5 l
-3 -5 l
-7 -5 l
-12 -5 l
-5 -2 l
-5 -5 l
-2 -7 l
0 -7 l
22 50 m 4 -2 l
3 -3 l
2 -4 l
0 -5 l
-2 -5 l
-7 -5 l
-10 -5 l
-12 -17 m 2 3 l
5 0 l
12 -5 l
7 0 l
5 2 l
3 3 l
-27 0 m 12 -7 l
10 0 l
2 2 l
3 5 l
0 5 l
29 38 m -8 -2 l
-5 -7 l
-2 -13 l
0 -7 l
2 -12 l
5 -7 l
8 -2 l
4 0 l
8 2 l
4 7 l
3 12 l
0 7 l
-3 13 l
-4 7 l
-8 2 l
-4 0 l
-5 -2 l
-3 -3 l
-2 -4 l
-3 -13 l
0 -7 l
3 -12 l
2 -5 l
3 -2 l
5 -2 l
4 0 m 5 2 l
3 2 l
2 5 l
2 12 l
0 7 l
-2 13 l
-2 4 l
-3 3 l
-5 2 l
44 0 m -8 -2 l
-4 -7 l
-3 -13 l
0 -7 l
3 -12 l
4 -7 l
8 -2 l
4 0 l
8 2 l
5 7 l
2 12 l
0 7 l
-2 13 l
-5 7 l
-8 2 l
-4 0 l
-5 -2 l
-3 -3 l
-2 -4 l
-2 -13 l
0 -7 l
2 -12 l
2 -5 l
3 -2 l
5 -2 l
4 0 m 5 2 l
3 2 l
2 5 l
3 12 l
0 7 l
-3 13 l
-2 4 l
-3 3 l
-5 2 l
32 -9 m 2 -3 l
-2 -2 l
-3 2 l
0 3 l
3 4 l
2 3 l
7 2 l
10 0 l
7 -2 l
3 -3 l
2 -4 l
0 -5 l
-2 -5 l
-8 -5 l
-12 -5 l
-4 -2 l
-5 -5 l
-3 -7 l
0 -7 l
22 50 m 5 -2 l
2 -3 l
3 -4 l
0 -5 l
-3 -5 l
-7 -5 l
-10 -5 l
-12 -17 m 3 3 l
5 0 l
12 -5 l
7 0 l
5 2 l
2 3 l
-26 0 m 12 -7 l
9 0 l
3 2 l
2 5 l
0 5 l
14 48 m 5 -5 l
5 -7 l
5 -10 l
2 -12 l
0 -10 l
-2 -12 l
-5 -9 l
-5 -7 l
-5 -5 l
5 72 m 5 -10 l
3 -7 l
2 -12 l
0 -10 l
-2 -12 l
-3 -7 l
-5 -9 l
 0 0 0 C
22 12 m CS [] 0 setdash M
1295 1100 M CS [] 0 setdash M
1307 1151 M 0 -51 l
2 51 m 0 -51 l
-10 51 m 24 0 l
8 -3 l
4 -4 l
3 -5 l
2 -8 l
0 -12 l
-2 -7 l
-3 -5 l
-4 -4 l
-8 -3 l
-24 0 l
24 51 m 5 -3 l
5 -4 l
2 -5 l
3 -8 l
0 -12 l
-3 -7 l
-2 -5 l
-5 -4 l
-5 -3 l
37 29 m 0 -2 l
-3 0 l
0 2 l
3 2 l
4 3 l
10 0 l
5 -3 l
2 -2 l
3 -5 l
0 -17 l
2 -4 l
2 -3 l
-7 29 m 0 -22 l
3 -4 l
4 -3 l
3 0 l
-10 24 m -2 -2 l
-15 -3 l
-7 -2 l
-2 -5 l
0 -5 l
2 -4 l
7 -3 l
8 0 l
4 3 l
5 4 l
-17 12 m -4 -2 l
-3 -5 l
0 -5 l
3 -4 l
4 -3 l
39 34 m 14 -34 l
-12 34 m 12 -29 l
15 29 m -15 -34 l
-19 34 m 14 0 l
10 0 m 15 0 l
14 17 m -2 -3 l
2 -2 l
2 2 l
-2 3 l
0 -17 m 0 -34 l
2 34 m 0 -34 l
-9 34 m 9 0 l
-9 -34 m 17 0 l
14 19 m 29 0 l
0 5 l
-2 5 l
-3 2 l
-5 3 l
-7 0 l
-7 -3 l
-5 -4 l
-2 -8 l
0 -4 l
2 -8 l
5 -4 l
7 -3 l
5 0 l
CS M
7 3 l
5 4 l
-2 12 m 0 8 l
-3 4 l
-12 3 m -5 -3 l
-5 -4 l
-2 -8 l
0 -4 l
2 -8 l
5 -4 l
5 -3 l
55 29 m 3 5 l
0 -10 l
-3 5 l
-2 2 l
-5 3 l
-9 0 l
-5 -3 l
-3 -2 l
0 -5 l
3 -2 l
5 -3 l
12 -4 l
4 -3 l
3 -2 l
-27 17 m 3 -3 l
5 -2 l
12 -5 l
4 -2 l
3 -3 l
0 -7 l
-3 -2 l
-4 -3 l
-10 0 l
-5 3 l
-2 2 l
-3 5 l
0 -10 l
3 5 l
79 14 m 29 0 l
0 5 l
-2 5 l
-3 2 l
-5 3 l
-7 0 l
-7 -3 l
-5 -4 l
-2 -8 l
0 -4 l
2 -8 l
5 -4 l
7 -3 l
5 0 l
7 3 l
5 4 l
-2 12 m 0 8 l
-3 4 l
-12 3 m -5 -3 l
-4 -4 l
-3 -8 l
0 -4 l
3 -8 l
4 -4 l
5 -3 l
36 51 m 0 -41 l
3 -7 l
5 -3 l
4 0 l
5 3 l
3 4 l
-17 44 m 0 -41 l
2 -7 l
3 -3 l
-15 34 m 19 0 l
63 -5 m 0 -2 l
-2 0 l
0 2 l
2 2 l
5 3 l
9 0 l
5 -3 l
3 -2 l
2 -5 l
0 -17 l
2 -4 l
3 -3 l
-7 29 m 0 -22 l
2 -4 l
5 -3 l
2 0 l
-9 24 m -3 -2 l
-14 -3 l
-7 -2 l
-3 -5 l
0 -5 l
3 -4 l
7 -3 l
7 0 l
5 3 l
5 4 l
-17 12 m -5 -2 l
-2 -5 l
0 -5 l
2 -4 l
5 -3 l
43 51 m 0 -51 l
3 51 m 0 -51 l
-10 51 m 10 0 l
-10 -51 m 17 0 l
17 5 m -3 -2 l
3 -3 l
2 3 l
-2 2 l
77 55 m -5 -4 l
-5 -8 l
-5 -9 l
-2 -12 l
0 -10 l
2 -12 l
5 -10 l
5 -7 l
5 -5 l
-5 73 m -5 -10 l
-2 -7 l
-3 -12 l
0 -10 l
3 -12 l
2 -7 l
5 -10 l
21 53 m 3 -2 l
-3 -3 l
-2 3 l
0 2 l
2 5 l
3 2 l
7 3 l
10 0 l
7 -3 l
2 -2 l
3 -5 l
0 -5 l
-3 -5 l
-7 -4 l
-12 -5 l
-5 -3 l
-5 -4 l
-2 -8 l
0 -7 l
22 51 m 5 -3 l
2 -2 l
2 -5 l
0 -5 l
-2 -5 l
-7 -4 l
-10 -5 l
-12 -17 m 2 2 l
5 0 l
12 -4 l
8 0 l
4 2 l
3 2 l
-27 0 m 12 -7 l
10 0 l
2 3 l
3 4 l
0 5 l
29 39 m -8 -3 l
-4 -7 l
-3 -12 l
0 -7 l
3 -12 l
4 -7 l
8 -3 l
4 0 l
8 3 l
4 7 l
3 12 l
0 7 l
-3 12 l
-4 7 l
-8 3 l
-4 0 l
-5 -3 l
-3 -2 l
-2 -5 l
-2 -12 l
0 -7 l
2 -12 l
2 -5 l
3 -2 l
5 -3 l
4 0 m 5 3 l
3 2 l
2 5 l
2 12 l
0 7 l
-2 12 l
-2 5 l
-3 2 l
-5 3 l
44 0 m -7 -3 l
-5 -7 l
-3 -12 l
0 -7 l
3 -12 l
5 -7 l
7 -3 l
5 0 l
7 3 l
5 7 l
2 12 l
0 7 l
-2 12 l
-5 7 l
-7 3 l
-5 0 l
-5 -3 l
-2 -2 l
-3 -5 l
-2 -12 l
0 -7 l
2 -12 l
3 -5 l
2 -2 l
5 -3 l
5 0 m 4 3 l
3 2 l
2 5 l
3 12 l
0 7 l
-3 12 l
-2 5 l
-3 2 l
-4 3 l
50 -5 m 0 -46 l
3 51 m 0 -51 l
0 51 m -27 -36 l
39 0 l
-22 -15 m 17 0 l
17 60 m 4 -4 l
5 -8 l
5 -9 l
2 -12 l
0 -10 l
-2 -12 l
-5 -10 l
-5 -7 l
-4 -5 l
4 73 m 5 -10 l
3 -7 l
2 -12 l
0 -10 l
-2 -12 l
-3 -7 l
-5 -10 l
 0 0 0 C
22 12 m CS [] 0 setdash M
1295 907 M CS [] 0 setdash M
1307 957 M 0 -50 l
2 50 m 14 -43 l
-16 43 m 16 -50 l
17 50 m -17 -50 l
17 50 m 0 -50 l
3 50 m 0 -50 l
-44 50 m 10 0 l
31 0 m 10 0 l
-51 -50 m 15 0 l
19 0 m 17 0 l
17 29 m 0 -3 l
-3 0 l
0 3 l
3 2 l
5 2 l
9 0 l
5 -2 l
2 -2 l
3 -5 l
0 -17 l
2 -5 l
3 -2 l
-8 29 m 0 -22 l
3 -5 l
5 -2 l
2 0 l
-10 24 m -2 -3 l
-14 -2 l
-8 -2 l
-2 -5 l
0 -5 l
2 -5 l
8 -2 l
7 0 l
5 2 l
4 5 l
-16 12 m -5 -2 l
-3 -5 l
0 -5 l
3 -5 l
5 -2 l
62 29 m 3 4 l
0 -9 l
-3 5 l
-2 2 l
CS M
-5 2 l
-10 0 l
-5 -2 l
-2 -2 l
0 -5 l
2 -3 l
5 -2 l
12 -5 l
5 -2 l
3 -3 l
-27 17 m 2 -2 l
5 -3 l
12 -4 l
5 -3 l
3 -2 l
0 -8 l
-3 -2 l
-5 -2 l
-9 0 l
-5 2 l
-3 2 l
-2 5 l
0 -9 l
2 4 l
53 29 m -7 -2 l
-5 -5 l
-2 -7 l
0 -5 l
2 -7 l
5 -5 l
7 -2 l
5 0 l
7 2 l
5 5 l
3 7 l
0 5 l
-3 7 l
-5 5 l
-7 2 l
-5 0 l
-4 -2 l
-5 -5 l
-3 -7 l
0 -5 l
3 -7 l
5 -5 l
4 -2 l
5 0 m 5 2 l
5 5 l
2 7 l
0 5 l
-2 7 l
-5 5 l
-5 2 l
34 0 m 0 -33 l
2 33 m 0 -33 l
0 26 m 5 5 l
7 2 l
5 0 l
7 -2 l
3 -5 l
0 -26 l
-10 33 m 5 -2 l
2 -5 l
0 -26 l
-33 33 m 9 0 l
-9 -33 m 17 0 l
9 0 m 17 0 l
53 19 m 29 0 l
0 5 l
-3 5 l
-2 2 l
-5 2 l
-7 0 l
-7 -2 l
-5 -5 l
-2 -7 l
0 -5 l
2 -7 l
5 -5 l
7 -2 l
5 0 l
7 2 l
5 5 l
-3 12 m 0 7 l
-2 5 l
-12 2 m -5 -2 l
-5 -5 l
-2 -7 l
0 -5 l
2 -7 l
5 -5 l
5 -2 l
36 50 m 0 -41 l
3 -7 l
4 -2 l
5 0 l
5 2 l
2 5 l
-16 43 m 0 -41 l
2 -7 l
2 -2 l
-14 33 m 19 0 l
63 -4 m 0 -3 l
-3 0 l
0 3 l
3 2 l
5 2 l
9 0 l
5 -2 l
2 -2 l
3 -5 l
0 -17 l
2 -5 l
3 -2 l
-8 29 m 0 -22 l
3 -5 l
5 -2 l
2 0 l
-10 24 m -2 -3 l
-14 -2 l
-8 -2 l
-2 -5 l
0 -5 l
2 -5 l
8 -2 l
7 0 l
5 2 l
4 5 l
-16 12 m -5 -2 l
-3 -5 l
0 -5 l
3 -5 l
5 -2 l
43 50 m 0 -50 l
2 50 m 0 -50 l
-9 50 m 9 0 l
-9 -50 m 17 0 l
16 4 m -2 -2 l
2 -2 l
3 2 l
-3 2 l
77 56 m -4 -5 l
-5 -7 l
-5 -10 l
-2 -12 l
0 -9 l
2 -13 l
5 -9 l
5 -7 l
4 -5 l
-4 72 m -5 -10 l
-3 -7 l
-2 -12 l
0 -9 l
2 -13 l
3 -7 l
5 -9 l
21 53 m 3 -3 l
-3 -2 l
-2 2 l
0 3 l
2 4 l
3 3 l
7 2 l
10 0 l
7 -2 l
2 -3 l
3 -4 l
0 -5 l
-3 -5 l
-7 -5 l
-12 -5 l
-5 -2 l
-5 -5 l
-2 -7 l
0 -7 l
22 50 m 4 -2 l
3 -3 l
2 -4 l
0 -5 l
-2 -5 l
-7 -5 l
-10 -5 l
-12 -17 m 2 3 l
5 0 l
12 -5 l
7 0 l
5 2 l
3 3 l
-27 0 m 12 -7 l
10 0 l
2 2 l
3 5 l
0 5 l
28 38 m -7 -2 l
-5 -7 l
-2 -12 l
0 -8 l
2 -12 l
5 -7 l
7 -2 l
5 0 l
7 2 l
5 7 l
3 12 l
0 8 l
-3 12 l
-5 7 l
-7 2 l
-5 0 l
-4 -2 l
-3 -3 l
-2 -4 l
-3 -12 l
0 -8 l
3 -12 l
2 -5 l
3 -2 l
4 -2 l
5 0 m 5 2 l
2 2 l
3 5 l
2 12 l
0 8 l
-2 12 l
-3 4 l
-2 3 l
-5 2 l
44 0 m -8 -2 l
-4 -7 l
-3 -12 l
0 -8 l
3 -12 l
4 -7 l
8 -2 l
4 0 l
8 2 l
4 7 l
3 12 l
0 8 l
-3 12 l
-4 7 l
-8 2 l
-4 0 l
-5 -2 l
-3 -3 l
-2 -4 l
-2 -12 l
0 -8 l
2 -12 l
2 -5 l
3 -2 l
5 -2 l
4 0 m 5 2 l
3 2 l
2 5 l
2 12 l
0 8 l
-2 12 l
-2 4 l
-3 3 l
-5 2 l
51 -5 m 0 -45 l
2 50 m 0 -50 l
0 50 m -26 -36 l
38 0 l
-21 -14 m 17 0 l
16 60 m 5 -5 l
5 -7 l
5 -10 l
2 -12 l
0 -9 l
-2 -13 l
-5 -9 l
-5 -7 l
-5 -5 l
5 72 m 5 -10 l
2 -7 l
3 -12 l
0 -9 l
-3 -13 l
-2 -7 l
-5 -9 l
 0 0 0 C
22 12 m CS [] 0 setdash M
1295 713 M CS [] 0 setdash M
1319 764 M -8 -3 l
-4 -4 l
-3 -5 l
-2 -10 l
0 -7 l
2 -10 l
3 -5 l
4 -4 l
8 -3 l
4 0 l
8 3 l
4 4 l
3 5 l
2 10 l
0 7 l
-2 10 l
CS M
-3 5 l
-4 4 l
-8 3 l
-4 0 l
-5 -3 l
-5 -4 l
-2 -5 l
-3 -10 l
0 -7 l
3 -10 l
2 -5 l
5 -4 l
5 -3 l
4 0 m 5 3 l
5 4 l
2 5 l
3 10 l
0 7 l
-3 10 l
-2 5 l
-5 4 l
-5 3 l
-12 -46 m 0 2 l
3 5 l
5 3 l
2 0 l
5 -3 l
2 -5 l
3 -16 l
2 -3 l
5 0 l
2 5 l
0 2 l
-12 12 m 3 -9 l
2 -5 l
2 -2 l
3 0 l
2 2 l
48 51 m 3 -8 l
0 15 l
-3 -7 l
-4 4 l
-8 3 l
-4 0 l
-8 -3 l
-4 -4 l
-3 -5 l
-2 -8 l
0 -12 l
2 -7 l
3 -5 l
4 -4 l
8 -3 l
4 0 l
8 3 l
4 4 l
3 5 l
-19 39 m -5 -3 l
-5 -4 l
-2 -5 l
-3 -8 l
0 -12 l
3 -7 l
2 -5 l
5 -4 l
5 -3 l
38 51 m 0 -51 l
2 51 m 0 -51 l
-9 51 m 24 0 l
7 -3 l
5 -4 l
2 -5 l
3 -8 l
0 -12 l
-3 -7 l
-2 -5 l
-5 -4 l
-7 -3 l
-24 0 l
24 51 m 5 -3 l
5 -4 l
2 -5 l
2 -8 l
0 -12 l
-2 -7 l
-2 -5 l
-5 -4 l
-5 -3 l
63 44 m 2 7 l
0 -15 l
-2 8 l
-5 4 l
-8 3 l
-7 0 l
-7 -3 l
-5 -4 l
0 -5 l
3 -5 l
2 -3 l
5 -2 l
14 -5 l
5 -2 l
5 -5 l
-34 22 m 5 -5 l
5 -3 l
14 -4 l
5 -3 l
3 -2 l
2 -5 l
0 -10 l
-5 -4 l
-7 -3 l
-7 0 l
-8 3 l
-4 4 l
-3 8 l
0 -15 l
3 7 l
50 44 m 0 -51 l
3 51 m 0 -51 l
14 36 m 0 -19 l
-24 34 m 38 0 l
0 -15 l
-2 15 l
-26 -24 m 14 0 l
-24 -27 m 17 0 l
36 22 m 43 0 l
22 29 m 0 -36 l
2 -8 l
5 -4 l
7 -3 l
5 0 l
7 3 l
5 4 l
3 8 l
0 36 l
-32 0 m 0 -36 l
3 -8 l
5 -4 l
4 -3 l
-21 51 m 17 0 l
16 0 m 15 0 l
17 0 m 0 -51 l
2 51 m 0 -51 l
31 51 m -31 -32 l
12 10 m 19 -29 l
-21 29 m 19 -29 l
-39 51 m 17 0 l
15 0 m 14 0 l
-46 -51 m 17 0 l
15 0 m 14 0 l
27 51 m -8 -3 l
-4 -4 l
-3 -5 l
-2 -10 l
0 -7 l
2 -10 l
3 -5 l
4 -4 l
8 -3 l
4 0 l
8 3 l
5 4 l
2 5 l
2 10 l
0 7 l
-2 10 l
-2 5 l
-5 4 l
-8 3 l
-4 0 l
-5 -3 l
-5 -4 l
-2 -5 l
-3 -10 l
0 -7 l
3 -10 l
2 -5 l
5 -4 l
5 -3 l
4 0 m 5 3 l
5 4 l
3 5 l
2 10 l
0 7 l
-2 10 l
-3 5 l
-5 4 l
-5 3 l
-12 -46 m 0 2 l
3 5 l
5 3 l
2 0 l
5 -3 l
2 -5 l
3 -16 l
2 -3 l
5 0 l
2 5 l
0 2 l
-12 12 m 3 -9 l
2 -5 l
3 -2 l
2 0 l
2 2 l
48 51 m 3 -8 l
0 15 l
-3 -7 l
-4 4 l
-8 3 l
-4 0 l
-8 -3 l
-4 -4 l
-3 -5 l
-2 -8 l
0 -12 l
2 -7 l
3 -5 l
4 -4 l
8 -3 l
4 0 l
8 3 l
4 4 l
3 5 l
-19 39 m -5 -3 l
-5 -4 l
-2 -5 l
-3 -8 l
0 -12 l
3 -7 l
2 -5 l
5 -4 l
5 -3 l
38 51 m 0 -51 l
3 51 m 0 -51 l
-10 51 m 24 0 l
7 -3 l
5 -4 l
2 -5 l
3 -8 l
0 -12 l
-3 -7 l
-2 -5 l
-5 -4 l
-7 -3 l
-24 0 l
24 51 m 5 -3 l
5 -4 l
2 -5 l
2 -8 l
0 -12 l
-2 -7 l
-2 -5 l
-5 -4 l
-5 -3 l
89 60 m -5 -4 l
-5 -8 l
-4 -9 l
-3 -12 l
0 -10 l
3 -12 l
4 -10 l
5 -7 l
5 -5 l
-5 73 m -5 -10 l
-2 -7 l
-2 -12 l
0 -10 l
2 -12 l
2 -7 l
5 -10 l
22 53 m 2 -2 l
-2 -3 l
-3 3 l
0 2 l
3 5 l
2 2 l
7 3 l
10 0 l
7 -3 l
3 -2 l
2 -5 l
0 -5 l
-2 -5 l
-7 -4 l
-13 -5 l
-4 -3 l
-5 -4 l
-3 -8 l
0 -7 l
22 51 m 5 -3 l
2 -2 l
3 -5 l
0 -5 l
-3 -5 l
-7 -4 l
-10 -5 l
-12 -17 m 3 2 l
5 0 l
12 -4 l
CS M
7 0 l
5 2 l
2 2 l
-26 0 m 12 -7 l
9 0 l
3 3 l
2 4 l
0 5 l
29 39 m -7 -3 l
-5 -7 l
-2 -12 l
0 -7 l
2 -12 l
5 -7 l
7 -3 l
5 0 l
7 3 l
5 7 l
2 12 l
0 7 l
-2 12 l
-5 7 l
-7 3 l
-5 0 l
-5 -3 l
-2 -2 l
-3 -5 l
-2 -12 l
0 -7 l
2 -12 l
3 -5 l
2 -2 l
5 -3 l
5 0 m 5 3 l
2 2 l
2 5 l
3 12 l
0 7 l
-3 12 l
-2 5 l
-2 2 l
-5 3 l
43 0 m -7 -3 l
-5 -7 l
-2 -12 l
0 -7 l
2 -12 l
5 -7 l
7 -3 l
5 0 l
7 3 l
5 7 l
2 12 l
0 7 l
-2 12 l
-5 7 l
-7 3 l
-5 0 l
-5 -3 l
-2 -2 l
-2 -5 l
-3 -12 l
0 -7 l
3 -12 l
2 -5 l
2 -2 l
5 -3 l
5 0 m 5 3 l
2 2 l
3 5 l
2 12 l
0 7 l
-2 12 l
-3 5 l
-2 2 l
-5 3 l
51 -5 m 0 -46 l
2 51 m 0 -51 l
0 51 m -27 -36 l
39 0 l
-22 -15 m 17 0 l
17 60 m 5 -4 l
5 -8 l
4 -9 l
3 -12 l
0 -10 l
-3 -12 l
-4 -10 l
-5 -7 l
-5 -5 l
5 73 m 5 -10 l
2 -7 l
2 -12 l
0 -10 l
-2 -12 l
-2 -7 l
-5 -10 l
 0 0 0 C
21 12 m CS [] 0 setdash M
1295 520 M CS [] 0 setdash M
1319 570 M -8 -2 l
-4 -5 l
-3 -5 l
-2 -9 l
0 -8 l
2 -9 l
3 -5 l
4 -5 l
8 -2 l
4 0 l
8 2 l
4 5 l
3 5 l
2 9 l
0 8 l
-2 9 l
-3 5 l
-4 5 l
-8 2 l
-4 0 l
-5 -2 l
-5 -5 l
-2 -5 l
-3 -9 l
0 -8 l
3 -9 l
2 -5 l
5 -5 l
5 -2 l
4 0 m 5 2 l
5 5 l
2 5 l
3 9 l
0 8 l
-3 9 l
-2 5 l
-5 5 l
-5 2 l
-12 -45 m 0 2 l
3 5 l
5 2 l
2 0 l
5 -2 l
2 -5 l
3 -17 l
2 -2 l
5 0 l
2 5 l
0 2 l
-12 12 m 3 -10 l
2 -4 l
2 -3 l
3 0 l
2 3 l
48 50 m 3 -7 l
0 14 l
-3 -7 l
-4 5 l
-8 2 l
-4 0 l
-8 -2 l
-4 -5 l
-3 -5 l
-2 -7 l
0 -12 l
2 -7 l
3 -5 l
4 -5 l
8 -2 l
4 0 l
8 2 l
4 5 l
3 5 l
-19 38 m -5 -2 l
-5 -5 l
-2 -5 l
-3 -7 l
0 -12 l
3 -7 l
2 -5 l
5 -5 l
5 -2 l
38 50 m 0 -50 l
2 50 m 0 -50 l
-9 50 m 24 0 l
7 -2 l
5 -5 l
2 -5 l
3 -7 l
0 -12 l
-3 -7 l
-2 -5 l
-5 -5 l
-7 -2 l
-24 0 l
24 50 m 5 -2 l
5 -5 l
2 -5 l
2 -7 l
0 -12 l
-2 -7 l
-2 -5 l
-5 -5 l
-5 -2 l
63 43 m 2 7 l
0 -14 l
-2 7 l
-5 5 l
-8 2 l
-7 0 l
-7 -2 l
-5 -5 l
0 -5 l
3 -5 l
2 -2 l
5 -2 l
14 -5 l
5 -3 l
5 -4 l
-34 21 m 5 -5 l
5 -2 l
14 -5 l
5 -2 l
3 -3 l
2 -4 l
0 -10 l
-5 -5 l
-7 -2 l
-7 0 l
-8 2 l
-4 5 l
-3 7 l
0 -14 l
3 7 l
50 43 m 0 -50 l
3 50 m 0 -50 l
14 36 m 0 -19 l
-24 33 m 38 0 l
0 -14 l
-2 14 l
-26 -24 m 14 0 l
-24 -26 m 17 0 l
36 21 m 43 0 l
22 29 m 0 -36 l
2 -7 l
5 -5 l
7 -2 l
5 0 l
7 2 l
5 5 l
3 7 l
0 36 l
-32 0 m 0 -36 l
3 -7 l
5 -5 l
4 -2 l
-21 50 m 17 0 l
16 0 m 15 0 l
17 0 m 0 -50 l
2 50 m 0 -50 l
31 50 m -31 -31 l
12 10 m 19 -29 l
-21 29 m 19 -29 l
-39 50 m 17 0 l
15 0 m 14 0 l
-46 -50 m 17 0 l
15 0 m 14 0 l
27 50 m -8 -2 l
-4 -5 l
-3 -5 l
-2 -9 l
0 -8 l
2 -9 l
3 -5 l
4 -5 l
8 -2 l
4 0 l
8 2 l
5 5 l
2 5 l
2 9 l
0 8 l
-2 9 l
-2 5 l
-5 5 l
-8 2 l
-4 0 l
-5 -2 l
-5 -5 l
-2 -5 l
-3 -9 l
0 -8 l
3 -9 l
2 -5 l
5 -5 l
5 -2 l
4 0 m 5 2 l
5 5 l
3 5 l
2 9 l
0 8 l
-2 9 l
-3 5 l
CS M
-5 5 l
-5 2 l
-12 -45 m 0 2 l
3 5 l
5 2 l
2 0 l
5 -2 l
2 -5 l
3 -17 l
2 -2 l
5 0 l
2 5 l
0 2 l
-12 12 m 3 -10 l
2 -4 l
3 -3 l
2 0 l
2 3 l
48 50 m 3 -7 l
0 14 l
-3 -7 l
-4 5 l
-8 2 l
-4 0 l
-8 -2 l
-4 -5 l
-3 -5 l
-2 -7 l
0 -12 l
2 -7 l
3 -5 l
4 -5 l
8 -2 l
4 0 l
8 2 l
4 5 l
3 5 l
-19 38 m -5 -2 l
-5 -5 l
-2 -5 l
-3 -7 l
0 -12 l
3 -7 l
2 -5 l
5 -5 l
5 -2 l
38 50 m 0 -50 l
3 50 m 0 -50 l
-10 50 m 24 0 l
7 -2 l
5 -5 l
2 -5 l
3 -7 l
0 -12 l
-3 -7 l
-2 -5 l
-5 -5 l
-7 -2 l
-24 0 l
24 50 m 5 -2 l
5 -5 l
2 -5 l
2 -7 l
0 -12 l
-2 -7 l
-2 -5 l
-5 -5 l
-5 -2 l
89 60 m -5 -5 l
-5 -7 l
-4 -10 l
-3 -12 l
0 -9 l
3 -12 l
4 -10 l
5 -7 l
5 -5 l
-5 72 m -5 -10 l
-2 -7 l
-2 -12 l
0 -9 l
2 -12 l
2 -8 l
5 -9 l
22 53 m 2 -3 l
-2 -2 l
-3 2 l
0 3 l
3 4 l
2 3 l
7 2 l
10 0 l
7 -2 l
3 -3 l
2 -4 l
0 -5 l
-2 -5 l
-7 -5 l
-13 -5 l
-4 -2 l
-5 -5 l
-3 -7 l
0 -7 l
22 50 m 5 -2 l
2 -3 l
3 -4 l
0 -5 l
-3 -5 l
-7 -5 l
-10 -5 l
-12 -16 m 3 2 l
5 0 l
12 -5 l
7 0 l
5 3 l
2 2 l
-26 0 m 12 -7 l
9 0 l
3 2 l
2 5 l
0 5 l
29 38 m -7 -2 l
-5 -7 l
-2 -12 l
0 -8 l
2 -12 l
5 -7 l
7 -2 l
5 0 l
7 2 l
5 7 l
2 12 l
0 8 l
-2 12 l
-5 7 l
-7 2 l
-5 0 l
-5 -2 l
-2 -3 l
-3 -4 l
-2 -12 l
0 -8 l
2 -12 l
3 -4 l
2 -3 l
5 -2 l
5 0 m 5 2 l
2 3 l
2 4 l
3 12 l
0 8 l
-3 12 l
-2 4 l
-2 3 l
-5 2 l
43 0 m -7 -2 l
-5 -7 l
-2 -12 l
0 -8 l
2 -12 l
5 -7 l
7 -2 l
5 0 l
7 2 l
5 7 l
2 12 l
0 8 l
-2 12 l
-5 7 l
-7 2 l
-5 0 l
-5 -2 l
-2 -3 l
-2 -4 l
-3 -12 l
0 -8 l
3 -12 l
2 -4 l
2 -3 l
5 -2 l
5 0 m 5 2 l
2 3 l
3 4 l
2 12 l
0 8 l
-2 12 l
-3 4 l
-2 3 l
-5 2 l
34 0 m -5 -24 l
5 5 l
7 2 l
7 0 l
7 -2 l
5 -5 l
3 -7 l
0 -5 l
-3 -7 l
-5 -5 l
-7 -2 l
-7 0 l
-7 2 l
-3 3 l
-2 4 l
0 3 l
2 2 l
3 -2 l
-3 -3 l
17 24 m 5 -2 l
5 -5 l
2 -7 l
0 -5 l
-2 -7 l
-5 -5 l
-5 -2 l
-14 50 m 24 0 l
-24 -2 m 12 0 l
12 2 l
19 10 m 5 -5 l
5 -7 l
4 -10 l
3 -12 l
0 -9 l
-3 -12 l
-4 -10 l
-5 -7 l
-5 -5 l
5 72 m 5 -10 l
2 -7 l
2 -12 l
0 -9 l
-2 -12 l
-2 -8 l
-5 -9 l
 0 0 0 C
21 12 m CS [] 0 setdash M
CS [32 24] 0 setdash M
944 328 M 0 18 l
0 19 l
0 19 l
0 20 l
0 19 l
0 19 l
0 20 l
0 19 l
0 19 l
0 20 l
0 19 l
0 19 l
0 20 l
0 19 l
0 19 l
0 20 l
0 19 l
0 20 l
0 19 l
0 19 l
0 20 l
0 19 l
0 19 l
0 20 l
0 19 l
0 19 l
0 20 l
0 19 l
0 19 l
0 20 l
0 19 l
0 19 l
0 20 l
0 19 l
0 19 l
0 20 l
0 19 l
0 19 l
0 20 l
0 19 l
0 20 l
0 19 l
0 19 l
0 20 l
0 19 l
0 19 l
0 20 l
0 19 l
0 19 l
0 20 l
0 19 l
0 19 l
0 20 l
0 19 l
0 19 l
0 20 l
0 19 l
0 19 l
0 20 l
0 19 l
0 19 l
0 20 l
0 19 l
0 19 l
0 20 l
0 19 l
CS M
0 20 l
0 19 l
0 19 l
0 20 l
0 19 l
0 19 l
0 20 l
0 19 l
0 19 l
0 20 l
0 19 l
0 19 l
0 20 l
0 19 l
0 19 l
0 20 l
0 19 l
0 19 l
0 20 l
0 19 l
0 19 l
0 20 l
0 19 l
0 20 l
0 19 l
0 19 l
0 20 l
0 19 l
0 19 l
0 20 l
0 19 l
0 19 l
0 20 l
0 19 l
1075 328 M 0 18 l
0 19 l
0 19 l
0 20 l
0 19 l
0 19 l
0 20 l
0 19 l
0 19 l
0 20 l
0 19 l
0 19 l
0 20 l
0 19 l
0 19 l
0 20 l
0 19 l
0 20 l
0 19 l
0 19 l
0 20 l
0 19 l
0 19 l
0 20 l
0 19 l
0 19 l
0 20 l
0 19 l
0 19 l
0 20 l
0 19 l
0 19 l
0 20 l
0 19 l
0 19 l
0 20 l
0 19 l
0 19 l
0 20 l
0 19 l
0 20 l
0 19 l
0 19 l
0 20 l
0 19 l
0 19 l
0 20 l
0 19 l
0 19 l
0 20 l
0 19 l
0 19 l
0 20 l
0 19 l
0 19 l
0 20 l
0 19 l
0 19 l
0 20 l
0 19 l
0 19 l
0 20 l
0 19 l
0 19 l
0 20 l
0 19 l
0 20 l
0 19 l
0 19 l
0 20 l
0 19 l
0 19 l
0 20 l
0 19 l
0 19 l
0 20 l
0 19 l
0 19 l
0 20 l
0 19 l
0 19 l
0 20 l
0 19 l
0 19 l
0 20 l
0 19 l
0 19 l
0 20 l
0 19 l
0 20 l
0 19 l
0 19 l
0 20 l
0 19 l
0 19 l
0 20 l
0 19 l
0 19 l
0 20 l
0 19 l
stroke
grestore
showpage
end
%%Trailer
%%EOF
