%!PS-Adobe-2.0 EPSF-1.2
%%BoundingBox: 13 12 542 449
%%Title: alpha_nf0+nf2_mu.eps
%%Creator: roger@pub3 with xmgr
%%CreationDate: Tue Feb 15 18:42:50 2005
%%EndComments
80 dict begin
/Pat0 { 0.000000 setgray } def
/Pat1 { 0.062500 setgray } def
/Pat2 { 0.125000 setgray } def
/Pat3 { 0.187500 setgray } def
/Pat4 { 0.250000 setgray } def
/Pat5 { 0.312500 setgray } def
/Pat6 { 0.375000 setgray } def
/Pat7 { 0.437500 setgray } def
/Pat8 { 0.500000 setgray } def
/Pat9 { 0.562500 setgray } def
/Pat10 { 0.625000 setgray } def
/Pat11 { 0.687500 setgray } def
/Pat12 { 0.750000 setgray } def
/Pat13 { 0.812500 setgray } def
/Pat14 { 0.875000 setgray } def
/Pat15 { 0.937500 setgray } def
/setpattern { } def
/m {moveto} bind def
/l {lineto} bind def
/s {stroke} bind def
% Symbol fill
/f { gsave fill grestore stroke } bind def
% Opaque symbol
/o { gsave 1.000000 1.000000 1.000000 setrgbcolor
     fill grestore stroke } bind def
% Circle symbol
/a { 3 -1 roll 0 360 arc } bind def
/da { a s } bind def
/fa { a f } bind def
/oa { a o } bind def
% Square symbol
/sq { moveto dup dup rmoveto 2 mul
      dup neg 0 rlineto dup neg 0 exch rlineto
      0 rlineto closepath } bind def
/dsq { sq s } bind def
/fsq { sq f } bind def
/osq { sq o } bind def
% Triangle symbols
/t1 { moveto dup 0 exch rmoveto
      dup neg dup 2 mul rlineto 2 mul 0 rlineto
      closepath } bind def
/dt1 { t1 s } bind def
/ft1 { t1 f } bind def
/ot1 { t1 o } bind def
/t2 { moveto dup neg 0 rmoveto
      dup dup 2 mul exch neg rlineto
      2 mul 0 exch rlineto closepath } bind def
/dt2 { t2 s } bind def
/ft2 { t2 f } bind def
/ot2 { t2 o } bind def
/t3 { moveto dup neg 0 exch rmoveto
      dup dup 2 mul rlineto neg 2 mul 0 rlineto
      closepath } bind def
/dt3 { t3 s } bind def
/ft3 { t3 f } bind def
/ot3 { t3 o } bind def
/t4 { moveto dup 0 rmoveto
      dup dup -2 mul exch rlineto
      -2 mul 0 exch rlineto closepath } bind def
/dt4 { t4 s } bind def
/ft4 { t4 f } bind def
/ot4 { t4 o } bind def
% Diamond symbol
/di { moveto dup 0 exch rmoveto
      dup neg dup rlineto dup dup neg rlineto
      dup dup rlineto closepath } bind def
/ddi { di s } bind def
/fdi { di f } bind def
/odi { di o } bind def
% Plus symbol
/pl { dup 0 rmoveto dup -2 mul 0 rlineto
      dup dup rmoveto -2 mul 0 exch rlineto
    } bind def
/dpl { m pl s } bind def
% x symbol
/x { dup dup rmoveto dup -2 mul dup rlineto
     2 mul dup 0 rmoveto dup neg exch rlineto
   } bind def
/dx { m x s } bind def
% Splat symbol
/dsp { m dup pl dup 0 exch rmoveto 0.707 mul x s
     } bind def
/RJ {
 stringwidth neg exch neg exch
 rmoveto
} bind def
/CS {
 stringwidth
 2 div neg exch 2 div neg exch
 rmoveto
} bind def
0.24 0.24 scale
1 setlinecap

	mark             
	/ISOLatin1Encoding 
	  8#000 1 8#054 {StandardEncoding exch get} for 
	  /minus 
	  8#056 1 8#217 {StandardEncoding exch get} for 
	  /dotlessi 
	  8#301 1 8#317 {StandardEncoding exch get} for 
	  /space /exclamdown /cent /sterling /currency /yen /brokenbar /section 
	  /dieresis /copyright /ordfeminine /guillemotleft /logicalnot /hyphen 
	  /registered /macron /degree /plusminus /twosuperior /threesuperior /acute 
	  /mu /paragraph /periodcentered /cedilla /onesuperior /ordmasculine 
	  /guillemotright /onequarter /onehalf /threequarters /questiondown /Agrave 
	  /Aacute /Acircumflex /Atilde /Adieresis /Aring /AE /Ccedilla /Egrave /Eacute
	  /Ecircumflex /Edieresis /Igrave /Iacute /Icircumflex /Idieresis /Eth /Ntilde
	  /Ograve /Oacute /Ocircumflex /Otilde /Odieresis /multiply /Oslash /Ugrave 
	  /Uacute /Ucircumflex /Udieresis /Yacute /Thorn /germandbls /agrave /aacute 
	  /acircumflex /atilde /adieresis /aring /ae /ccedilla /egrave /eacute 
	  /ecircumflex /edieresis /igrave /iacute /icircumflex /idieresis /eth /ntilde
	  /ograve /oacute /ocircumflex /otilde /odieresis /divide /oslash /ugrave 
	  /uacute /ucircumflex /udieresis /yacute /thorn /ydieresis 
	  /ISOLatin1Encoding where not {256 array astore def} if 
	 cleartomark 

	/makeISOEncoded 
	{ findfont /curfont exch def 
	  /newfont curfont maxlength dict def  
	  /ISOLatin1 (-ISOLatin1) def
	  /curfontname curfont /FontName get dup length string cvs def 
	  /newfontname curfontname length ISOLatin1 length add string 
    	 dup 0                  curfontname putinterval 
    	 dup curfontname length ISOLatin1   putinterval 
	  def 
	  curfont   
	  { exch dup /FID ne  
    	{ dup /Encoding eq  
    	  { exch pop ISOLatin1Encoding exch }  
    	  if  
    	  dup /FontName eq  
    	  { exch pop newfontname exch }  
    	  if  
    	  exch newfont 3 1 roll put  
    	}  
    	{ pop pop }  
    	ifelse  
	  }  
	  forall 
	  newfontname newfont definefont 
	} def 

	/Times-Roman makeISOEncoded pop 
	/Times-Bold makeISOEncoded pop 
	/Times-Italic makeISOEncoded pop 
	/Times-BoldItalic makeISOEncoded pop 
	/Helvetica makeISOEncoded pop 
	/Helvetica-Bold makeISOEncoded pop 
	/Helvetica-Oblique makeISOEncoded pop 
	/Helvetica-BoldOblique makeISOEncoded pop 
s
0.000000 0.000000 0.000000 setrgbcolor
1 setlinewidth
/Times-Italic-ISOLatin1 findfont 60 scalefont setfont
[] 0 setdash
288 248 m
288 258 l
377 248 m
377 258 l
429 248 m
429 258 l
467 248 m
467 258 l
495 248 m
495 258 l
519 248 m
519 258 l
539 248 m
539 258 l
556 248 m
556 258 l
571 248 m
571 258 l
585 248 m
585 258 l
675 248 m
675 258 l
727 248 m
727 258 l
764 248 m
764 258 l
793 248 m
793 258 l
816 248 m
816 258 l
836 248 m
836 258 l
854 248 m
854 258 l
869 248 m
869 258 l
883 248 m
883 258 l
972 248 m
972 258 l
1024 248 m
1024 258 l
1062 248 m
1062 258 l
1090 248 m
1090 258 l
1114 248 m
1114 258 l
1134 248 m
1134 258 l
1151 248 m
1151 258 l
1166 248 m
1166 258 l
1180 248 m
1180 258 l
288 1835 m
288 1825 l
377 1835 m
377 1825 l
429 1835 m
429 1825 l
467 1835 m
467 1825 l
495 1835 m
495 1825 l
519 1835 m
519 1825 l
539 1835 m
539 1825 l
556 1835 m
556 1825 l
571 1835 m
571 1825 l
585 1835 m
585 1825 l
675 1835 m
675 1825 l
727 1835 m
727 1825 l
764 1835 m
764 1825 l
793 1835 m
793 1825 l
816 1835 m
816 1825 l
836 1835 m
836 1825 l
854 1835 m
854 1825 l
869 1835 m
869 1825 l
883 1835 m
883 1825 l
972 1835 m
972 1825 l
1024 1835 m
1024 1825 l
1062 1835 m
1062 1825 l
1090 1835 m
1090 1825 l
1114 1835 m
1114 1825 l
1134 1835 m
1134 1825 l
1151 1835 m
1151 1825 l
1166 1835 m
1166 1825 l
1180 1835 m
1180 1825 l
s
288 248 m
288 268 l
585 248 m
585 268 l
883 248 m
883 268 l
1180 248 m
1180 268 l
288 1835 m
288 1815 l
585 1835 m
585 1815 l
883 1835 m
883 1815 l
1180 1835 m
1180 1815 l
/Times-Italic-ISOLatin1 findfont 60 scalefont setfont
/Helvetica-ISOLatin1 findfont 60 scalefont setfont
s
288 198 m
gsave
288 198 translate
0 rotate
0 -20  m
(1) CS
(1) show
grestore
newpath
585 198 m
gsave
585 198 translate
0 rotate
0 -20  m
(10) CS
(10) show
grestore
newpath
883 198 m
gsave
883 198 translate
0 rotate
0 -20  m
(100) CS
(100) show
grestore
newpath
1180 198 m
gsave
1180 198 translate
0 rotate
0 -20  m
(1000) CS
(1000) show
grestore
newpath
/Helvetica-ISOLatin1 findfont 60 scalefont setfont
734 98 m
gsave
734 98 translate
0 rotate
0 0  m
(m / LMS) CS
/Symbol findfont 
60 scalefont
 setfont
(m) show
/Times-Roman-ISOLatin1 findfont 60 scalefont setfont
( / ) show
/Symbol findfont 
60 scalefont
 setfont
(L) show
/Times-Roman-ISOLatin1 findfont 60 scalefont setfont
/Times-Roman-ISOLatin1 findfont 35 scalefont setfont
0 35 rmoveto
(MS) show
/Times-Roman-ISOLatin1 findfont 60 scalefont setfont
0 -35 rmoveto
() show
grestore
newpath
288 248 m
298 248 l
288 311 m
298 311 l
288 375 m
298 375 l
288 438 m
298 438 l
288 502 m
298 502 l
288 565 m
298 565 l
288 629 m
298 629 l
288 692 m
298 692 l
288 756 m
298 756 l
288 819 m
298 819 l
288 883 m
298 883 l
288 946 m
298 946 l
288 1010 m
298 1010 l
288 1073 m
298 1073 l
288 1137 m
298 1137 l
288 1200 m
298 1200 l
288 1264 m
298 1264 l
288 1327 m
298 1327 l
288 1391 m
298 1391 l
288 1454 m
298 1454 l
288 1518 m
298 1518 l
288 1581 m
298 1581 l
288 1645 m
298 1645 l
288 1708 m
298 1708 l
288 1772 m
298 1772 l
288 1835 m
298 1835 l
s
288 248 m
308 248 l
288 565 m
308 565 l
288 883 m
308 883 l
288 1200 m
308 1200 l
288 1518 m
308 1518 l
288 1835 m
308 1835 l
/Times-Roman-ISOLatin1 findfont 60 scalefont setfont
/Helvetica-ISOLatin1 findfont 60 scalefont setfont
s
252 248 m
gsave
252 248 translate
0 rotate
0 -20  m
(0.0) RJ
(0.0) show
grestore
newpath
252 565 m
gsave
252 565 translate
0 rotate
0 -20  m
(0.1) RJ
(0.1) show
grestore
newpath
252 883 m
gsave
252 883 translate
0 rotate
0 -20  m
(0.2) RJ
(0.2) show
grestore
newpath
252 1200 m
gsave
252 1200 translate
0 rotate
0 -20  m
(0.3) RJ
(0.3) show
grestore
newpath
252 1518 m
gsave
252 1518 translate
0 rotate
0 -20  m
(0.4) RJ
(0.4) show
grestore
newpath
252 1835 m
gsave
252 1835 translate
0 rotate
0 -20  m
(0.5) RJ
(0.5) show
grestore
newpath
/Helvetica-ISOLatin1 findfont 60 scalefont setfont
125 1041 m
gsave
125 1041 translate
90 rotate
0 0  m
(asMS\(m\)) CS
/Symbol findfont 
60 scalefont
 setfont
(a) show
/Times-Roman-ISOLatin1 findfont 60 scalefont setfont
/Times-Roman-ISOLatin1 findfont 35 scalefont setfont
0 -17 rmoveto
(s) show
/Times-Roman-ISOLatin1 findfont 60 scalefont setfont
0 17 rmoveto
/Times-Roman-ISOLatin1 findfont 35 scalefont setfont
0 35 rmoveto
(MS) show
/Times-Roman-ISOLatin1 findfont 60 scalefont setfont
0 -35 rmoveto
(\() show
/Symbol findfont 
60 scalefont
 setfont
(m) show
/Times-Roman-ISOLatin1 findfont 60 scalefont setfont
(\)) show
grestore
newpath
[20 20] 0 setdash
1180 510 m
1176 511 l
1173 513 l
1169 514 l
1166 515 l
1162 516 l
1159 517 l
1155 518 l
1151 519 l
1148 520 l
1144 521 l
1141 522 l
1137 524 l
1134 525 l
1130 526 l
1126 527 l
1123 528 l
1119 530 l
1116 531 l
1112 532 l
1109 533 l
1105 534 l
1102 536 l
1098 537 l
1094 538 l
1091 540 l
1087 541 l
1084 542 l
1080 543 l
1077 545 l
1073 546 l
1069 548 l
1066 549 l
1062 550 l
1059 552 l
1055 553 l
1052 555 l
1048 556 l
1044 557 l
1041 559 l
1037 560 l
1034 562 l
1030 563 l
1027 565 l
1023 566 l
1019 568 l
1016 570 l
1012 571 l
1009 573 l
1005 574 l
1002 576 l
998 578 l
995 579 l
991 581 l
987 583 l
984 584 l
980 586 l
977 588 l
973 590 l
970 591 l
966 593 l
962 595 l
959 597 l
955 599 l
952 601 l
948 603 l
945 604 l
941 606 l
937 608 l
934 610 l
930 612 l
927 614 l
923 616 l
920 619 l
916 621 l
912 623 l
909 625 l
905 627 l
902 629 l
898 632 l
895 634 l
891 636 l
888 638 l
884 641 l
880 643 l
877 645 l
873 648 l
870 650 l
866 653 l
863 655 l
859 658 l
855 660 l
852 663 l
848 666 l
845 668 l
841 671 l
838 674 l
834 677 l
830 679 l
827 682 l
823 685 l
820 688 l
816 691 l
813 694 l
809 697 l
805 700 l
802 703 l
798 707 l
795 710 l
791 713 l
788 716 l
784 720 l
781 723 l
777 727 l
773 730 l
770 734 l
766 737 l
763 741 l
759 745 l
756 748 l
752 752 l
748 756 l
745 760 l
741 764 l
738 768 l
734 772 l
731 777 l
727 781 l
723 785 l
720 790 l
716 794 l
713 799 l
709 803 l
706 808 l
702 813 l
698 818 l
695 823 l
691 828 l
688 833 l
684 838 l
681 844 l
677 849 l
673 855 l
670 860 l
666 866 l
663 872 l
659 878 l
656 884 l
652 890 l
649 897 l
645 903 l
641 910 l
638 917 l
634 924 l
631 931 l
627 938 l
624 945 l
620 952 l
616 960 l
613 968 l
609 976 l
606 984 l
602 992 l
599 1001 l
595 1010 l
591 1019 l
588 1028 l
584 1037 l
581 1047 l
577 1057 l
574 1067 l
570 1077 l
566 1088 l
563 1098 l
559 1110 l
556 1121 l
552 1133 l
549 1145 l
545 1157 l
542 1170 l
538 1183 l
534 1197 l
531 1211 l
527 1225 l
524 1240 l
520 1255 l
517 1271 l
513 1287 l
509 1304 l
506 1321 l
502 1339 l
499 1357 l
495 1376 l
492 1396 l
488 1416 l
484 1437 l
481 1459 l
477 1482 l
474 1506 l
470 1530 l
467 1556 l
s
[] 0 setdash
[40 20] 0 setdash
1180 472 m
1176 472 l
1173 473 l
1169 474 l
1166 475 l
1162 476 l
1159 477 l
1155 477 l
1151 478 l
1148 479 l
1144 480 l
1141 481 l
1137 482 l
1134 483 l
1130 484 l
1126 484 l
1123 485 l
1119 486 l
1116 487 l
1112 488 l
1109 489 l
1105 490 l
1102 491 l
1098 492 l
1094 493 l
1091 494 l
1087 495 l
1084 496 l
1080 497 l
1077 498 l
1073 499 l
1069 500 l
1066 501 l
1062 502 l
1059 503 l
1055 504 l
1052 505 l
1048 506 l
1044 507 l
1041 508 l
1037 509 l
1034 510 l
1030 512 l
1027 513 l
1023 514 l
1019 515 l
1016 516 l
1012 517 l
1009 518 l
1005 520 l
1002 521 l
998 522 l
995 523 l
991 524 l
987 526 l
984 527 l
980 528 l
977 530 l
973 531 l
970 532 l
966 533 l
962 535 l
959 536 l
955 537 l
952 539 l
948 540 l
945 542 l
941 543 l
937 544 l
934 546 l
930 547 l
927 549 l
923 550 l
920 552 l
916 553 l
912 555 l
909 556 l
905 558 l
902 560 l
898 561 l
895 563 l
891 564 l
888 566 l
884 568 l
880 569 l
877 571 l
873 573 l
870 575 l
866 576 l
863 578 l
859 580 l
855 582 l
852 584 l
848 585 l
845 587 l
841 589 l
838 591 l
834 593 l
830 595 l
827 597 l
823 599 l
820 601 l
816 603 l
813 605 l
809 607 l
805 609 l
802 612 l
798 614 l
795 616 l
791 618 l
788 621 l
784 623 l
781 625 l
777 628 l
773 630 l
770 632 l
766 635 l
763 637 l
759 640 l
756 643 l
752 645 l
748 648 l
745 650 l
741 653 l
738 656 l
734 659 l
731 662 l
727 664 l
723 667 l
720 670 l
716 673 l
713 676 l
709 680 l
706 683 l
702 686 l
698 689 l
695 692 l
691 696 l
688 699 l
684 703 l
681 706 l
677 710 l
673 713 l
670 717 l
666 721 l
663 725 l
659 728 l
656 732 l
652 736 l
649 740 l
645 745 l
641 749 l
638 753 l
634 757 l
631 762 l
627 767 l
624 771 l
620 776 l
616 781 l
613 786 l
609 791 l
606 796 l
602 801 l
599 806 l
595 812 l
591 817 l
588 823 l
584 829 l
581 834 l
577 840 l
574 847 l
570 853 l
566 859 l
563 866 l
559 873 l
556 879 l
552 887 l
549 894 l
545 901 l
542 909 l
538 916 l
534 924 l
531 933 l
527 941 l
524 950 l
520 958 l
517 968 l
513 977 l
509 986 l
506 996 l
502 1006 l
499 1017 l
495 1028 l
492 1039 l
488 1050 l
484 1062 l
481 1074 l
477 1087 l
474 1100 l
470 1113 l
467 1127 l
s
[] 0 setdash
[40 20 12 20] 0 setdash
1180 473 m
1176 473 l
1173 474 l
1169 475 l
1166 476 l
1162 477 l
1159 478 l
1155 478 l
1151 479 l
1148 480 l
1144 481 l
1141 482 l
1137 483 l
1134 484 l
1130 485 l
1126 485 l
1123 486 l
1119 487 l
1116 488 l
1112 489 l
1109 490 l
1105 491 l
1102 492 l
1098 493 l
1094 494 l
1091 495 l
1087 496 l
1084 497 l
1080 498 l
1077 499 l
1073 500 l
1069 501 l
1066 502 l
1062 503 l
1059 504 l
1055 505 l
1052 506 l
1048 507 l
1044 509 l
1041 510 l
1037 511 l
1034 512 l
1030 513 l
1027 514 l
1023 515 l
1019 516 l
1016 518 l
1012 519 l
1009 520 l
1005 521 l
1002 523 l
998 524 l
995 525 l
991 526 l
987 528 l
984 529 l
980 530 l
977 531 l
973 533 l
970 534 l
966 535 l
962 537 l
959 538 l
955 539 l
952 541 l
948 542 l
945 544 l
941 545 l
937 547 l
934 548 l
930 550 l
927 551 l
923 553 l
920 554 l
916 556 l
912 557 l
909 559 l
905 560 l
902 562 l
898 564 l
895 565 l
891 567 l
888 569 l
884 570 l
880 572 l
877 574 l
873 576 l
870 577 l
866 579 l
863 581 l
859 583 l
855 585 l
852 587 l
848 589 l
845 590 l
841 592 l
838 594 l
834 596 l
830 598 l
827 601 l
823 603 l
820 605 l
816 607 l
813 609 l
809 611 l
805 613 l
802 616 l
798 618 l
795 620 l
791 623 l
788 625 l
784 627 l
781 630 l
777 632 l
773 635 l
770 637 l
766 640 l
763 642 l
759 645 l
756 648 l
752 650 l
748 653 l
745 656 l
741 659 l
738 662 l
734 665 l
731 668 l
727 671 l
723 674 l
720 677 l
716 680 l
713 683 l
709 686 l
706 690 l
702 693 l
698 696 l
695 700 l
691 703 l
688 707 l
684 710 l
681 714 l
677 718 l
673 722 l
670 726 l
666 730 l
663 734 l
659 738 l
656 742 l
652 746 l
649 751 l
645 755 l
641 759 l
638 764 l
634 769 l
631 773 l
627 778 l
624 783 l
620 788 l
616 794 l
613 799 l
609 804 l
606 810 l
602 815 l
599 821 l
595 827 l
591 833 l
588 839 l
584 845 l
581 852 l
577 858 l
574 865 l
570 872 l
566 879 l
563 886 l
559 894 l
556 901 l
552 909 l
549 917 l
545 925 l
542 934 l
538 942 l
534 951 l
531 961 l
527 970 l
524 980 l
520 990 l
517 1000 l
513 1011 l
509 1022 l
506 1033 l
502 1045 l
499 1057 l
495 1070 l
492 1083 l
488 1097 l
484 1111 l
481 1125 l
477 1140 l
474 1156 l
470 1172 l
467 1189 l
s
[] 0 setdash
1180 473 m
1176 473 l
1173 474 l
1169 475 l
1166 476 l
1162 477 l
1159 478 l
1155 478 l
1151 479 l
1148 480 l
1144 481 l
1141 482 l
1137 483 l
1134 484 l
1130 485 l
1126 486 l
1123 486 l
1119 487 l
1116 488 l
1112 489 l
1109 490 l
1105 491 l
1102 492 l
1098 493 l
1094 494 l
1091 495 l
1087 496 l
1084 497 l
1080 498 l
1077 499 l
1073 500 l
1069 501 l
1066 502 l
1062 503 l
1059 504 l
1055 505 l
1052 506 l
1048 508 l
1044 509 l
1041 510 l
1037 511 l
1034 512 l
1030 513 l
1027 514 l
1023 515 l
1019 517 l
1016 518 l
1012 519 l
1009 520 l
1005 521 l
1002 523 l
998 524 l
995 525 l
991 526 l
987 528 l
984 529 l
980 530 l
977 532 l
973 533 l
970 534 l
966 536 l
962 537 l
959 538 l
955 540 l
952 541 l
948 542 l
945 544 l
941 545 l
937 547 l
934 548 l
930 550 l
927 551 l
923 553 l
920 554 l
916 556 l
912 557 l
909 559 l
905 561 l
902 562 l
898 564 l
895 566 l
891 567 l
888 569 l
884 571 l
880 572 l
877 574 l
873 576 l
870 578 l
866 579 l
863 581 l
859 583 l
855 585 l
852 587 l
848 589 l
845 591 l
841 593 l
838 595 l
834 597 l
830 599 l
827 601 l
823 603 l
820 605 l
816 607 l
813 609 l
809 612 l
805 614 l
802 616 l
798 618 l
795 621 l
791 623 l
788 625 l
784 628 l
781 630 l
777 633 l
773 635 l
770 638 l
766 640 l
763 643 l
759 646 l
756 648 l
752 651 l
748 654 l
745 657 l
741 659 l
738 662 l
734 665 l
731 668 l
727 671 l
723 674 l
720 677 l
716 681 l
713 684 l
709 687 l
706 690 l
702 694 l
698 697 l
695 701 l
691 704 l
688 708 l
684 711 l
681 715 l
677 719 l
673 723 l
670 727 l
666 731 l
663 735 l
659 739 l
656 743 l
652 747 l
649 752 l
645 756 l
641 761 l
638 765 l
634 770 l
631 775 l
627 780 l
624 785 l
620 790 l
616 795 l
613 801 l
609 806 l
606 812 l
602 817 l
599 823 l
595 829 l
591 835 l
588 841 l
584 848 l
581 854 l
577 861 l
574 868 l
570 875 l
566 882 l
563 890 l
559 897 l
556 905 l
552 913 l
549 921 l
545 930 l
542 938 l
538 947 l
534 956 l
531 966 l
527 976 l
524 986 l
520 996 l
517 1007 l
513 1018 l
509 1029 l
506 1041 l
502 1053 l
499 1066 l
495 1079 l
492 1093 l
488 1107 l
484 1122 l
481 1137 l
477 1153 l
474 1170 l
470 1187 l
467 1205 l
s
1180 1835 m
288 1835 l
288 248 l
1180 248 l
s
/Times-Roman-ISOLatin1 findfont 60 scalefont setfont
/Helvetica-ISOLatin1 findfont 60 scalefont setfont
/Helvetica-ISOLatin1 findfont 60 scalefont setfont
[20 20] 0 setdash
883 1581 m
1023 1581 l
s
[] 0 setdash
1058 1581 m
gsave
1058 1581 translate
0 rotate
0 -20  m
(b) show
/Helvetica-ISOLatin1 findfont 35 scalefont setfont
0 -17 rmoveto
(0) show
/Helvetica-ISOLatin1 findfont 60 scalefont setfont
0 17 rmoveto
() show
grestore
newpath
/Helvetica-ISOLatin1 findfont 60 scalefont setfont
[40 20] 0 setdash
883 1507 m
1023 1507 l
s
[] 0 setdash
1058 1507 m
gsave
1058 1507 translate
0 rotate
0 -20  m
(b) show
/Helvetica-ISOLatin1 findfont 35 scalefont setfont
0 -17 rmoveto
(0) show
/Helvetica-ISOLatin1 findfont 60 scalefont setfont
0 17 rmoveto
(+b) show
/Helvetica-ISOLatin1 findfont 35 scalefont setfont
0 -17 rmoveto
(1) show
/Helvetica-ISOLatin1 findfont 60 scalefont setfont
0 17 rmoveto
() show
grestore
newpath
/Helvetica-ISOLatin1 findfont 60 scalefont setfont
[40 20 12 20] 0 setdash
883 1433 m
1023 1433 l
s
[] 0 setdash
1058 1433 m
gsave
1058 1433 translate
0 rotate
0 -20  m
(b) show
/Helvetica-ISOLatin1 findfont 35 scalefont setfont
0 -17 rmoveto
(0) show
/Helvetica-ISOLatin1 findfont 60 scalefont setfont
0 17 rmoveto
(+b) show
/Helvetica-ISOLatin1 findfont 35 scalefont setfont
0 -17 rmoveto
(1) show
/Helvetica-ISOLatin1 findfont 60 scalefont setfont
0 17 rmoveto
(+b) show
/Helvetica-ISOLatin1 findfont 35 scalefont setfont
0 -17 rmoveto
(2) show
/Helvetica-ISOLatin1 findfont 60 scalefont setfont
0 17 rmoveto
() show
grestore
newpath
/Helvetica-ISOLatin1 findfont 60 scalefont setfont
883 1359 m
1023 1359 l
s
1058 1359 m
gsave
1058 1359 translate
0 rotate
0 -20  m
(b) show
/Helvetica-ISOLatin1 findfont 35 scalefont setfont
0 -17 rmoveto
(0) show
/Helvetica-ISOLatin1 findfont 60 scalefont setfont
0 17 rmoveto
(+b) show
/Helvetica-ISOLatin1 findfont 35 scalefont setfont
0 -17 rmoveto
(1) show
/Helvetica-ISOLatin1 findfont 60 scalefont setfont
0 17 rmoveto
(+b) show
/Helvetica-ISOLatin1 findfont 35 scalefont setfont
0 -17 rmoveto
(2) show
/Helvetica-ISOLatin1 findfont 60 scalefont setfont
0 17 rmoveto
(+b) show
/Helvetica-ISOLatin1 findfont 35 scalefont setfont
0 -17 rmoveto
(3) show
/Helvetica-ISOLatin1 findfont 60 scalefont setfont
0 17 rmoveto
() show
grestore
newpath
1299 248 m
1299 258 l
1389 248 m
1389 258 l
1441 248 m
1441 258 l
1478 248 m
1478 258 l
1507 248 m
1507 258 l
1530 248 m
1530 258 l
1550 248 m
1550 258 l
1568 248 m
1568 258 l
1583 248 m
1583 258 l
1597 248 m
1597 258 l
1686 248 m
1686 258 l
1738 248 m
1738 258 l
1776 248 m
1776 258 l
1804 248 m
1804 258 l
1828 248 m
1828 258 l
1848 248 m
1848 258 l
1865 248 m
1865 258 l
1880 248 m
1880 258 l
1894 248 m
1894 258 l
1984 248 m
1984 258 l
2036 248 m
2036 258 l
2073 248 m
2073 258 l
2102 248 m
2102 258 l
2125 248 m
2125 258 l
2145 248 m
2145 258 l
2163 248 m
2163 258 l
2178 248 m
2178 258 l
2192 248 m
2192 258 l
1299 1835 m
1299 1825 l
1389 1835 m
1389 1825 l
1441 1835 m
1441 1825 l
1478 1835 m
1478 1825 l
1507 1835 m
1507 1825 l
1530 1835 m
1530 1825 l
1550 1835 m
1550 1825 l
1568 1835 m
1568 1825 l
1583 1835 m
1583 1825 l
1597 1835 m
1597 1825 l
1686 1835 m
1686 1825 l
1738 1835 m
1738 1825 l
1776 1835 m
1776 1825 l
1804 1835 m
1804 1825 l
1828 1835 m
1828 1825 l
1848 1835 m
1848 1825 l
1865 1835 m
1865 1825 l
1880 1835 m
1880 1825 l
1894 1835 m
1894 1825 l
1984 1835 m
1984 1825 l
2036 1835 m
2036 1825 l
2073 1835 m
2073 1825 l
2102 1835 m
2102 1825 l
2125 1835 m
2125 1825 l
2145 1835 m
2145 1825 l
2163 1835 m
2163 1825 l
2178 1835 m
2178 1825 l
2192 1835 m
2192 1825 l
s
1299 248 m
1299 268 l
1597 248 m
1597 268 l
1894 248 m
1894 268 l
2192 248 m
2192 268 l
1299 1835 m
1299 1815 l
1597 1835 m
1597 1815 l
1894 1835 m
1894 1815 l
2192 1835 m
2192 1815 l
/Helvetica-ISOLatin1 findfont 60 scalefont setfont
s
1299 198 m
gsave
1299 198 translate
0 rotate
0 -20  m
(1) CS
(1) show
grestore
newpath
1597 198 m
gsave
1597 198 translate
0 rotate
0 -20  m
(10) CS
(10) show
grestore
newpath
1894 198 m
gsave
1894 198 translate
0 rotate
0 -20  m
(100) CS
(100) show
grestore
newpath
2192 198 m
gsave
2192 198 translate
0 rotate
0 -20  m
(1000) CS
(1000) show
grestore
newpath
/Helvetica-ISOLatin1 findfont 60 scalefont setfont
1745 98 m
gsave
1745 98 translate
0 rotate
0 0  m
(m / LMS) CS
/Symbol findfont 
60 scalefont
 setfont
(m) show
/Times-Roman-ISOLatin1 findfont 60 scalefont setfont
( / ) show
/Symbol findfont 
60 scalefont
 setfont
(L) show
/Times-Roman-ISOLatin1 findfont 60 scalefont setfont
/Times-Roman-ISOLatin1 findfont 35 scalefont setfont
0 35 rmoveto
(MS) show
/Times-Roman-ISOLatin1 findfont 60 scalefont setfont
0 -35 rmoveto
() show
grestore
newpath
2192 248 m
2182 248 l
2192 311 m
2182 311 l
2192 375 m
2182 375 l
2192 438 m
2182 438 l
2192 502 m
2182 502 l
2192 565 m
2182 565 l
2192 629 m
2182 629 l
2192 692 m
2182 692 l
2192 756 m
2182 756 l
2192 819 m
2182 819 l
2192 883 m
2182 883 l
2192 946 m
2182 946 l
2192 1010 m
2182 1010 l
2192 1073 m
2182 1073 l
2192 1137 m
2182 1137 l
2192 1200 m
2182 1200 l
2192 1264 m
2182 1264 l
2192 1327 m
2182 1327 l
2192 1391 m
2182 1391 l
2192 1454 m
2182 1454 l
2192 1518 m
2182 1518 l
2192 1581 m
2182 1581 l
2192 1645 m
2182 1645 l
2192 1708 m
2182 1708 l
2192 1772 m
2182 1772 l
2192 1835 m
2182 1835 l
s
2192 248 m
2172 248 l
2192 565 m
2172 565 l
2192 883 m
2172 883 l
2192 1200 m
2172 1200 l
2192 1518 m
2172 1518 l
2192 1835 m
2172 1835 l
s
[20 20] 0 setdash
2192 547 m
2188 548 l
2184 549 l
2181 550 l
2177 551 l
2174 553 l
2170 554 l
2167 555 l
2163 556 l
2159 558 l
2156 559 l
2152 560 l
2149 562 l
2145 563 l
2142 564 l
2138 566 l
2134 567 l
2131 568 l
2127 570 l
2124 571 l
2120 573 l
2117 574 l
2113 575 l
2109 577 l
2106 578 l
2102 580 l
2099 581 l
2095 583 l
2092 584 l
2088 586 l
2084 587 l
2081 589 l
2077 590 l
2074 592 l
2070 594 l
2067 595 l
2063 597 l
2060 598 l
2056 600 l
2052 602 l
2049 603 l
2045 605 l
2042 607 l
2038 609 l
2035 610 l
2031 612 l
2027 614 l
2024 616 l
2020 617 l
2017 619 l
2013 621 l
2010 623 l
2006 625 l
2002 627 l
1999 629 l
1995 631 l
1992 633 l
1988 635 l
1985 637 l
1981 639 l
1977 641 l
1974 643 l
1970 645 l
1967 647 l
1963 649 l
1960 651 l
1956 654 l
1953 656 l
1949 658 l
1945 660 l
1942 663 l
1938 665 l
1935 667 l
1931 670 l
1928 672 l
1924 674 l
1920 677 l
1917 679 l
1913 682 l
1910 684 l
1906 687 l
1903 690 l
1899 692 l
1895 695 l
1892 698 l
1888 700 l
1885 703 l
1881 706 l
1878 709 l
1874 711 l
1870 714 l
1867 717 l
1863 720 l
1860 723 l
1856 726 l
1853 729 l
1849 733 l
1846 736 l
1842 739 l
1838 742 l
1835 745 l
1831 749 l
1828 752 l
1824 756 l
1821 759 l
1817 763 l
1813 766 l
1810 770 l
1806 773 l
1803 777 l
1799 781 l
1796 785 l
1792 789 l
1788 793 l
1785 797 l
1781 801 l
1778 805 l
1774 809 l
1771 813 l
1767 817 l
1763 822 l
1760 826 l
1756 831 l
1753 835 l
1749 840 l
1746 845 l
1742 850 l
1738 854 l
1735 859 l
1731 864 l
1728 870 l
1724 875 l
1721 880 l
1717 886 l
1714 891 l
1710 897 l
1706 902 l
1703 908 l
1699 914 l
1696 920 l
1692 926 l
1689 932 l
1685 939 l
1681 945 l
1678 952 l
1674 958 l
1671 965 l
1667 972 l
1664 979 l
1660 986 l
1656 994 l
1653 1001 l
1649 1009 l
1646 1017 l
1642 1025 l
1639 1033 l
1635 1041 l
1631 1050 l
1628 1058 l
1624 1067 l
1621 1076 l
1617 1086 l
1614 1095 l
1610 1105 l
1607 1115 l
1603 1125 l
1599 1135 l
1596 1146 l
1592 1157 l
1589 1168 l
1585 1180 l
1582 1191 l
1578 1203 l
1574 1216 l
1571 1229 l
1567 1242 l
1564 1255 l
1560 1269 l
1557 1283 l
1553 1297 l
1549 1312 l
1546 1328 l
1542 1344 l
1539 1360 l
1535 1377 l
1532 1394 l
1528 1412 l
1524 1430 l
1521 1449 l
1517 1469 l
1514 1489 l
1510 1510 l
1507 1532 l
1503 1554 l
1500 1577 l
1496 1601 l
1492 1626 l
1489 1652 l
1485 1679 l
1482 1707 l
1478 1736 l
s
[] 0 setdash
[40 20] 0 setdash
2192 504 m
2188 505 l
2184 505 l
2181 506 l
2177 507 l
2174 508 l
2170 509 l
2167 510 l
2163 511 l
2159 512 l
2156 513 l
2152 514 l
2149 515 l
2145 516 l
2142 517 l
2138 518 l
2134 519 l
2131 520 l
2127 521 l
2124 522 l
2120 523 l
2117 525 l
2113 526 l
2109 527 l
2106 528 l
2102 529 l
2099 530 l
2095 531 l
2092 532 l
2088 533 l
2084 535 l
2081 536 l
2077 537 l
2074 538 l
2070 539 l
2067 541 l
2063 542 l
2060 543 l
2056 544 l
2052 545 l
2049 547 l
2045 548 l
2042 549 l
2038 551 l
2035 552 l
2031 553 l
2027 555 l
2024 556 l
2020 557 l
2017 559 l
2013 560 l
2010 561 l
2006 563 l
2002 564 l
1999 566 l
1995 567 l
1992 569 l
1988 570 l
1985 571 l
1981 573 l
1977 574 l
1974 576 l
1970 578 l
1967 579 l
1963 581 l
1960 582 l
1956 584 l
1953 586 l
1949 587 l
1945 589 l
1942 590 l
1938 592 l
1935 594 l
1931 596 l
1928 597 l
1924 599 l
1920 601 l
1917 603 l
1913 604 l
1910 606 l
1906 608 l
1903 610 l
1899 612 l
1895 614 l
1892 616 l
1888 618 l
1885 620 l
1881 622 l
1878 624 l
1874 626 l
1870 628 l
1867 630 l
1863 632 l
1860 634 l
1856 636 l
1853 638 l
1849 641 l
1846 643 l
1842 645 l
1838 647 l
1835 650 l
1831 652 l
1828 655 l
1824 657 l
1821 659 l
1817 662 l
1813 664 l
1810 667 l
1806 669 l
1803 672 l
1799 675 l
1796 677 l
1792 680 l
1788 683 l
1785 685 l
1781 688 l
1778 691 l
1774 694 l
1771 697 l
1767 700 l
1763 703 l
1760 706 l
1756 709 l
1753 712 l
1749 715 l
1746 719 l
1742 722 l
1738 725 l
1735 728 l
1731 732 l
1728 735 l
1724 739 l
1721 742 l
1717 746 l
1714 750 l
1710 753 l
1706 757 l
1703 761 l
1699 765 l
1696 769 l
1692 773 l
1689 777 l
1685 781 l
1681 786 l
1678 790 l
1674 794 l
1671 799 l
1667 803 l
1664 808 l
1660 813 l
1656 817 l
1653 822 l
1649 827 l
1646 832 l
1642 837 l
1639 843 l
1635 848 l
1631 853 l
1628 859 l
1624 865 l
1621 870 l
1617 876 l
1614 882 l
1610 888 l
1607 895 l
1603 901 l
1599 908 l
1596 914 l
1592 921 l
1589 928 l
1585 935 l
1582 942 l
1578 950 l
1574 957 l
1571 965 l
1567 973 l
1564 981 l
1560 990 l
1557 998 l
1553 1007 l
1549 1016 l
1546 1025 l
1542 1035 l
1539 1044 l
1535 1054 l
1532 1064 l
1528 1075 l
1524 1086 l
1521 1097 l
1517 1108 l
1514 1120 l
1510 1132 l
1507 1145 l
1503 1158 l
1500 1171 l
1496 1185 l
1492 1199 l
1489 1213 l
1485 1229 l
1482 1244 l
1478 1260 l
s
[] 0 setdash
[40 20 12 20] 0 setdash
2192 505 m
2188 506 l
2184 506 l
2181 507 l
2177 508 l
2174 509 l
2170 510 l
2167 511 l
2163 512 l
2159 513 l
2156 514 l
2152 515 l
2149 516 l
2145 517 l
2142 518 l
2138 519 l
2134 520 l
2131 521 l
2127 523 l
2124 524 l
2120 525 l
2117 526 l
2113 527 l
2109 528 l
2106 529 l
2102 530 l
2099 531 l
2095 533 l
2092 534 l
2088 535 l
2084 536 l
2081 537 l
2077 538 l
2074 540 l
2070 541 l
2067 542 l
2063 543 l
2060 545 l
2056 546 l
2052 547 l
2049 548 l
2045 550 l
2042 551 l
2038 552 l
2035 554 l
2031 555 l
2027 556 l
2024 558 l
2020 559 l
2017 560 l
2013 562 l
2010 563 l
2006 565 l
2002 566 l
1999 568 l
1995 569 l
1992 570 l
1988 572 l
1985 573 l
1981 575 l
1977 577 l
1974 578 l
1970 580 l
1967 581 l
1963 583 l
1960 584 l
1956 586 l
1953 588 l
1949 589 l
1945 591 l
1942 593 l
1938 595 l
1935 596 l
1931 598 l
1928 600 l
1924 602 l
1920 603 l
1917 605 l
1913 607 l
1910 609 l
1906 611 l
1903 613 l
1899 615 l
1895 617 l
1892 619 l
1888 621 l
1885 623 l
1881 625 l
1878 627 l
1874 629 l
1870 631 l
1867 633 l
1863 635 l
1860 638 l
1856 640 l
1853 642 l
1849 644 l
1846 647 l
1842 649 l
1838 651 l
1835 654 l
1831 656 l
1828 658 l
1824 661 l
1821 663 l
1817 666 l
1813 669 l
1810 671 l
1806 674 l
1803 677 l
1799 679 l
1796 682 l
1792 685 l
1788 688 l
1785 690 l
1781 693 l
1778 696 l
1774 699 l
1771 702 l
1767 705 l
1763 708 l
1760 712 l
1756 715 l
1753 718 l
1749 721 l
1746 725 l
1742 728 l
1738 732 l
1735 735 l
1731 739 l
1728 742 l
1724 746 l
1721 750 l
1717 753 l
1714 757 l
1710 761 l
1706 765 l
1703 769 l
1699 773 l
1696 777 l
1692 782 l
1689 786 l
1685 790 l
1681 795 l
1678 799 l
1674 804 l
1671 809 l
1667 814 l
1664 818 l
1660 823 l
1656 828 l
1653 834 l
1649 839 l
1646 844 l
1642 850 l
1639 855 l
1635 861 l
1631 867 l
1628 873 l
1624 879 l
1621 885 l
1617 891 l
1614 898 l
1610 904 l
1607 911 l
1603 918 l
1599 925 l
1596 932 l
1592 940 l
1589 947 l
1585 955 l
1582 963 l
1578 971 l
1574 979 l
1571 988 l
1567 996 l
1564 1005 l
1560 1015 l
1557 1024 l
1553 1034 l
1549 1044 l
1546 1054 l
1542 1065 l
1539 1076 l
1535 1087 l
1532 1098 l
1528 1110 l
1524 1122 l
1521 1135 l
1517 1148 l
1514 1162 l
1510 1176 l
1507 1190 l
1503 1205 l
1500 1221 l
1496 1237 l
1492 1254 l
1489 1271 l
1485 1289 l
1482 1308 l
1478 1327 l
s
[] 0 setdash
2192 505 m
2188 506 l
2184 507 l
2181 507 l
2177 508 l
2174 509 l
2170 510 l
2167 511 l
2163 512 l
2159 513 l
2156 514 l
2152 515 l
2149 516 l
2145 517 l
2142 518 l
2138 519 l
2134 520 l
2131 522 l
2127 523 l
2124 524 l
2120 525 l
2117 526 l
2113 527 l
2109 528 l
2106 529 l
2102 530 l
2099 531 l
2095 533 l
2092 534 l
2088 535 l
2084 536 l
2081 537 l
2077 538 l
2074 540 l
2070 541 l
2067 542 l
2063 543 l
2060 545 l
2056 546 l
2052 547 l
2049 548 l
2045 550 l
2042 551 l
2038 552 l
2035 554 l
2031 555 l
2027 556 l
2024 558 l
2020 559 l
2017 561 l
2013 562 l
2010 563 l
2006 565 l
2002 566 l
1999 568 l
1995 569 l
1992 571 l
1988 572 l
1985 574 l
1981 575 l
1977 577 l
1974 578 l
1970 580 l
1967 581 l
1963 583 l
1960 585 l
1956 586 l
1953 588 l
1949 590 l
1945 591 l
1942 593 l
1938 595 l
1935 596 l
1931 598 l
1928 600 l
1924 602 l
1920 604 l
1917 605 l
1913 607 l
1910 609 l
1906 611 l
1903 613 l
1899 615 l
1895 617 l
1892 619 l
1888 621 l
1885 623 l
1881 625 l
1878 627 l
1874 629 l
1870 631 l
1867 633 l
1863 636 l
1860 638 l
1856 640 l
1853 642 l
1849 645 l
1846 647 l
1842 649 l
1838 652 l
1835 654 l
1831 656 l
1828 659 l
1824 661 l
1821 664 l
1817 666 l
1813 669 l
1810 672 l
1806 674 l
1803 677 l
1799 680 l
1796 682 l
1792 685 l
1788 688 l
1785 691 l
1781 694 l
1778 697 l
1774 700 l
1771 703 l
1767 706 l
1763 709 l
1760 712 l
1756 715 l
1753 719 l
1749 722 l
1746 725 l
1742 729 l
1738 732 l
1735 736 l
1731 739 l
1728 743 l
1724 747 l
1721 750 l
1717 754 l
1714 758 l
1710 762 l
1706 766 l
1703 770 l
1699 774 l
1696 778 l
1692 783 l
1689 787 l
1685 792 l
1681 796 l
1678 801 l
1674 805 l
1671 810 l
1667 815 l
1664 820 l
1660 825 l
1656 830 l
1653 835 l
1649 841 l
1646 846 l
1642 851 l
1639 857 l
1635 863 l
1631 869 l
1628 875 l
1624 881 l
1621 887 l
1617 894 l
1614 900 l
1610 907 l
1607 914 l
1603 921 l
1599 928 l
1596 935 l
1592 943 l
1589 950 l
1585 958 l
1582 966 l
1578 975 l
1574 983 l
1571 992 l
1567 1001 l
1564 1010 l
1560 1019 l
1557 1029 l
1553 1039 l
1549 1049 l
1546 1060 l
1542 1071 l
1539 1082 l
1535 1093 l
1532 1105 l
1528 1118 l
1524 1130 l
1521 1143 l
1517 1157 l
1514 1171 l
1510 1186 l
1507 1201 l
1503 1216 l
1500 1233 l
1496 1250 l
1492 1267 l
1489 1286 l
1485 1305 l
1482 1325 l
1478 1346 l
s
1299 1835 m
2192 1835 l
2192 248 l
1299 248 l
s
55 1022 m
55 972 l
s
752 169 m
787 169 l
s
1763 169 m
1799 169 l
s
/Times-Roman-ISOLatin1 findfont 60 scalefont setfont
/Helvetica-ISOLatin1 findfont 60 scalefont setfont
597 506 m
gsave
597 506 translate
0 rotate
0 -20  m
(n) show
/Helvetica-ISOLatin1 findfont 35 scalefont setfont
0 -17 rmoveto
(f) show
/Helvetica-ISOLatin1 findfont 60 scalefont setfont
0 17 rmoveto
(=0) show
grestore
newpath
/Helvetica-ISOLatin1 findfont 60 scalefont setfont
/Helvetica-ISOLatin1 findfont 60 scalefont setfont
1716 506 m
gsave
1716 506 translate
0 rotate
0 -20  m
(n) show
/Helvetica-ISOLatin1 findfont 35 scalefont setfont
0 -17 rmoveto
(f) show
/Helvetica-ISOLatin1 findfont 60 scalefont setfont
0 17 rmoveto
(=2) show
grestore
newpath
/Helvetica-ISOLatin1 findfont 60 scalefont setfont
end
showpage
%%Trailer
