%!PS-Adobe-2.0 EPSF-1.2
%%BoundingBox: 30 36 497 425
%%Title: F_from_g2MSbar=2_nf0+nf2.eps
%%Creator: roger@pub3 with xmgr
%%CreationDate: Thu Nov 25 15:31:17 2004
%%EndComments
80 dict begin
/Pat0 { 0.000000 setgray } def
/Pat1 { 0.062500 setgray } def
/Pat2 { 0.125000 setgray } def
/Pat3 { 0.187500 setgray } def
/Pat4 { 0.250000 setgray } def
/Pat5 { 0.312500 setgray } def
/Pat6 { 0.375000 setgray } def
/Pat7 { 0.437500 setgray } def
/Pat8 { 0.500000 setgray } def
/Pat9 { 0.562500 setgray } def
/Pat10 { 0.625000 setgray } def
/Pat11 { 0.687500 setgray } def
/Pat12 { 0.750000 setgray } def
/Pat13 { 0.812500 setgray } def
/Pat14 { 0.875000 setgray } def
/Pat15 { 0.937500 setgray } def
/setpattern { } def
/m {moveto} bind def
/l {lineto} bind def
/s {stroke} bind def
% Symbol fill
/f { gsave fill grestore stroke } bind def
% Opaque symbol
/o { gsave 1.000000 1.000000 1.000000 setrgbcolor
     fill grestore stroke } bind def
% Circle symbol
/a { 3 -1 roll 0 360 arc } bind def
/da { a s } bind def
/fa { a f } bind def
/oa { a o } bind def
% Square symbol
/sq { moveto dup dup rmoveto 2 mul
      dup neg 0 rlineto dup neg 0 exch rlineto
      0 rlineto closepath } bind def
/dsq { sq s } bind def
/fsq { sq f } bind def
/osq { sq o } bind def
% Triangle symbols
/t1 { moveto dup 0 exch rmoveto
      dup neg dup 2 mul rlineto 2 mul 0 rlineto
      closepath } bind def
/dt1 { t1 s } bind def
/ft1 { t1 f } bind def
/ot1 { t1 o } bind def
/t2 { moveto dup neg 0 rmoveto
      dup dup 2 mul exch neg rlineto
      2 mul 0 exch rlineto closepath } bind def
/dt2 { t2 s } bind def
/ft2 { t2 f } bind def
/ot2 { t2 o } bind def
/t3 { moveto dup neg 0 exch rmoveto
      dup dup 2 mul rlineto neg 2 mul 0 rlineto
      closepath } bind def
/dt3 { t3 s } bind def
/ft3 { t3 f } bind def
/ot3 { t3 o } bind def
/t4 { moveto dup 0 rmoveto
      dup dup -2 mul exch rlineto
      -2 mul 0 exch rlineto closepath } bind def
/dt4 { t4 s } bind def
/ft4 { t4 f } bind def
/ot4 { t4 o } bind def
% Diamond symbol
/di { moveto dup 0 exch rmoveto
      dup neg dup rlineto dup dup neg rlineto
      dup dup rlineto closepath } bind def
/ddi { di s } bind def
/fdi { di f } bind def
/odi { di o } bind def
% Plus symbol
/pl { dup 0 rmoveto dup -2 mul 0 rlineto
      dup dup rmoveto -2 mul 0 exch rlineto
    } bind def
/dpl { m pl s } bind def
% x symbol
/x { dup dup rmoveto dup -2 mul dup rlineto
     2 mul dup 0 rmoveto dup neg exch rlineto
   } bind def
/dx { m x s } bind def
% Splat symbol
/dsp { m dup pl dup 0 exch rmoveto 0.707 mul x s
     } bind def
/RJ {
 stringwidth neg exch neg exch
 rmoveto
} bind def
/CS {
 stringwidth
 2 div neg exch 2 div neg exch
 rmoveto
} bind def
0.24 0.24 scale
1 setlinecap

	mark             
	/ISOLatin1Encoding 
	  8#000 1 8#054 {StandardEncoding exch get} for 
	  /minus 
	  8#056 1 8#217 {StandardEncoding exch get} for 
	  /dotlessi 
	  8#301 1 8#317 {StandardEncoding exch get} for 
	  /space /exclamdown /cent /sterling /currency /yen /brokenbar /section 
	  /dieresis /copyright /ordfeminine /guillemotleft /logicalnot /hyphen 
	  /registered /macron /degree /plusminus /twosuperior /threesuperior /acute 
	  /mu /paragraph /periodcentered /cedilla /onesuperior /ordmasculine 
	  /guillemotright /onequarter /onehalf /threequarters /questiondown /Agrave 
	  /Aacute /Acircumflex /Atilde /Adieresis /Aring /AE /Ccedilla /Egrave /Eacute
	  /Ecircumflex /Edieresis /Igrave /Iacute /Icircumflex /Idieresis /Eth /Ntilde
	  /Ograve /Oacute /Ocircumflex /Otilde /Odieresis /multiply /Oslash /Ugrave 
	  /Uacute /Ucircumflex /Udieresis /Yacute /Thorn /germandbls /agrave /aacute 
	  /acircumflex /atilde /adieresis /aring /ae /ccedilla /egrave /eacute 
	  /ecircumflex /edieresis /igrave /iacute /icircumflex /idieresis /eth /ntilde
	  /ograve /oacute /ocircumflex /otilde /odieresis /divide /oslash /ugrave 
	  /uacute /ucircumflex /udieresis /yacute /thorn /ydieresis 
	  /ISOLatin1Encoding where not {256 array astore def} if 
	 cleartomark 

	/makeISOEncoded 
	{ findfont /curfont exch def 
	  /newfont curfont maxlength dict def  
	  /ISOLatin1 (-ISOLatin1) def
	  /curfontname curfont /FontName get dup length string cvs def 
	  /newfontname curfontname length ISOLatin1 length add string 
    	 dup 0                  curfontname putinterval 
    	 dup curfontname length ISOLatin1   putinterval 
	  def 
	  curfont   
	  { exch dup /FID ne  
    	{ dup /Encoding eq  
    	  { exch pop ISOLatin1Encoding exch }  
    	  if  
    	  dup /FontName eq  
    	  { exch pop newfontname exch }  
    	  if  
    	  exch newfont 3 1 roll put  
    	}  
    	{ pop pop }  
    	ifelse  
	  }  
	  forall 
	  newfontname newfont definefont 
	} def 

	/Times-Roman makeISOEncoded pop 
	/Times-Bold makeISOEncoded pop 
	/Times-Italic makeISOEncoded pop 
	/Times-BoldItalic makeISOEncoded pop 
	/Helvetica makeISOEncoded pop 
	/Helvetica-Bold makeISOEncoded pop 
	/Helvetica-Oblique makeISOEncoded pop 
	/Helvetica-BoldOblique makeISOEncoded pop 
s
0.000000 0.000000 0.000000 setrgbcolor
1 setlinewidth
/Times-Italic-ISOLatin1 findfont 60 scalefont setfont
[] 0 setdash
615 347 m
615 357 l
1031 347 m
1031 357 l
1448 347 m
1448 357 l
1864 347 m
1864 357 l
615 1736 m
615 1726 l
1031 1736 m
1031 1726 l
1448 1736 m
1448 1726 l
1864 1736 m
1864 1726 l
s
615 347 m
615 367 l
1031 347 m
1031 367 l
1448 347 m
1448 367 l
1864 347 m
1864 367 l
615 1736 m
615 1716 l
1031 1736 m
1031 1716 l
1448 1736 m
1448 1716 l
1864 1736 m
1864 1716 l
/Times-Italic-ISOLatin1 findfont 60 scalefont setfont
/Helvetica-ISOLatin1 findfont 60 scalefont setfont
s
615 297 m
gsave
615 297 translate
0 rotate
0 -20  m
(0) CS
(0) show
grestore
newpath
1031 297 m
gsave
1031 297 translate
0 rotate
0 -20  m
(1) CS
(1) show
grestore
newpath
1448 297 m
gsave
1448 297 translate
0 rotate
0 -20  m
(2) CS
(2) show
grestore
newpath
1864 297 m
gsave
1864 297 translate
0 rotate
0 -20  m
(3) CS
(3) show
grestore
newpath
/Helvetica-ISOLatin1 findfont 60 scalefont setfont
1239 197 m
gsave
1239 197 translate
0 rotate
0 0  m
(n) CS
(n) show
grestore
newpath
407 347 m
417 347 l
407 434 m
417 434 l
407 521 m
417 521 l
407 608 m
417 608 l
407 694 m
417 694 l
407 781 m
417 781 l
407 868 m
417 868 l
407 955 m
417 955 l
407 1042 m
417 1042 l
407 1128 m
417 1128 l
407 1215 m
417 1215 l
407 1302 m
417 1302 l
407 1389 m
417 1389 l
407 1476 m
417 1476 l
407 1562 m
417 1562 l
407 1649 m
417 1649 l
407 1736 m
417 1736 l
2072 347 m
2062 347 l
2072 434 m
2062 434 l
2072 521 m
2062 521 l
2072 608 m
2062 608 l
2072 694 m
2062 694 l
2072 781 m
2062 781 l
2072 868 m
2062 868 l
2072 955 m
2062 955 l
2072 1042 m
2062 1042 l
2072 1128 m
2062 1128 l
2072 1215 m
2062 1215 l
2072 1302 m
2062 1302 l
2072 1389 m
2062 1389 l
2072 1476 m
2062 1476 l
2072 1562 m
2062 1562 l
2072 1649 m
2062 1649 l
2072 1736 m
2062 1736 l
s
407 347 m
427 347 l
407 694 m
427 694 l
407 1042 m
427 1042 l
407 1389 m
427 1389 l
407 1736 m
427 1736 l
2072 347 m
2052 347 l
2072 694 m
2052 694 l
2072 1042 m
2052 1042 l
2072 1389 m
2052 1389 l
2072 1736 m
2052 1736 l
/Helvetica-ISOLatin1 findfont 60 scalefont setfont
s
369 347 m
gsave
369 347 translate
0 rotate
0 -20  m
(0) RJ
(0) show
grestore
newpath
369 694 m
gsave
369 694 translate
0 rotate
0 -20  m
(0.02) RJ
(0.02) show
grestore
newpath
369 1042 m
gsave
369 1042 translate
0 rotate
0 -20  m
(0.04) RJ
(0.04) show
grestore
newpath
369 1389 m
gsave
369 1389 translate
0 rotate
0 -20  m
(0.06) RJ
(0.06) show
grestore
newpath
369 1736 m
gsave
369 1736 translate
0 rotate
0 -20  m
(0.08) RJ
(0.08) show
grestore
newpath
/Helvetica-ISOLatin1 findfont 60 scalefont setfont
196 1041 m
gsave
196 1041 translate
90 rotate
0 0  m
(FMS) CS
(F) show
/Helvetica-ISOLatin1 findfont 35 scalefont setfont
0 35 rmoveto
(MS) show
/Helvetica-ISOLatin1 findfont 35 scalefont setfont
0 35 rmoveto
() show
grestore
newpath
[20 20] 0 setdash
615 827 m
1031 1501 l
1448 1426 l
1864 1418 l
/Helvetica-ISOLatin1 findfont 37 scalefont setfont
s
[] 0 setdash
12 615 827 fa
12 1031 1501 fa
12 1448 1426 fa
12 1864 1418 fa
/Helvetica-ISOLatin1 findfont 60 scalefont setfont
/Helvetica-ISOLatin1 findfont 37 scalefont setfont
12 1906 1420 oa
/Helvetica-ISOLatin1 findfont 60 scalefont setfont
[20 20] 0 setdash
615 639 m
1031 1067 l
1448 1028 l
1864 1024 l
/Helvetica-ISOLatin1 findfont 37 scalefont setfont
s
[] 0 setdash
10 615 639 fsq
10 1031 1067 fsq
10 1448 1028 fsq
10 1864 1024 fsq
/Helvetica-ISOLatin1 findfont 60 scalefont setfont
/Helvetica-ISOLatin1 findfont 37 scalefont setfont
10 1906 1025 osq
/Helvetica-ISOLatin1 findfont 60 scalefont setfont
407 347 m
407 1736 l
2072 1736 l
2072 347 l
407 347 l
s
125 1071 m
125 1012 l
s
end
showpage
%%Trailer
