%!PS-Adobe-2.0 EPSF-1.2
%%BoundingBox: 59 36 512 425
%%Title: amq_r0oa_nf2_joint8para_15pts_041221.eps
%%Creator: roger@pub1 with xmgr
%%CreationDate: Tue Dec 21 16:20:56 2004
%%EndComments
80 dict begin
/Pat0 { 0.000000 setgray } def
/Pat1 { 0.062500 setgray } def
/Pat2 { 0.125000 setgray } def
/Pat3 { 0.187500 setgray } def
/Pat4 { 0.250000 setgray } def
/Pat5 { 0.312500 setgray } def
/Pat6 { 0.375000 setgray } def
/Pat7 { 0.437500 setgray } def
/Pat8 { 0.500000 setgray } def
/Pat9 { 0.562500 setgray } def
/Pat10 { 0.625000 setgray } def
/Pat11 { 0.687500 setgray } def
/Pat12 { 0.750000 setgray } def
/Pat13 { 0.812500 setgray } def
/Pat14 { 0.875000 setgray } def
/Pat15 { 0.937500 setgray } def
/setpattern { } def
/m {moveto} bind def
/l {lineto} bind def
/s {stroke} bind def
% Symbol fill
/f { gsave fill grestore stroke } bind def
% Opaque symbol
/o { gsave 1.000000 1.000000 1.000000 setrgbcolor
     fill grestore stroke } bind def
% Circle symbol
/a { 3 -1 roll 0 360 arc } bind def
/da { a s } bind def
/fa { a f } bind def
/oa { a o } bind def
% Square symbol
/sq { moveto dup dup rmoveto 2 mul
      dup neg 0 rlineto dup neg 0 exch rlineto
      0 rlineto closepath } bind def
/dsq { sq s } bind def
/fsq { sq f } bind def
/osq { sq o } bind def
% Triangle symbols
/t1 { moveto dup 0 exch rmoveto
      dup neg dup 2 mul rlineto 2 mul 0 rlineto
      closepath } bind def
/dt1 { t1 s } bind def
/ft1 { t1 f } bind def
/ot1 { t1 o } bind def
/t2 { moveto dup neg 0 rmoveto
      dup dup 2 mul exch neg rlineto
      2 mul 0 exch rlineto closepath } bind def
/dt2 { t2 s } bind def
/ft2 { t2 f } bind def
/ot2 { t2 o } bind def
/t3 { moveto dup neg 0 exch rmoveto
      dup dup 2 mul rlineto neg 2 mul 0 rlineto
      closepath } bind def
/dt3 { t3 s } bind def
/ft3 { t3 f } bind def
/ot3 { t3 o } bind def
/t4 { moveto dup 0 rmoveto
      dup dup -2 mul exch rlineto
      -2 mul 0 exch rlineto closepath } bind def
/dt4 { t4 s } bind def
/ft4 { t4 f } bind def
/ot4 { t4 o } bind def
% Diamond symbol
/di { moveto dup 0 exch rmoveto
      dup neg dup rlineto dup dup neg rlineto
      dup dup rlineto closepath } bind def
/ddi { di s } bind def
/fdi { di f } bind def
/odi { di o } bind def
% Plus symbol
/pl { dup 0 rmoveto dup -2 mul 0 rlineto
      dup dup rmoveto -2 mul 0 exch rlineto
    } bind def
/dpl { m pl s } bind def
% x symbol
/x { dup dup rmoveto dup -2 mul dup rlineto
     2 mul dup 0 rmoveto dup neg exch rlineto
   } bind def
/dx { m x s } bind def
% Splat symbol
/dsp { m dup pl dup 0 exch rmoveto 0.707 mul x s
     } bind def
/RJ {
 stringwidth neg exch neg exch
 rmoveto
} bind def
/CS {
 stringwidth
 2 div neg exch 2 div neg exch
 rmoveto
} bind def
0.24 0.24 scale
1 setlinecap

	mark             
	/ISOLatin1Encoding 
	  8#000 1 8#054 {StandardEncoding exch get} for 
	  /minus 
	  8#056 1 8#217 {StandardEncoding exch get} for 
	  /dotlessi 
	  8#301 1 8#317 {StandardEncoding exch get} for 
	  /space /exclamdown /cent /sterling /currency /yen /brokenbar /section 
	  /dieresis /copyright /ordfeminine /guillemotleft /logicalnot /hyphen 
	  /registered /macron /degree /plusminus /twosuperior /threesuperior /acute 
	  /mu /paragraph /periodcentered /cedilla /onesuperior /ordmasculine 
	  /guillemotright /onequarter /onehalf /threequarters /questiondown /Agrave 
	  /Aacute /Acircumflex /Atilde /Adieresis /Aring /AE /Ccedilla /Egrave /Eacute
	  /Ecircumflex /Edieresis /Igrave /Iacute /Icircumflex /Idieresis /Eth /Ntilde
	  /Ograve /Oacute /Ocircumflex /Otilde /Odieresis /multiply /Oslash /Ugrave 
	  /Uacute /Ucircumflex /Udieresis /Yacute /Thorn /germandbls /agrave /aacute 
	  /acircumflex /atilde /adieresis /aring /ae /ccedilla /egrave /eacute 
	  /ecircumflex /edieresis /igrave /iacute /icircumflex /idieresis /eth /ntilde
	  /ograve /oacute /ocircumflex /otilde /odieresis /divide /oslash /ugrave 
	  /uacute /ucircumflex /udieresis /yacute /thorn /ydieresis 
	  /ISOLatin1Encoding where not {256 array astore def} if 
	 cleartomark 

	/makeISOEncoded 
	{ findfont /curfont exch def 
	  /newfont curfont maxlength dict def  
	  /ISOLatin1 (-ISOLatin1) def
	  /curfontname curfont /FontName get dup length string cvs def 
	  /newfontname curfontname length ISOLatin1 length add string 
    	 dup 0                  curfontname putinterval 
    	 dup curfontname length ISOLatin1   putinterval 
	  def 
	  curfont   
	  { exch dup /FID ne  
    	{ dup /Encoding eq  
    	  { exch pop ISOLatin1Encoding exch }  
    	  if  
    	  dup /FontName eq  
    	  { exch pop newfontname exch }  
    	  if  
    	  exch newfont 3 1 roll put  
    	}  
    	{ pop pop }  
    	ifelse  
	  }  
	  forall 
	  newfontname newfont definefont 
	} def 

	/Times-Roman makeISOEncoded pop 
	/Times-Bold makeISOEncoded pop 
	/Times-Italic makeISOEncoded pop 
	/Times-BoldItalic makeISOEncoded pop 
	/Helvetica makeISOEncoded pop 
	/Helvetica-Bold makeISOEncoded pop 
	/Helvetica-Oblique makeISOEncoded pop 
	/Helvetica-BoldOblique makeISOEncoded pop 
s
0.000000 0.000000 0.000000 setrgbcolor
1 setlinewidth
/Times-Italic-ISOLatin1 findfont 60 scalefont setfont
[] 0 setdash
407 347 m
407 357 l
504 347 m
504 357 l
603 347 m
603 357 l
701 347 m
701 357 l
798 347 m
798 357 l
896 347 m
896 357 l
995 347 m
995 357 l
1093 347 m
1093 357 l
1191 347 m
1191 357 l
1289 347 m
1289 357 l
1386 347 m
1386 357 l
1485 347 m
1485 357 l
1582 347 m
1582 357 l
1680 347 m
1680 357 l
1778 347 m
1778 357 l
1877 347 m
1877 357 l
1974 347 m
1974 357 l
2072 347 m
2072 357 l
407 1736 m
407 1726 l
504 1736 m
504 1726 l
603 1736 m
603 1726 l
701 1736 m
701 1726 l
798 1736 m
798 1726 l
896 1736 m
896 1726 l
995 1736 m
995 1726 l
1093 1736 m
1093 1726 l
1191 1736 m
1191 1726 l
1289 1736 m
1289 1726 l
1386 1736 m
1386 1726 l
1485 1736 m
1485 1726 l
1582 1736 m
1582 1726 l
1680 1736 m
1680 1726 l
1778 1736 m
1778 1726 l
1877 1736 m
1877 1726 l
1974 1736 m
1974 1726 l
2072 1736 m
2072 1726 l
s
504 347 m
504 367 l
896 347 m
896 367 l
1289 347 m
1289 367 l
1680 347 m
1680 367 l
2072 347 m
2072 367 l
504 1736 m
504 1716 l
896 1736 m
896 1716 l
1289 1736 m
1289 1716 l
1680 1736 m
1680 1716 l
2072 1736 m
2072 1716 l
/Times-Italic-ISOLatin1 findfont 60 scalefont setfont
/Helvetica-ISOLatin1 findfont 60 scalefont setfont
s
504 297 m
gsave
504 297 translate
0 rotate
0 -20  m
(0) CS
(0) show
grestore
newpath
896 297 m
gsave
896 297 translate
0 rotate
0 -20  m
(0.02) CS
(0.02) show
grestore
newpath
1289 297 m
gsave
1289 297 translate
0 rotate
0 -20  m
(0.04) CS
(0.04) show
grestore
newpath
1680 297 m
gsave
1680 297 translate
0 rotate
0 -20  m
(0.06) CS
(0.06) show
grestore
newpath
2072 297 m
gsave
2072 297 translate
0 rotate
0 -20  m
(0.08) CS
(0.08) show
grestore
newpath
/Helvetica-ISOLatin1 findfont 60 scalefont setfont
1239 197 m
gsave
1239 197 translate
0 rotate
0 0  m
(amq) CS
(am) show
/Helvetica-ISOLatin1 findfont 35 scalefont setfont
0 -17 rmoveto
(q) show
/Helvetica-ISOLatin1 findfont 60 scalefont setfont
0 17 rmoveto
() show
grestore
newpath
407 378 m
417 378 l
407 440 m
417 440 l
407 501 m
417 501 l
407 563 m
417 563 l
407 625 m
417 625 l
407 687 m
417 687 l
407 748 m
417 748 l
407 810 m
417 810 l
407 872 m
417 872 l
407 933 m
417 933 l
407 995 m
417 995 l
407 1057 m
417 1057 l
407 1119 m
417 1119 l
407 1180 m
417 1180 l
407 1242 m
417 1242 l
407 1304 m
417 1304 l
407 1366 m
417 1366 l
407 1427 m
417 1427 l
407 1489 m
417 1489 l
407 1551 m
417 1551 l
407 1612 m
417 1612 l
407 1674 m
417 1674 l
407 1736 m
417 1736 l
2072 378 m
2062 378 l
2072 440 m
2062 440 l
2072 501 m
2062 501 l
2072 563 m
2062 563 l
2072 625 m
2062 625 l
2072 687 m
2062 687 l
2072 748 m
2062 748 l
2072 810 m
2062 810 l
2072 872 m
2062 872 l
2072 933 m
2062 933 l
2072 995 m
2062 995 l
2072 1057 m
2062 1057 l
2072 1119 m
2062 1119 l
2072 1180 m
2062 1180 l
2072 1242 m
2062 1242 l
2072 1304 m
2062 1304 l
2072 1366 m
2062 1366 l
2072 1427 m
2062 1427 l
2072 1489 m
2062 1489 l
2072 1551 m
2062 1551 l
2072 1612 m
2062 1612 l
2072 1674 m
2062 1674 l
2072 1736 m
2062 1736 l
s
407 501 m
427 501 l
407 810 m
427 810 l
407 1119 m
427 1119 l
407 1427 m
427 1427 l
407 1736 m
427 1736 l
2072 501 m
2052 501 l
2072 810 m
2052 810 l
2072 1119 m
2052 1119 l
2072 1427 m
2052 1427 l
2072 1736 m
2052 1736 l
/Helvetica-ISOLatin1 findfont 60 scalefont setfont
s
369 501 m
gsave
369 501 translate
0 rotate
0 -20  m
(4) RJ
(4) show
grestore
newpath
369 810 m
gsave
369 810 translate
0 rotate
0 -20  m
(5) RJ
(5) show
grestore
newpath
369 1119 m
gsave
369 1119 translate
0 rotate
0 -20  m
(6) RJ
(6) show
grestore
newpath
369 1427 m
gsave
369 1427 translate
0 rotate
0 -20  m
(7) RJ
(7) show
grestore
newpath
369 1736 m
gsave
369 1736 translate
0 rotate
0 -20  m
(8) RJ
(8) show
grestore
newpath
/Helvetica-ISOLatin1 findfont 60 scalefont setfont
310 1041 m
gsave
310 1041 translate
90 rotate
0 0  m
(r0/a) CS
(r) show
/Helvetica-ISOLatin1 findfont 35 scalefont setfont
0 -17 rmoveto
(0) show
/Helvetica-ISOLatin1 findfont 60 scalefont setfont
0 17 rmoveto
(/a) show
grestore
newpath
[20 20] 0 setdash
504 -309354 m
504 347 m
504 1736 l
s
[] 0 setdash
[] 0 setdash
1475 504 m
1475 547 l
1043 720 m
1043 748 l
775 806 m
775 839 l
695 864 m
695 910 l
615 879 m
615 938 l
s
1465 504 m
1485 504 l
1465 547 m
1485 547 l
1033 720 m
1053 720 l
1033 748 m
1053 748 l
765 806 m
785 806 l
765 839 m
785 839 l
685 864 m
705 864 l
685 910 m
705 910 l
605 879 m
625 879 l
605 938 m
625 938 l
s
/Helvetica-ISOLatin1 findfont 37 scalefont setfont
12 1475 525 fa
12 1043 734 fa
12 775 823 fa
12 695 887 fa
12 615 909 fa
/Helvetica-ISOLatin1 findfont 60 scalefont setfont
[20 20] 0 setdash
504 950 m
518 945 l
532 940 l
546 935 l
559 929 l
573 924 l
587 919 l
601 913 l
614 908 l
628 902 l
642 897 l
655 891 l
669 886 l
683 880 l
697 875 l
710 869 l
724 863 l
738 858 l
751 852 l
765 846 l
779 841 l
793 835 l
806 829 l
820 823 l
834 818 l
848 812 l
861 806 l
875 800 l
889 794 l
902 788 l
916 782 l
930 776 l
944 770 l
957 764 l
971 758 l
985 752 l
998 746 l
1012 740 l
1026 734 l
1040 728 l
1053 722 l
1067 716 l
1081 710 l
1094 704 l
1108 697 l
1122 691 l
1136 685 l
1149 679 l
1163 673 l
1177 666 l
1191 660 l
1204 654 l
1218 648 l
1232 641 l
1245 635 l
1259 629 l
1273 623 l
1287 616 l
1300 610 l
1314 604 l
1328 597 l
1341 591 l
1355 585 l
1369 579 l
1383 572 l
1396 566 l
1410 559 l
1424 553 l
1437 547 l
1451 540 l
1465 534 l
1479 528 l
1492 521 l
1506 515 l
1520 509 l
1533 502 l
1547 496 l
1561 490 l
1575 483 l
1588 477 l
1602 470 l
1616 464 l
1630 458 l
1643 451 l
1657 445 l
1671 439 l
1684 432 l
1698 426 l
1712 419 l
1726 413 l
1739 407 l
1753 400 l
1767 394 l
1780 388 l
1794 381 l
1808 375 l
1822 369 l
1835 362 l
1849 356 l
1863 350 l
s
[] 0 setdash
504 921 m
504 980 l
s
494 921 m
514 921 l
494 980 m
514 980 l
s
504 950 m
/Helvetica-ISOLatin1 findfont 37 scalefont setfont
s
12 504 950 oa
/Helvetica-ISOLatin1 findfont 60 scalefont setfont
[] 0 setdash
1386 713 m
1386 744 l
1063 836 m
1063 870 l
769 962 m
769 987 l
s
1376 713 m
1396 713 l
1376 744 m
1396 744 l
1053 836 m
1073 836 l
1053 870 m
1073 870 l
759 962 m
779 962 l
759 987 m
779 987 l
s
/Helvetica-ISOLatin1 findfont 37 scalefont setfont
10 1386 729 fsq
10 1063 853 fsq
10 769 974 fsq
/Helvetica-ISOLatin1 findfont 60 scalefont setfont
[20 20] 0 setdash
504 1083 m
518 1077 l
532 1071 l
546 1065 l
559 1059 l
573 1053 l
587 1047 l
601 1041 l
614 1036 l
628 1030 l
642 1024 l
655 1018 l
669 1012 l
683 1006 l
697 1000 l
710 995 l
724 989 l
738 983 l
751 977 l
765 972 l
779 966 l
793 960 l
806 955 l
820 949 l
834 943 l
848 938 l
861 932 l
875 926 l
889 921 l
902 915 l
916 910 l
930 904 l
944 899 l
957 893 l
971 888 l
985 882 l
998 877 l
1012 871 l
1026 866 l
1040 861 l
1053 855 l
1067 850 l
1081 844 l
1094 839 l
1108 834 l
1122 828 l
1136 823 l
1149 818 l
1163 813 l
1177 807 l
1191 802 l
1204 797 l
1218 792 l
1232 787 l
1245 781 l
1259 776 l
1273 771 l
1287 766 l
1300 761 l
1314 756 l
1328 751 l
1341 746 l
1355 741 l
1369 735 l
1383 730 l
1396 725 l
1410 720 l
1424 715 l
1437 711 l
1451 706 l
1465 701 l
1479 696 l
1492 691 l
1506 686 l
1520 681 l
1533 676 l
1547 671 l
1561 667 l
1575 662 l
1588 657 l
1602 652 l
1616 647 l
1630 643 l
1643 638 l
1657 633 l
1671 628 l
1684 624 l
1698 619 l
1712 614 l
1726 610 l
1739 605 l
1753 600 l
1767 596 l
1780 591 l
1794 587 l
1808 582 l
1822 577 l
1835 573 l
1849 568 l
1863 564 l
s
[] 0 setdash
504 1059 m
504 1108 l
s
494 1059 m
514 1059 l
494 1108 m
514 1108 l
s
504 1083 m
/Helvetica-ISOLatin1 findfont 37 scalefont setfont
s
10 504 1083 osq
/Helvetica-ISOLatin1 findfont 60 scalefont setfont
[] 0 setdash
1797 727 m
1797 778 l
1255 857 m
1255 903 l
987 965 m
987 1004 l
774 1051 m
774 1112 l
s
1787 727 m
1807 727 l
1787 778 m
1807 778 l
1245 857 m
1265 857 l
1245 903 m
1265 903 l
977 965 m
997 965 l
977 1004 m
997 1004 l
764 1051 m
784 1051 l
764 1112 m
784 1112 l
s
/Helvetica-ISOLatin1 findfont 40 scalefont setfont
13 1797 752 fdi
13 1255 880 fdi
13 987 985 fdi
13 774 1082 fdi
/Helvetica-ISOLatin1 findfont 60 scalefont setfont
[20 20] 0 setdash
504 1197 m
518 1190 l
532 1183 l
546 1176 l
559 1170 l
573 1163 l
587 1156 l
601 1150 l
614 1143 l
628 1137 l
642 1131 l
655 1124 l
669 1118 l
683 1112 l
697 1105 l
710 1099 l
724 1093 l
738 1087 l
751 1081 l
765 1075 l
779 1069 l
793 1063 l
806 1058 l
820 1052 l
834 1046 l
848 1041 l
861 1035 l
875 1029 l
889 1024 l
902 1018 l
916 1013 l
930 1008 l
944 1002 l
957 997 l
971 992 l
985 987 l
998 981 l
1012 976 l
1026 971 l
1040 966 l
1053 961 l
1067 956 l
1081 951 l
1094 946 l
1108 942 l
1122 937 l
1136 932 l
1149 927 l
1163 923 l
1177 918 l
1191 914 l
1204 909 l
1218 905 l
1232 900 l
1245 896 l
1259 891 l
1273 887 l
1287 883 l
1300 878 l
1314 874 l
1328 870 l
1341 866 l
1355 862 l
1369 858 l
1383 854 l
1396 850 l
1410 846 l
1424 842 l
1437 838 l
1451 834 l
1465 830 l
1479 826 l
1492 823 l
1506 819 l
1520 815 l
1533 812 l
1547 808 l
1561 804 l
1575 801 l
1588 797 l
1602 794 l
1616 790 l
1630 787 l
1643 783 l
1657 780 l
1671 777 l
1684 773 l
1698 770 l
1712 767 l
1726 764 l
1739 761 l
1753 758 l
1767 754 l
1780 751 l
1794 748 l
1808 745 l
1822 742 l
1835 739 l
1849 736 l
1863 734 l
s
[] 0 setdash
504 1166 m
504 1228 l
s
494 1166 m
514 1166 l
494 1228 m
514 1228 l
s
504 1197 m
/Helvetica-ISOLatin1 findfont 40 scalefont setfont
s
13 504 1197 odi
/Helvetica-ISOLatin1 findfont 60 scalefont setfont
[] 0 setdash
1402 1126 m
1402 1168 l
1081 1220 m
1081 1253 l
815 1319 m
815 1359 l
s
1392 1126 m
1412 1126 l
1392 1168 m
1412 1168 l
1071 1220 m
1091 1220 l
1071 1253 m
1091 1253 l
805 1319 m
825 1319 l
805 1359 m
825 1359 l
s
/Helvetica-ISOLatin1 findfont 40 scalefont setfont
13 1402 1147 ft1
13 1081 1236 ft1
13 815 1339 ft1
/Helvetica-ISOLatin1 findfont 60 scalefont setfont
[20 20] 0 setdash
504 1548 m
518 1537 l
532 1527 l
546 1516 l
559 1506 l
573 1496 l
587 1486 l
601 1477 l
614 1467 l
628 1458 l
642 1449 l
655 1440 l
669 1431 l
683 1422 l
697 1414 l
710 1405 l
724 1397 l
738 1389 l
751 1381 l
765 1373 l
779 1366 l
793 1358 l
806 1351 l
820 1344 l
834 1336 l
848 1329 l
861 1323 l
875 1316 l
889 1309 l
902 1303 l
916 1297 l
930 1290 l
944 1284 l
957 1278 l
971 1273 l
985 1267 l
998 1261 l
1012 1256 l
1026 1251 l
1040 1245 l
1053 1240 l
1067 1235 l
1081 1231 l
1094 1226 l
1108 1221 l
1122 1217 l
1136 1212 l
1149 1208 l
1163 1204 l
1177 1200 l
1191 1196 l
1204 1192 l
1218 1189 l
1232 1185 l
1245 1182 l
1259 1178 l
1273 1175 l
1287 1172 l
1300 1169 l
1314 1166 l
1328 1163 l
1341 1160 l
1355 1158 l
1369 1155 l
1383 1153 l
1396 1151 l
1410 1149 l
1424 1146 l
1437 1144 l
1451 1143 l
1465 1141 l
1479 1139 l
1492 1138 l
1506 1136 l
1520 1135 l
1533 1134 l
1547 1132 l
1561 1131 l
1575 1130 l
1588 1130 l
1602 1129 l
1616 1128 l
1630 1128 l
1643 1127 l
1657 1127 l
1671 1127 l
1684 1126 l
1698 1126 l
1712 1127 l
1726 1127 l
1739 1127 l
1753 1127 l
1767 1128 l
1780 1128 l
1794 1129 l
1808 1130 l
1822 1131 l
1835 1132 l
1849 1133 l
1863 1134 l
s
[] 0 setdash
504 1467 m
504 1629 l
s
494 1467 m
514 1467 l
494 1629 m
514 1629 l
s
504 1548 m
/Helvetica-ISOLatin1 findfont 40 scalefont setfont
s
13 504 1548 ot1
/Helvetica-ISOLatin1 findfont 60 scalefont setfont
407 347 m
407 1736 l
2072 1736 l
2072 347 l
407 347 l
s
end
showpage
%%Trailer
