%!PS-Adobe-2.0 EPSF-1.2
%%BoundingBox: 31 36 512 425
%%Title: amq_plaq_nf2_quad.eps
%%Creator: roger@pub1 with xmgr
%%CreationDate: Tue Dec 14 18:15:52 2004
%%EndComments
80 dict begin
/Pat0 { 0.000000 setgray } def
/Pat1 { 0.062500 setgray } def
/Pat2 { 0.125000 setgray } def
/Pat3 { 0.187500 setgray } def
/Pat4 { 0.250000 setgray } def
/Pat5 { 0.312500 setgray } def
/Pat6 { 0.375000 setgray } def
/Pat7 { 0.437500 setgray } def
/Pat8 { 0.500000 setgray } def
/Pat9 { 0.562500 setgray } def
/Pat10 { 0.625000 setgray } def
/Pat11 { 0.687500 setgray } def
/Pat12 { 0.750000 setgray } def
/Pat13 { 0.812500 setgray } def
/Pat14 { 0.875000 setgray } def
/Pat15 { 0.937500 setgray } def
/setpattern { } def
/m {moveto} bind def
/l {lineto} bind def
/s {stroke} bind def
% Symbol fill
/f { gsave fill grestore stroke } bind def
% Opaque symbol
/o { gsave 1.000000 1.000000 1.000000 setrgbcolor
     fill grestore stroke } bind def
% Circle symbol
/a { 3 -1 roll 0 360 arc } bind def
/da { a s } bind def
/fa { a f } bind def
/oa { a o } bind def
% Square symbol
/sq { moveto dup dup rmoveto 2 mul
      dup neg 0 rlineto dup neg 0 exch rlineto
      0 rlineto closepath } bind def
/dsq { sq s } bind def
/fsq { sq f } bind def
/osq { sq o } bind def
% Triangle symbols
/t1 { moveto dup 0 exch rmoveto
      dup neg dup 2 mul rlineto 2 mul 0 rlineto
      closepath } bind def
/dt1 { t1 s } bind def
/ft1 { t1 f } bind def
/ot1 { t1 o } bind def
/t2 { moveto dup neg 0 rmoveto
      dup dup 2 mul exch neg rlineto
      2 mul 0 exch rlineto closepath } bind def
/dt2 { t2 s } bind def
/ft2 { t2 f } bind def
/ot2 { t2 o } bind def
/t3 { moveto dup neg 0 exch rmoveto
      dup dup 2 mul rlineto neg 2 mul 0 rlineto
      closepath } bind def
/dt3 { t3 s } bind def
/ft3 { t3 f } bind def
/ot3 { t3 o } bind def
/t4 { moveto dup 0 rmoveto
      dup dup -2 mul exch rlineto
      -2 mul 0 exch rlineto closepath } bind def
/dt4 { t4 s } bind def
/ft4 { t4 f } bind def
/ot4 { t4 o } bind def
% Diamond symbol
/di { moveto dup 0 exch rmoveto
      dup neg dup rlineto dup dup neg rlineto
      dup dup rlineto closepath } bind def
/ddi { di s } bind def
/fdi { di f } bind def
/odi { di o } bind def
% Plus symbol
/pl { dup 0 rmoveto dup -2 mul 0 rlineto
      dup dup rmoveto -2 mul 0 exch rlineto
    } bind def
/dpl { m pl s } bind def
% x symbol
/x { dup dup rmoveto dup -2 mul dup rlineto
     2 mul dup 0 rmoveto dup neg exch rlineto
   } bind def
/dx { m x s } bind def
% Splat symbol
/dsp { m dup pl dup 0 exch rmoveto 0.707 mul x s
     } bind def
/RJ {
 stringwidth neg exch neg exch
 rmoveto
} bind def
/CS {
 stringwidth
 2 div neg exch 2 div neg exch
 rmoveto
} bind def
0.24 0.24 scale
1 setlinecap

	mark             
	/ISOLatin1Encoding 
	  8#000 1 8#054 {StandardEncoding exch get} for 
	  /minus 
	  8#056 1 8#217 {StandardEncoding exch get} for 
	  /dotlessi 
	  8#301 1 8#317 {StandardEncoding exch get} for 
	  /space /exclamdown /cent /sterling /currency /yen /brokenbar /section 
	  /dieresis /copyright /ordfeminine /guillemotleft /logicalnot /hyphen 
	  /registered /macron /degree /plusminus /twosuperior /threesuperior /acute 
	  /mu /paragraph /periodcentered /cedilla /onesuperior /ordmasculine 
	  /guillemotright /onequarter /onehalf /threequarters /questiondown /Agrave 
	  /Aacute /Acircumflex /Atilde /Adieresis /Aring /AE /Ccedilla /Egrave /Eacute
	  /Ecircumflex /Edieresis /Igrave /Iacute /Icircumflex /Idieresis /Eth /Ntilde
	  /Ograve /Oacute /Ocircumflex /Otilde /Odieresis /multiply /Oslash /Ugrave 
	  /Uacute /Ucircumflex /Udieresis /Yacute /Thorn /germandbls /agrave /aacute 
	  /acircumflex /atilde /adieresis /aring /ae /ccedilla /egrave /eacute 
	  /ecircumflex /edieresis /igrave /iacute /icircumflex /idieresis /eth /ntilde
	  /ograve /oacute /ocircumflex /otilde /odieresis /divide /oslash /ugrave 
	  /uacute /ucircumflex /udieresis /yacute /thorn /ydieresis 
	  /ISOLatin1Encoding where not {256 array astore def} if 
	 cleartomark 

	/makeISOEncoded 
	{ findfont /curfont exch def 
	  /newfont curfont maxlength dict def  
	  /ISOLatin1 (-ISOLatin1) def
	  /curfontname curfont /FontName get dup length string cvs def 
	  /newfontname curfontname length ISOLatin1 length add string 
    	 dup 0                  curfontname putinterval 
    	 dup curfontname length ISOLatin1   putinterval 
	  def 
	  curfont   
	  { exch dup /FID ne  
    	{ dup /Encoding eq  
    	  { exch pop ISOLatin1Encoding exch }  
    	  if  
    	  dup /FontName eq  
    	  { exch pop newfontname exch }  
    	  if  
    	  exch newfont 3 1 roll put  
    	}  
    	{ pop pop }  
    	ifelse  
	  }  
	  forall 
	  newfontname newfont definefont 
	} def 

	/Times-Roman makeISOEncoded pop 
	/Times-Bold makeISOEncoded pop 
	/Times-Italic makeISOEncoded pop 
	/Times-BoldItalic makeISOEncoded pop 
	/Helvetica makeISOEncoded pop 
	/Helvetica-Bold makeISOEncoded pop 
	/Helvetica-Oblique makeISOEncoded pop 
	/Helvetica-BoldOblique makeISOEncoded pop 
s
0.000000 0.000000 0.000000 setrgbcolor
1 setlinewidth
/Times-Italic-ISOLatin1 findfont 60 scalefont setfont
[] 0 setdash
407 347 m
407 357 l
504 347 m
504 357 l
603 347 m
603 357 l
701 347 m
701 357 l
798 347 m
798 357 l
896 347 m
896 357 l
995 347 m
995 357 l
1093 347 m
1093 357 l
1191 347 m
1191 357 l
1289 347 m
1289 357 l
1386 347 m
1386 357 l
1485 347 m
1485 357 l
1582 347 m
1582 357 l
1680 347 m
1680 357 l
1778 347 m
1778 357 l
1877 347 m
1877 357 l
1974 347 m
1974 357 l
2072 347 m
2072 357 l
407 1736 m
407 1726 l
504 1736 m
504 1726 l
603 1736 m
603 1726 l
701 1736 m
701 1726 l
798 1736 m
798 1726 l
896 1736 m
896 1726 l
995 1736 m
995 1726 l
1093 1736 m
1093 1726 l
1191 1736 m
1191 1726 l
1289 1736 m
1289 1726 l
1386 1736 m
1386 1726 l
1485 1736 m
1485 1726 l
1582 1736 m
1582 1726 l
1680 1736 m
1680 1726 l
1778 1736 m
1778 1726 l
1877 1736 m
1877 1726 l
1974 1736 m
1974 1726 l
2072 1736 m
2072 1726 l
s
504 347 m
504 367 l
896 347 m
896 367 l
1289 347 m
1289 367 l
1680 347 m
1680 367 l
2072 347 m
2072 367 l
504 1736 m
504 1716 l
896 1736 m
896 1716 l
1289 1736 m
1289 1716 l
1680 1736 m
1680 1716 l
2072 1736 m
2072 1716 l
/Times-Italic-ISOLatin1 findfont 60 scalefont setfont
/Helvetica-ISOLatin1 findfont 60 scalefont setfont
s
504 297 m
gsave
504 297 translate
0 rotate
0 -20  m
(0) CS
(0) show
grestore
newpath
896 297 m
gsave
896 297 translate
0 rotate
0 -20  m
(0.02) CS
(0.02) show
grestore
newpath
1289 297 m
gsave
1289 297 translate
0 rotate
0 -20  m
(0.04) CS
(0.04) show
grestore
newpath
1680 297 m
gsave
1680 297 translate
0 rotate
0 -20  m
(0.06) CS
(0.06) show
grestore
newpath
2072 297 m
gsave
2072 297 translate
0 rotate
0 -20  m
(0.08) CS
(0.08) show
grestore
newpath
/Helvetica-ISOLatin1 findfont 60 scalefont setfont
1239 197 m
gsave
1239 197 translate
0 rotate
0 0  m
(amq) CS
(am) show
/Helvetica-ISOLatin1 findfont 35 scalefont setfont
0 -17 rmoveto
(q) show
/Helvetica-ISOLatin1 findfont 60 scalefont setfont
0 17 rmoveto
() show
grestore
newpath
407 347 m
417 347 l
407 403 m
417 403 l
407 458 m
417 458 l
407 514 m
417 514 l
407 569 m
417 569 l
407 625 m
417 625 l
407 680 m
417 680 l
407 736 m
417 736 l
407 792 m
417 792 l
407 847 m
417 847 l
407 903 m
417 903 l
407 958 m
417 958 l
407 1014 m
417 1014 l
407 1069 m
417 1069 l
407 1125 m
417 1125 l
407 1180 m
417 1180 l
407 1236 m
417 1236 l
407 1291 m
417 1291 l
407 1347 m
417 1347 l
407 1403 m
417 1403 l
407 1458 m
417 1458 l
407 1514 m
417 1514 l
407 1569 m
417 1569 l
407 1625 m
417 1625 l
407 1680 m
417 1680 l
407 1736 m
417 1736 l
2072 347 m
2062 347 l
2072 403 m
2062 403 l
2072 458 m
2062 458 l
2072 514 m
2062 514 l
2072 569 m
2062 569 l
2072 625 m
2062 625 l
2072 680 m
2062 680 l
2072 736 m
2062 736 l
2072 792 m
2062 792 l
2072 847 m
2062 847 l
2072 903 m
2062 903 l
2072 958 m
2062 958 l
2072 1014 m
2062 1014 l
2072 1069 m
2062 1069 l
2072 1125 m
2062 1125 l
2072 1180 m
2062 1180 l
2072 1236 m
2062 1236 l
2072 1291 m
2062 1291 l
2072 1347 m
2062 1347 l
2072 1403 m
2062 1403 l
2072 1458 m
2062 1458 l
2072 1514 m
2062 1514 l
2072 1569 m
2062 1569 l
2072 1625 m
2062 1625 l
2072 1680 m
2062 1680 l
2072 1736 m
2062 1736 l
s
407 347 m
427 347 l
407 625 m
427 625 l
407 903 m
427 903 l
407 1180 m
427 1180 l
407 1458 m
427 1458 l
407 1736 m
427 1736 l
2072 347 m
2052 347 l
2072 625 m
2052 625 l
2072 903 m
2052 903 l
2072 1180 m
2052 1180 l
2072 1458 m
2052 1458 l
2072 1736 m
2052 1736 l
/Helvetica-ISOLatin1 findfont 60 scalefont setfont
s
369 347 m
gsave
369 347 translate
0 rotate
0 -20  m
(0.52) RJ
(0.52) show
grestore
newpath
369 625 m
gsave
369 625 translate
0 rotate
0 -20  m
(0.53) RJ
(0.53) show
grestore
newpath
369 903 m
gsave
369 903 translate
0 rotate
0 -20  m
(0.54) RJ
(0.54) show
grestore
newpath
369 1180 m
gsave
369 1180 translate
0 rotate
0 -20  m
(0.55) RJ
(0.55) show
grestore
newpath
369 1458 m
gsave
369 1458 translate
0 rotate
0 -20  m
(0.56) RJ
(0.56) show
grestore
newpath
369 1736 m
gsave
369 1736 translate
0 rotate
0 -20  m
(0.57) RJ
(0.57) show
grestore
newpath
/Helvetica-ISOLatin1 findfont 60 scalefont setfont
196 1041 m
gsave
196 1041 translate
90 rotate
0 0  m
(P) CS
(P) show
grestore
newpath
[20 20] 0 setdash
504 -27790095 m
504 347 m
504 1736 l
s
[] 0 setdash
[] 0 setdash
1475 595 m
1475 599 l
1043 726 m
1043 728 l
775 798 m
775 799 l
695 818 m
695 824 l
615 837 m
615 839 l
s
1465 595 m
1485 595 l
1465 599 m
1485 599 l
1033 726 m
1053 726 l
1033 728 m
1053 728 l
765 798 m
785 798 l
765 799 m
785 799 l
685 818 m
705 818 l
685 824 m
705 824 l
605 837 m
625 837 l
605 839 m
625 839 l
s
/Helvetica-ISOLatin1 findfont 37 scalefont setfont
12 1475 597 fa
12 1043 727 fa
12 775 798 fa
12 695 821 fa
12 615 838 fa
/Helvetica-ISOLatin1 findfont 60 scalefont setfont
[20 20] 0 setdash
504 864 m
518 861 l
532 858 l
546 854 l
559 851 l
573 848 l
587 845 l
601 841 l
614 838 l
628 835 l
642 832 l
655 828 l
669 825 l
683 822 l
697 818 l
710 815 l
724 811 l
738 808 l
751 804 l
765 801 l
779 797 l
793 794 l
806 790 l
820 787 l
834 783 l
848 780 l
861 776 l
875 772 l
889 769 l
902 765 l
916 762 l
930 758 l
944 754 l
957 750 l
971 747 l
985 743 l
998 739 l
1012 735 l
1026 732 l
1040 728 l
1053 724 l
1067 720 l
1081 716 l
1094 712 l
1108 708 l
1122 704 l
1136 700 l
1149 696 l
1163 692 l
1177 688 l
1191 684 l
1204 680 l
1218 676 l
1232 672 l
1245 668 l
1259 664 l
1273 660 l
1287 656 l
1300 652 l
1314 647 l
1328 643 l
1341 639 l
1355 635 l
1369 630 l
1383 626 l
1396 622 l
1410 618 l
1424 613 l
1437 609 l
1451 605 l
1465 600 l
1479 596 l
1492 591 l
1506 587 l
1520 583 l
1533 578 l
1547 574 l
1561 569 l
1575 565 l
1588 560 l
1602 555 l
1616 551 l
1630 546 l
1643 542 l
1657 537 l
1671 532 l
1684 528 l
1698 523 l
1712 518 l
1726 514 l
1739 509 l
1753 504 l
1767 499 l
1780 495 l
1794 490 l
1808 485 l
1822 480 l
1835 475 l
1849 470 l
1863 466 l
s
[] 0 setdash
504 863 m
504 865 l
s
494 863 m
514 863 l
494 865 m
514 865 l
s
504 864 m
/Helvetica-ISOLatin1 findfont 37 scalefont setfont
s
12 504 864 oa
/Helvetica-ISOLatin1 findfont 60 scalefont setfont
[] 0 setdash
1386 867 m
1386 870 l
1063 934 m
1063 935 l
769 989 m
769 990 l
s
1376 867 m
1396 867 l
1376 870 m
1396 870 l
1053 934 m
1073 934 l
1053 935 m
1073 935 l
759 989 m
779 989 l
759 990 m
779 990 l
s
/Helvetica-ISOLatin1 findfont 37 scalefont setfont
10 1386 868 fsq
10 1063 935 fsq
10 769 990 fsq
/Helvetica-ISOLatin1 findfont 60 scalefont setfont
[20 20] 0 setdash
504 1035 m
518 1033 l
532 1031 l
546 1029 l
559 1026 l
573 1024 l
587 1022 l
601 1019 l
614 1017 l
628 1015 l
642 1012 l
655 1010 l
669 1007 l
683 1005 l
697 1003 l
710 1000 l
724 998 l
738 995 l
751 993 l
765 990 l
779 988 l
793 986 l
806 983 l
820 981 l
834 978 l
848 976 l
861 973 l
875 970 l
889 968 l
902 965 l
916 963 l
930 960 l
944 958 l
957 955 l
971 952 l
985 950 l
998 947 l
1012 944 l
1026 942 l
1040 939 l
1053 936 l
1067 934 l
1081 931 l
1094 928 l
1108 926 l
1122 923 l
1136 920 l
1149 917 l
1163 915 l
1177 912 l
1191 909 l
1204 906 l
1218 904 l
1232 901 l
1245 898 l
1259 895 l
1273 892 l
1287 889 l
1300 887 l
1314 884 l
1328 881 l
1341 878 l
1355 875 l
1369 872 l
1383 869 l
1396 866 l
1410 863 l
1424 860 l
1437 857 l
1451 854 l
1465 851 l
1479 849 l
1492 846 l
1506 842 l
1520 839 l
1533 836 l
1547 833 l
1561 830 l
1575 827 l
1588 824 l
1602 821 l
1616 818 l
1630 815 l
1643 812 l
1657 809 l
1671 806 l
1684 802 l
1698 799 l
1712 796 l
1726 793 l
1739 790 l
1753 786 l
1767 783 l
1780 780 l
1794 777 l
1808 774 l
1822 770 l
1835 767 l
1849 764 l
1863 761 l
s
[] 0 setdash
504 1033 m
504 1038 l
s
494 1033 m
514 1033 l
494 1038 m
514 1038 l
s
504 1035 m
/Helvetica-ISOLatin1 findfont 37 scalefont setfont
s
10 504 1035 osq
/Helvetica-ISOLatin1 findfont 60 scalefont setfont
[] 0 setdash
1797 968 m
1797 971 l
1255 1055 m
1255 1057 l
987 1099 m
987 1100 l
774 1131 m
774 1134 l
s
1787 968 m
1807 968 l
1787 971 m
1807 971 l
1245 1055 m
1265 1055 l
1245 1057 m
1265 1057 l
977 1099 m
997 1099 l
977 1100 m
997 1100 l
764 1131 m
784 1131 l
764 1134 m
784 1134 l
s
/Helvetica-ISOLatin1 findfont 40 scalefont setfont
13 1797 969 fdi
13 1255 1056 fdi
13 987 1100 fdi
13 774 1133 fdi
/Helvetica-ISOLatin1 findfont 60 scalefont setfont
[20 20] 0 setdash
504 1177 m
518 1175 l
532 1173 l
546 1170 l
559 1168 l
573 1166 l
587 1164 l
601 1162 l
614 1159 l
628 1157 l
642 1155 l
655 1153 l
669 1150 l
683 1148 l
697 1146 l
710 1144 l
724 1142 l
738 1139 l
751 1137 l
765 1135 l
779 1133 l
793 1131 l
806 1128 l
820 1126 l
834 1124 l
848 1122 l
861 1120 l
875 1117 l
889 1115 l
902 1113 l
916 1111 l
930 1109 l
944 1106 l
957 1104 l
971 1102 l
985 1100 l
998 1098 l
1012 1095 l
1026 1093 l
1040 1091 l
1053 1089 l
1067 1086 l
1081 1084 l
1094 1082 l
1108 1080 l
1122 1078 l
1136 1075 l
1149 1073 l
1163 1071 l
1177 1069 l
1191 1067 l
1204 1064 l
1218 1062 l
1232 1060 l
1245 1058 l
1259 1056 l
1273 1053 l
1287 1051 l
1300 1049 l
1314 1047 l
1328 1045 l
1341 1042 l
1355 1040 l
1369 1038 l
1383 1036 l
1396 1034 l
1410 1031 l
1424 1029 l
1437 1027 l
1451 1025 l
1465 1022 l
1479 1020 l
1492 1018 l
1506 1016 l
1520 1014 l
1533 1011 l
1547 1009 l
1561 1007 l
1575 1005 l
1588 1003 l
1602 1000 l
1616 998 l
1630 996 l
1643 994 l
1657 992 l
1671 989 l
1684 987 l
1698 985 l
1712 983 l
1726 981 l
1739 978 l
1753 976 l
1767 974 l
1780 972 l
1794 970 l
1808 967 l
1822 965 l
1835 963 l
1849 961 l
1863 958 l
s
[] 0 setdash
504 1174 m
504 1180 l
s
494 1174 m
514 1174 l
494 1180 m
514 1180 l
s
504 1177 m
/Helvetica-ISOLatin1 findfont 40 scalefont setfont
s
13 504 1177 odi
/Helvetica-ISOLatin1 findfont 60 scalefont setfont
[] 0 setdash
1402 1430 m
1402 1431 l
1081 1465 m
1081 1465 l
815 1493 m
815 1494 l
s
1392 1430 m
1412 1430 l
1392 1431 m
1412 1431 l
1071 1465 m
1091 1465 l
1071 1465 m
1091 1465 l
805 1493 m
825 1493 l
805 1494 m
825 1494 l
s
/Helvetica-ISOLatin1 findfont 40 scalefont setfont
13 1402 1430 ft1
13 1081 1465 ft1
13 815 1494 ft1
/Helvetica-ISOLatin1 findfont 60 scalefont setfont
[20 20] 0 setdash
504 1528 m
518 1526 l
532 1525 l
546 1523 l
559 1522 l
573 1520 l
587 1519 l
601 1517 l
614 1516 l
628 1514 l
642 1513 l
655 1511 l
669 1510 l
683 1508 l
697 1507 l
710 1505 l
724 1504 l
738 1502 l
751 1501 l
765 1499 l
779 1498 l
793 1496 l
806 1495 l
820 1493 l
834 1492 l
848 1490 l
861 1489 l
875 1487 l
889 1486 l
902 1484 l
916 1483 l
930 1481 l
944 1480 l
957 1478 l
971 1477 l
985 1475 l
998 1474 l
1012 1472 l
1026 1471 l
1040 1469 l
1053 1468 l
1067 1466 l
1081 1465 l
1094 1464 l
1108 1462 l
1122 1461 l
1136 1459 l
1149 1458 l
1163 1456 l
1177 1455 l
1191 1453 l
1204 1452 l
1218 1450 l
1232 1449 l
1245 1447 l
1259 1446 l
1273 1444 l
1287 1443 l
1300 1441 l
1314 1440 l
1328 1438 l
1341 1437 l
1355 1435 l
1369 1434 l
1383 1432 l
1396 1431 l
1410 1430 l
1424 1428 l
1437 1427 l
1451 1425 l
1465 1424 l
1479 1422 l
1492 1421 l
1506 1419 l
1520 1418 l
1533 1416 l
1547 1415 l
1561 1413 l
1575 1412 l
1588 1410 l
1602 1409 l
1616 1407 l
1630 1406 l
1643 1405 l
1657 1403 l
1671 1402 l
1684 1400 l
1698 1399 l
1712 1397 l
1726 1396 l
1739 1394 l
1753 1393 l
1767 1391 l
1780 1390 l
1794 1388 l
1808 1387 l
1822 1385 l
1835 1384 l
1849 1383 l
1863 1381 l
s
[] 0 setdash
504 1526 m
504 1529 l
s
494 1526 m
514 1526 l
494 1529 m
514 1529 l
s
504 1528 m
/Helvetica-ISOLatin1 findfont 40 scalefont setfont
s
13 504 1528 ot1
/Helvetica-ISOLatin1 findfont 60 scalefont setfont
407 347 m
407 1736 l
2072 1736 l
2072 347 l
407 347 l
s
end
showpage
%%Trailer
