%!PS-Adobe-2.0 EPSF-1.2
%%BoundingBox: 29 36 512 425
%%Title: r0lamMSbar_IIP+IIIP_lin_nf2_041221_8para.eps
%%Creator: roger@pub6 with xmgr
%%CreationDate: Tue Dec 21 17:47:08 2004
%%EndComments
80 dict begin
/Pat0 { 0.000000 setgray } def
/Pat1 { 0.062500 setgray } def
/Pat2 { 0.125000 setgray } def
/Pat3 { 0.187500 setgray } def
/Pat4 { 0.250000 setgray } def
/Pat5 { 0.312500 setgray } def
/Pat6 { 0.375000 setgray } def
/Pat7 { 0.437500 setgray } def
/Pat8 { 0.500000 setgray } def
/Pat9 { 0.562500 setgray } def
/Pat10 { 0.625000 setgray } def
/Pat11 { 0.687500 setgray } def
/Pat12 { 0.750000 setgray } def
/Pat13 { 0.812500 setgray } def
/Pat14 { 0.875000 setgray } def
/Pat15 { 0.937500 setgray } def
/setpattern { } def
/m {moveto} bind def
/l {lineto} bind def
/s {stroke} bind def
% Symbol fill
/f { gsave fill grestore stroke } bind def
% Opaque symbol
/o { gsave 1.000000 1.000000 1.000000 setrgbcolor
     fill grestore stroke } bind def
% Circle symbol
/a { 3 -1 roll 0 360 arc } bind def
/da { a s } bind def
/fa { a f } bind def
/oa { a o } bind def
% Square symbol
/sq { moveto dup dup rmoveto 2 mul
      dup neg 0 rlineto dup neg 0 exch rlineto
      0 rlineto closepath } bind def
/dsq { sq s } bind def
/fsq { sq f } bind def
/osq { sq o } bind def
% Triangle symbols
/t1 { moveto dup 0 exch rmoveto
      dup neg dup 2 mul rlineto 2 mul 0 rlineto
      closepath } bind def
/dt1 { t1 s } bind def
/ft1 { t1 f } bind def
/ot1 { t1 o } bind def
/t2 { moveto dup neg 0 rmoveto
      dup dup 2 mul exch neg rlineto
      2 mul 0 exch rlineto closepath } bind def
/dt2 { t2 s } bind def
/ft2 { t2 f } bind def
/ot2 { t2 o } bind def
/t3 { moveto dup neg 0 exch rmoveto
      dup dup 2 mul rlineto neg 2 mul 0 rlineto
      closepath } bind def
/dt3 { t3 s } bind def
/ft3 { t3 f } bind def
/ot3 { t3 o } bind def
/t4 { moveto dup 0 rmoveto
      dup dup -2 mul exch rlineto
      -2 mul 0 exch rlineto closepath } bind def
/dt4 { t4 s } bind def
/ft4 { t4 f } bind def
/ot4 { t4 o } bind def
% Diamond symbol
/di { moveto dup 0 exch rmoveto
      dup neg dup rlineto dup dup neg rlineto
      dup dup rlineto closepath } bind def
/ddi { di s } bind def
/fdi { di f } bind def
/odi { di o } bind def
% Plus symbol
/pl { dup 0 rmoveto dup -2 mul 0 rlineto
      dup dup rmoveto -2 mul 0 exch rlineto
    } bind def
/dpl { m pl s } bind def
% x symbol
/x { dup dup rmoveto dup -2 mul dup rlineto
     2 mul dup 0 rmoveto dup neg exch rlineto
   } bind def
/dx { m x s } bind def
% Splat symbol
/dsp { m dup pl dup 0 exch rmoveto 0.707 mul x s
     } bind def
/RJ {
 stringwidth neg exch neg exch
 rmoveto
} bind def
/CS {
 stringwidth
 2 div neg exch 2 div neg exch
 rmoveto
} bind def
0.24 0.24 scale
1 setlinecap

	mark             
	/ISOLatin1Encoding 
	  8#000 1 8#054 {StandardEncoding exch get} for 
	  /minus 
	  8#056 1 8#217 {StandardEncoding exch get} for 
	  /dotlessi 
	  8#301 1 8#317 {StandardEncoding exch get} for 
	  /space /exclamdown /cent /sterling /currency /yen /brokenbar /section 
	  /dieresis /copyright /ordfeminine /guillemotleft /logicalnot /hyphen 
	  /registered /macron /degree /plusminus /twosuperior /threesuperior /acute 
	  /mu /paragraph /periodcentered /cedilla /onesuperior /ordmasculine 
	  /guillemotright /onequarter /onehalf /threequarters /questiondown /Agrave 
	  /Aacute /Acircumflex /Atilde /Adieresis /Aring /AE /Ccedilla /Egrave /Eacute
	  /Ecircumflex /Edieresis /Igrave /Iacute /Icircumflex /Idieresis /Eth /Ntilde
	  /Ograve /Oacute /Ocircumflex /Otilde /Odieresis /multiply /Oslash /Ugrave 
	  /Uacute /Ucircumflex /Udieresis /Yacute /Thorn /germandbls /agrave /aacute 
	  /acircumflex /atilde /adieresis /aring /ae /ccedilla /egrave /eacute 
	  /ecircumflex /edieresis /igrave /iacute /icircumflex /idieresis /eth /ntilde
	  /ograve /oacute /ocircumflex /otilde /odieresis /divide /oslash /ugrave 
	  /uacute /ucircumflex /udieresis /yacute /thorn /ydieresis 
	  /ISOLatin1Encoding where not {256 array astore def} if 
	 cleartomark 

	/makeISOEncoded 
	{ findfont /curfont exch def 
	  /newfont curfont maxlength dict def  
	  /ISOLatin1 (-ISOLatin1) def
	  /curfontname curfont /FontName get dup length string cvs def 
	  /newfontname curfontname length ISOLatin1 length add string 
    	 dup 0                  curfontname putinterval 
    	 dup curfontname length ISOLatin1   putinterval 
	  def 
	  curfont   
	  { exch dup /FID ne  
    	{ dup /Encoding eq  
    	  { exch pop ISOLatin1Encoding exch }  
    	  if  
    	  dup /FontName eq  
    	  { exch pop newfontname exch }  
    	  if  
    	  exch newfont 3 1 roll put  
    	}  
    	{ pop pop }  
    	ifelse  
	  }  
	  forall 
	  newfontname newfont definefont 
	} def 

	/Times-Roman makeISOEncoded pop 
	/Times-Bold makeISOEncoded pop 
	/Times-Italic makeISOEncoded pop 
	/Times-BoldItalic makeISOEncoded pop 
	/Helvetica makeISOEncoded pop 
	/Helvetica-Bold makeISOEncoded pop 
	/Helvetica-Oblique makeISOEncoded pop 
	/Helvetica-BoldOblique makeISOEncoded pop 
s
0.000000 0.000000 0.000000 setrgbcolor
1 setlinewidth
/Times-Italic-ISOLatin1 findfont 60 scalefont setfont
[] 0 setdash
406 347 m
406 357 l
471 347 m
471 357 l
535 347 m
535 357 l
599 347 m
599 357 l
663 347 m
663 357 l
727 347 m
727 357 l
791 347 m
791 357 l
855 347 m
855 357 l
919 347 m
919 357 l
983 347 m
983 357 l
1047 347 m
1047 357 l
1111 347 m
1111 357 l
1175 347 m
1175 357 l
1239 347 m
1239 357 l
1304 347 m
1304 357 l
1368 347 m
1368 357 l
1432 347 m
1432 357 l
1496 347 m
1496 357 l
1560 347 m
1560 357 l
1624 347 m
1624 357 l
1688 347 m
1688 357 l
1752 347 m
1752 357 l
1816 347 m
1816 357 l
1880 347 m
1880 357 l
1944 347 m
1944 357 l
2008 347 m
2008 357 l
2072 347 m
2072 357 l
406 1736 m
406 1726 l
471 1736 m
471 1726 l
535 1736 m
535 1726 l
599 1736 m
599 1726 l
663 1736 m
663 1726 l
727 1736 m
727 1726 l
791 1736 m
791 1726 l
855 1736 m
855 1726 l
919 1736 m
919 1726 l
983 1736 m
983 1726 l
1047 1736 m
1047 1726 l
1111 1736 m
1111 1726 l
1175 1736 m
1175 1726 l
1239 1736 m
1239 1726 l
1304 1736 m
1304 1726 l
1368 1736 m
1368 1726 l
1432 1736 m
1432 1726 l
1496 1736 m
1496 1726 l
1560 1736 m
1560 1726 l
1624 1736 m
1624 1726 l
1688 1736 m
1688 1726 l
1752 1736 m
1752 1726 l
1816 1736 m
1816 1726 l
1880 1736 m
1880 1726 l
1944 1736 m
1944 1726 l
2008 1736 m
2008 1726 l
2072 1736 m
2072 1726 l
s
471 347 m
471 367 l
791 347 m
791 367 l
1111 347 m
1111 367 l
1432 347 m
1432 367 l
1752 347 m
1752 367 l
2072 347 m
2072 367 l
471 1736 m
471 1716 l
791 1736 m
791 1716 l
1111 1736 m
1111 1716 l
1432 1736 m
1432 1716 l
1752 1736 m
1752 1716 l
2072 1736 m
2072 1716 l
/Times-Italic-ISOLatin1 findfont 60 scalefont setfont
/Helvetica-ISOLatin1 findfont 60 scalefont setfont
s
471 297 m
gsave
471 297 translate
0 rotate
0 -20  m
(0.00) CS
(0.00) show
grestore
newpath
791 297 m
gsave
791 297 translate
0 rotate
0 -20  m
(0.01) CS
(0.01) show
grestore
newpath
1111 297 m
gsave
1111 297 translate
0 rotate
0 -20  m
(0.02) CS
(0.02) show
grestore
newpath
1432 297 m
gsave
1432 297 translate
0 rotate
0 -20  m
(0.03) CS
(0.03) show
grestore
newpath
1752 297 m
gsave
1752 297 translate
0 rotate
0 -20  m
(0.04) CS
(0.04) show
grestore
newpath
2072 297 m
gsave
2072 297 translate
0 rotate
0 -20  m
(0.05) CS
(0.05) show
grestore
newpath
/Helvetica-ISOLatin1 findfont 60 scalefont setfont
1239 197 m
gsave
1239 197 translate
0 rotate
0 0  m
(\(a/r0\)2) CS
(\(a/r) show
/Helvetica-ISOLatin1 findfont 35 scalefont setfont
0 -17 rmoveto
(0) show
/Helvetica-ISOLatin1 findfont 60 scalefont setfont
0 17 rmoveto
(\)) show
/Helvetica-ISOLatin1 findfont 35 scalefont setfont
0 35 rmoveto
(2) show
/Helvetica-ISOLatin1 findfont 60 scalefont setfont
0 -35 rmoveto
() show
grestore
newpath
406 347 m
416 347 l
406 403 m
416 403 l
406 458 m
416 458 l
406 514 m
416 514 l
406 569 m
416 569 l
406 625 m
416 625 l
406 680 m
416 680 l
406 736 m
416 736 l
406 792 m
416 792 l
406 847 m
416 847 l
406 903 m
416 903 l
406 958 m
416 958 l
406 1014 m
416 1014 l
406 1069 m
416 1069 l
406 1125 m
416 1125 l
406 1180 m
416 1180 l
406 1236 m
416 1236 l
406 1291 m
416 1291 l
406 1347 m
416 1347 l
406 1403 m
416 1403 l
406 1458 m
416 1458 l
406 1514 m
416 1514 l
406 1569 m
416 1569 l
406 1625 m
416 1625 l
406 1680 m
416 1680 l
406 1736 m
416 1736 l
2072 347 m
2062 347 l
2072 403 m
2062 403 l
2072 458 m
2062 458 l
2072 514 m
2062 514 l
2072 569 m
2062 569 l
2072 625 m
2062 625 l
2072 680 m
2062 680 l
2072 736 m
2062 736 l
2072 792 m
2062 792 l
2072 847 m
2062 847 l
2072 903 m
2062 903 l
2072 958 m
2062 958 l
2072 1014 m
2062 1014 l
2072 1069 m
2062 1069 l
2072 1125 m
2062 1125 l
2072 1180 m
2062 1180 l
2072 1236 m
2062 1236 l
2072 1291 m
2062 1291 l
2072 1347 m
2062 1347 l
2072 1403 m
2062 1403 l
2072 1458 m
2062 1458 l
2072 1514 m
2062 1514 l
2072 1569 m
2062 1569 l
2072 1625 m
2062 1625 l
2072 1680 m
2062 1680 l
2072 1736 m
2062 1736 l
s
406 347 m
426 347 l
406 625 m
426 625 l
406 903 m
426 903 l
406 1180 m
426 1180 l
406 1458 m
426 1458 l
406 1736 m
426 1736 l
2072 347 m
2052 347 l
2072 625 m
2052 625 l
2072 903 m
2052 903 l
2072 1180 m
2052 1180 l
2072 1458 m
2052 1458 l
2072 1736 m
2052 1736 l
/Helvetica-ISOLatin1 findfont 60 scalefont setfont
s
368 347 m
gsave
368 347 translate
0 rotate
0 -20  m
(0.45) RJ
(0.45) show
grestore
newpath
368 625 m
gsave
368 625 translate
0 rotate
0 -20  m
(0.50) RJ
(0.50) show
grestore
newpath
368 903 m
gsave
368 903 translate
0 rotate
0 -20  m
(0.55) RJ
(0.55) show
grestore
newpath
368 1180 m
gsave
368 1180 translate
0 rotate
0 -20  m
(0.60) RJ
(0.60) show
grestore
newpath
368 1458 m
gsave
368 1458 translate
0 rotate
0 -20  m
(0.65) RJ
(0.65) show
grestore
newpath
368 1736 m
gsave
368 1736 translate
0 rotate
0 -20  m
(0.70) RJ
(0.70) show
grestore
newpath
/Helvetica-ISOLatin1 findfont 60 scalefont setfont
195 1041 m
gsave
195 1041 translate
90 rotate
0 0  m
(r0LMS) CS
(r) show
/Helvetica-ISOLatin1 findfont 35 scalefont setfont
0 -17 rmoveto
(0) show
/Helvetica-ISOLatin1 findfont 60 scalefont setfont
0 17 rmoveto
/Symbol findfont 
60 scalefont
 setfont
(L) show
/Times-Roman-ISOLatin1 findfont 60 scalefont setfont
/Times-Roman-ISOLatin1 findfont 35 scalefont setfont
0 35 rmoveto
(MS) show
grestore
newpath
[20 20] 0 setdash
471 -57704 m
471 347 m
471 1736 l
s
[] 0 setdash
[] 0 setdash
1547 528 m
1547 625 l
1396 609 m
1396 685 l
1290 646 m
1290 737 l
1057 710 m
1057 920 l
s
1538 528 m
1556 528 l
1538 625 m
1556 625 l
1387 609 m
1405 609 l
1387 685 m
1405 685 l
1281 646 m
1299 646 l
1281 737 m
1299 737 l
1048 710 m
1066 710 l
1048 920 m
1066 920 l
s
/Times-Roman-ISOLatin1 findfont 34 scalefont setfont
11 1547 577 fa
11 1396 647 fa
11 1290 691 fa
11 1057 815 fa
/Times-Roman-ISOLatin1 findfont 60 scalefont setfont
[20 20] 0 setdash
471 1080 m
615 1012 l
759 945 l
903 877 l
1047 809 l
1191 742 l
1336 674 l
1480 607 l
1624 539 l
1768 472 l
1912 404 l
s
[] 0 setdash
447 897 m
447 1262 l
s
438 897 m
456 897 l
438 1262 m
456 1262 l
s
447 1080 m
/Times-Roman-ISOLatin1 findfont 43 scalefont setfont
s
14 447 1080 dsp
/Times-Roman-ISOLatin1 findfont 60 scalefont setfont
[] 0 setdash
1547 1216 m
1547 1337 l
1396 1231 m
1396 1323 l
1290 1218 m
1290 1327 l
1057 1160 m
1057 1403 l
s
1538 1216 m
1556 1216 l
1538 1337 m
1556 1337 l
1387 1231 m
1405 1231 l
1387 1323 m
1405 1323 l
1281 1218 m
1299 1218 l
1281 1327 m
1299 1327 l
1048 1160 m
1066 1160 l
1048 1403 m
1066 1403 l
s
/Times-Roman-ISOLatin1 findfont 34 scalefont setfont
11 1547 1276 fa
11 1396 1277 fa
11 1290 1272 fa
11 1057 1281 fa
/Times-Roman-ISOLatin1 findfont 60 scalefont setfont
[20 20] 0 setdash
471 1275 m
615 1275 l
759 1275 l
903 1275 l
1047 1275 l
1191 1276 l
1336 1276 l
1480 1276 l
1624 1276 l
1768 1276 l
1912 1276 l
s
[] 0 setdash
495 1055 m
495 1494 l
s
486 1055 m
504 1055 l
486 1494 m
504 1494 l
s
495 1275 m
/Times-Roman-ISOLatin1 findfont 43 scalefont setfont
s
14 495 1275 dsp
/Times-Roman-ISOLatin1 findfont 60 scalefont setfont
406 347 m
406 1736 l
2072 1736 l
2072 347 l
406 347 l
s
121 1080 m
121 1022 l
s
/Times-Roman-ISOLatin1 findfont 60 scalefont setfont
/Helvetica-ISOLatin1 findfont 60 scalefont setfont
1192 530 m
gsave
1192 530 translate
0 rotate
0 -20  m
(method IIP) show
grestore
newpath
/Helvetica-ISOLatin1 findfont 60 scalefont setfont
/Helvetica-ISOLatin1 findfont 60 scalefont setfont
1192 1418 m
gsave
1192 1418 translate
0 rotate
0 -20  m
(method IIIP) show
grestore
newpath
/Helvetica-ISOLatin1 findfont 60 scalefont setfont
end
showpage
%%Trailer
