%!PS-Adobe-3.0 EPSF-3.0
%%Creator: SM
%%BoundingBox: 18 144 592 718
%%DocumentNeededResources: font Helvetica
%%LanguageLevel: 1
%%Pages: 1
%%EndComments
%%Page: 1 1
 20 dict begin
72 300 div dup scale
1 setlinejoin 0 setlinecap
/Helvetica findfont 55 scalefont setfont 
/B {CS newpath moveto} def
/F {moveto 0 setlinecap} def
/C {CS M 1 1 3 {pop 3 1 roll 255 div} for SET_COLOUR} def
/CS {currentpoint stroke} def
/CF {currentpoint eofill} def
/L {lineto} def /l {rlineto} def /M {moveto} def /m {rmoveto} def
/P {gsave 0 1 rlineto stroke grestore} def
/T {currentlinecap exch 1 setlinecap show setlinecap} def
errordict /nocurrentpoint {pop 0 0 M currentpoint} put
/SET_COLOUR statusdict begin /processcolors where
  {pop processcolors 1 gt} {false} ifelse
  {(setrgbcolor)} {(pop pop pop)} ifelse cvx end def
 80 600 translate
gsave
CS [] 0 setdash M
CS M 1 100 mul 72 div dup setlinewidth
/P [ /gsave cvx 0 5 -1 roll .05 add dup -2 div 0 exch /rmoveto cvx /rlineto cvx /stroke cvx /grestore cvx ] cvx def
 0 0 0 C
CS M 3 100 mul 72 div dup setlinewidth
/P [ /gsave cvx 0 5 -1 roll .05 add dup -2 div 0 exch /rmoveto cvx /rlineto cvx /stroke cvx /grestore cvx ] cvx def
CS [] 0 setdash M
365 328 M 1896 0 l
0 1933 l
365 2261 L
365 328 L
1896 0 l
365 328 M 1896 0 l
523 328 M 0 52 l
 0 0 0 C
-24 -146 m 21 50 m -7 -2 l
-5 -7 l
-2 -12 l
0 -7 l
2 -12 l
5 -8 l
7 -2 l
5 0 l
7 2 l
5 8 l
3 12 l
0 7 l
-3 12 l
-5 7 l
-7 2 l
-5 0 l
-4 -2 l
-3 -2 l
-2 -5 l
-3 -12 l
0 -7 l
3 -12 l
2 -5 l
3 -3 l
4 -2 l
5 0 m 5 2 l
2 3 l
3 5 l
2 12 l
0 7 l
-2 12 l
-3 5 l
-2 2 l
-5 2 l
 0 0 0 C
314 44 m 0 52 l
 0 0 0 C
-24 -146 m 14 41 m 5 2 l
7 7 l
0 -50 l
-2 48 m 0 -48 l
-10 0 m 22 0 l
 0 0 0 C
304 94 m 0 52 l
 0 0 0 C
-24 -146 m 9 41 m 3 -3 l
-3 -2 l
-2 2 l
0 3 l
2 5 l
3 2 l
7 2 l
10 0 l
7 -2 l
2 -2 l
3 -5 l
0 -5 l
-3 -5 l
-7 -5 l
-12 -4 l
-5 -3 l
-5 -5 l
-2 -7 l
0 -7 l
22 50 m 4 -2 l
3 -2 l
2 -5 l
0 -5 l
-2 -5 l
-7 -5 l
-10 -4 l
-12 -17 m 2 2 l
5 0 l
12 -5 l
7 0 l
5 3 l
3 2 l
-27 0 m 12 -7 l
10 0 l
2 2 l
3 5 l
0 5 l
 0 0 0 C
299 82 m 0 52 l
 0 0 0 C
-24 -146 m 9 41 m 3 -3 l
-3 -2 l
-2 2 l
0 3 l
2 5 l
3 2 l
7 2 l
10 0 l
7 -2 l
2 -5 l
0 -7 l
-2 -5 l
-7 -2 l
-7 0 l
7 21 m 5 -2 l
2 -5 l
0 -7 l
-2 -5 l
-5 -2 l
5 -3 l
4 -4 l
3 -5 l
0 -7 l
-3 -5 l
-2 -3 l
-7 -2 l
-10 0 l
-7 2 l
-3 3 l
-2 5 l
0 2 l
2 2 l
3 -2 l
-3 -2 l
27 14 m 2 -7 l
0 -7 l
-2 -5 l
-2 -3 l
-5 -2 l
 0 0 0 C
311 94 m 0 52 l
 0 0 0 C
-24 -146 m 29 46 m 0 -46 l
2 50 m 0 -50 l
0 50 m -26 -36 l
38 0 l
-21 -14 m 16 0 l
 0 0 0 C
302 94 m 0 52 l
 0 0 0 C
-24 -146 m 12 50 m -5 -24 l
5 5 l
7 3 l
7 0 l
8 -3 l
4 -5 l
3 -7 l
0 -5 l
-3 -7 l
-4 -5 l
-8 -2 l
-7 0 l
-7 2 l
-2 3 l
-3 5 l
0 2 l
3 2 l
2 -2 l
-2 -2 l
16 24 m 5 -3 l
5 -5 l
2 -7 l
0 -5 l
-2 -7 l
-5 -5 l
-5 -2 l
-14 50 m 24 0 l
-24 -2 m 12 0 l
12 2 l
 0 0 0 C
365 2261 M 1896 0 l
523 2261 M 0 -51 l
316 51 m 0 -51 l
316 51 m 0 -51 l
316 51 m 0 -51 l
316 51 m 0 -51 l
316 51 m 0 -51 l
365 328 M 0 1933 l
365 328 M 51 0 l
 0 0 0 C
-143 -25 m 21 51 m -7 -3 l
-5 -7 l
-2 -12 l
0 -7 l
2 -12 l
5 -8 l
7 -2 l
5 0 l
7 2 l
5 8 l
3 12 l
0 7 l
-3 12 l
-5 7 l
-7 3 l
-5 0 l
-4 -3 l
-3 -2 l
-2 -5 l
-3 -12 l
0 -7 l
3 -12 l
2 -5 l
3 -3 l
4 -2 l
5 0 m 5 2 l
2 3 l
3 5 l
2 12 l
0 7 l
-2 12 l
-3 5 l
-2 2 l
-5 3 l
 0 0 0 C
66 13 m 25 0 l
-25 39 m 25 0 l
-25 38 m 25 0 l
-25 39 m 25 0 l
-25 38 m 51 0 l
 0 0 0 C
-191 -25 m 12 51 m -5 -24 l
5 5 l
7 2 l
7 0 l
7 -2 l
5 -5 l
3 -7 l
0 -5 l
-3 -8 l
-5 -4 l
-7 -3 l
-7 0 l
-7 3 l
-3 2 l
-2 5 l
0 2 l
2 3 l
3 -3 l
-3 -2 l
17 24 m 5 -2 l
5 -5 l
2 -7 l
0 -5 l
-2 -8 l
-5 -4 l
-5 -3 l
-14 51 m 24 0 l
-24 -3 m 12 0 l
12 3 l
33 0 m -7 -3 l
-5 -7 l
-2 -12 l
0 -7 l
2 -12 l
5 -7 l
7 -3 l
5 0 l
7 3 l
5 7 l
3 12 l
0 7 l
-3 12 l
-5 7 l
-7 3 l
-5 0 l
-4 -3 l
-3 -2 l
-2 -5 l
-3 -12 l
0 -7 l
3 -12 l
2 -5 l
3 -2 l
4 -3 l
5 0 m 5 3 l
2 2 l
3 5 l
2 12 l
0 7 l
-2 12 l
-3 5 l
-2 2 l
-5 3 l
 0 0 0 C
66 13 m 25 0 l
-25 39 m 25 0 l
-25 38 m 25 0 l
-25 39 m 25 0 l
-25 39 m 51 0 l
 0 0 0 C
177 690 M 14 40 m 5 3 l
7 7 l
0 -50 l
-2 48 m 0 -48 l
-10 0 m 22 0 l
33 50 m -7 -2 l
-5 -8 l
-2 -12 l
0 -7 l
2 -12 l
5 -7 l
7 -2 l
5 0 l
7 2 l
5 7 l
3 12 l
0 7 l
-3 12 l
-5 8 l
-7 2 l
-5 0 l
-5 -2 l
-2 -3 l
CS M
-2 -5 l
-3 -12 l
0 -7 l
3 -12 l
2 -5 l
2 -2 l
5 -2 l
5 0 m 5 2 l
2 2 l
3 5 l
2 12 l
0 7 l
-2 12 l
-3 5 l
-2 3 l
-5 2 l
43 0 m -7 -2 l
-5 -8 l
-2 -12 l
0 -7 l
2 -12 l
5 -7 l
7 -2 l
5 0 l
7 2 l
5 7 l
3 12 l
0 7 l
-3 12 l
-5 8 l
-7 2 l
-5 0 l
-4 -2 l
-3 -3 l
-2 -5 l
-3 -12 l
0 -7 l
3 -12 l
2 -5 l
3 -2 l
4 -2 l
5 0 m 5 2 l
2 2 l
3 5 l
2 12 l
0 7 l
-2 12 l
-3 5 l
-2 3 l
-5 2 l
 0 0 0 C
66 13 m 25 0 l
-25 39 m 25 0 l
-25 39 m 25 0 l
-25 38 m 25 0 l
-25 39 m 51 0 l
 0 0 0 C
177 883 M 14 41 m 5 2 l
7 7 l
0 -50 l
-2 48 m 0 -48 l
-10 0 m 22 0 l
24 50 m -5 -24 l
5 5 l
7 3 l
7 0 l
7 -3 l
5 -5 l
3 -7 l
0 -5 l
-3 -7 l
-5 -5 l
-7 -2 l
-7 0 l
-7 2 l
-3 3 l
-2 4 l
0 3 l
2 2 l
3 -2 l
-3 -3 l
17 25 m 5 -3 l
5 -5 l
2 -7 l
0 -5 l
-2 -7 l
-5 -5 l
-5 -2 l
-14 50 m 24 0 l
-24 -2 m 12 0 l
12 2 l
33 0 m -7 -2 l
-5 -7 l
-2 -12 l
0 -8 l
2 -12 l
5 -7 l
7 -2 l
5 0 l
7 2 l
5 7 l
3 12 l
0 8 l
-3 12 l
-5 7 l
-7 2 l
-5 0 l
-4 -2 l
-3 -2 l
-2 -5 l
-3 -12 l
0 -8 l
3 -12 l
2 -4 l
3 -3 l
4 -2 l
5 0 m 5 2 l
2 3 l
3 4 l
2 12 l
0 8 l
-2 12 l
-3 5 l
-2 2 l
-5 2 l
 0 0 0 C
66 14 m 25 0 l
-25 38 m 25 0 l
-25 39 m 25 0 l
-25 39 m 25 0 l
-25 38 m 51 0 l
 0 0 0 C
177 1076 M 9 41 m 3 -2 l
-3 -3 l
-2 3 l
0 2 l
2 5 l
3 2 l
7 3 l
9 0 l
8 -3 l
2 -2 l
2 -5 l
0 -5 l
-2 -5 l
-7 -4 l
-12 -5 l
-5 -3 l
-5 -4 l
-2 -8 l
0 -7 l
21 51 m 5 -3 l
3 -2 l
2 -5 l
0 -5 l
-2 -5 l
-8 -4 l
-9 -5 l
-12 -17 m 2 2 l
5 0 l
12 -4 l
7 0 l
5 2 l
2 2 l
-26 0 m 12 -7 l
10 0 l
2 3 l
2 4 l
0 5 l
29 39 m -7 -3 l
-5 -7 l
-2 -12 l
0 -7 l
2 -12 l
5 -7 l
7 -3 l
5 0 l
7 3 l
5 7 l
3 12 l
0 7 l
-3 12 l
-5 7 l
-7 3 l
-5 0 l
-5 -3 l
-2 -2 l
-2 -5 l
-3 -12 l
0 -7 l
3 -12 l
2 -5 l
2 -2 l
5 -3 l
5 0 m 5 3 l
2 2 l
3 5 l
2 12 l
0 7 l
-2 12 l
-3 5 l
-2 2 l
-5 3 l
43 0 m -7 -3 l
-5 -7 l
-2 -12 l
0 -7 l
2 -12 l
5 -7 l
7 -3 l
5 0 l
7 3 l
5 7 l
3 12 l
0 7 l
-3 12 l
-5 7 l
-7 3 l
-5 0 l
-4 -3 l
-3 -2 l
-2 -5 l
-3 -12 l
0 -7 l
3 -12 l
2 -5 l
3 -2 l
4 -3 l
5 0 m 5 3 l
2 2 l
3 5 l
2 12 l
0 7 l
-2 12 l
-3 5 l
-2 2 l
-5 3 l
 0 0 0 C
66 13 m 25 0 l
-25 39 m 25 0 l
-25 38 m 25 0 l
-25 39 m 25 0 l
-25 39 m 51 0 l
 0 0 0 C
177 1269 M 9 41 m 3 -2 l
-3 -3 l
-2 3 l
0 2 l
2 5 l
3 3 l
7 2 l
9 0 l
8 -2 l
2 -3 l
2 -5 l
0 -5 l
-2 -4 l
-7 -5 l
-12 -5 l
-5 -2 l
-5 -5 l
-2 -7 l
0 -8 l
21 51 m 5 -2 l
3 -3 l
2 -5 l
0 -5 l
-2 -4 l
-8 -5 l
-9 -5 l
-12 -17 m 2 3 l
5 0 l
12 -5 l
7 0 l
5 2 l
2 3 l
-26 0 m 12 -8 l
10 0 l
2 3 l
2 5 l
0 4 l
20 39 m -5 -24 l
5 5 l
7 2 l
7 0 l
7 -2 l
5 -5 l
3 -7 l
0 -5 l
-3 -7 l
-5 -5 l
-7 -3 l
-7 0 l
-7 3 l
-3 2 l
-2 5 l
0 2 l
2 3 l
3 -3 l
-3 -2 l
17 24 m 5 -2 l
5 -5 l
2 -7 l
0 -5 l
-2 -7 l
-5 -5 l
CS M
-5 -3 l
-14 51 m 24 0 l
-24 -2 m 12 0 l
12 2 l
33 0 m -7 -2 l
-5 -8 l
-2 -12 l
0 -7 l
2 -12 l
5 -7 l
7 -3 l
5 0 l
7 3 l
5 7 l
3 12 l
0 7 l
-3 12 l
-5 8 l
-7 2 l
-5 0 l
-4 -2 l
-3 -3 l
-2 -5 l
-3 -12 l
0 -7 l
3 -12 l
2 -5 l
3 -2 l
4 -3 l
5 0 m 5 3 l
2 2 l
3 5 l
2 12 l
0 7 l
-2 12 l
-3 5 l
-2 3 l
-5 2 l
 0 0 0 C
66 13 m 25 0 l
-25 39 m 25 0 l
-25 39 m 25 0 l
-25 38 m 25 0 l
-25 39 m 51 0 l
 0 0 0 C
177 1463 M 9 41 m 3 -3 l
-3 -2 l
-2 2 l
0 3 l
2 4 l
3 3 l
7 2 l
9 0 l
8 -2 l
2 -5 l
0 -7 l
-2 -5 l
-8 -3 l
-7 0 l
7 22 m 5 -2 l
3 -5 l
0 -7 l
-3 -5 l
-5 -3 l
5 -2 l
5 -5 l
2 -5 l
0 -7 l
-2 -5 l
-2 -2 l
-8 -2 l
-9 0 l
-7 2 l
-3 2 l
-2 5 l
0 3 l
2 2 l
3 -2 l
-3 -3 l
27 15 m 2 -8 l
0 -7 l
-2 -5 l
-3 -2 l
-5 -2 l
41 50 m -7 -2 l
-5 -7 l
-2 -13 l
0 -7 l
2 -12 l
5 -7 l
7 -2 l
5 0 l
7 2 l
5 7 l
3 12 l
0 7 l
-3 13 l
-5 7 l
-7 2 l
-5 0 l
-5 -2 l
-2 -3 l
-2 -4 l
-3 -13 l
0 -7 l
3 -12 l
2 -5 l
2 -2 l
5 -2 l
5 0 m 5 2 l
2 2 l
3 5 l
2 12 l
0 7 l
-2 13 l
-3 4 l
-2 3 l
-5 2 l
43 0 m -7 -2 l
-5 -7 l
-2 -13 l
0 -7 l
2 -12 l
5 -7 l
7 -2 l
5 0 l
7 2 l
5 7 l
3 12 l
0 7 l
-3 13 l
-5 7 l
-7 2 l
-5 0 l
-4 -2 l
-3 -3 l
-2 -4 l
-3 -13 l
0 -7 l
3 -12 l
2 -5 l
3 -2 l
4 -2 l
5 0 m 5 2 l
2 2 l
3 5 l
2 12 l
0 7 l
-2 13 l
-3 4 l
-2 3 l
-5 2 l
 0 0 0 C
66 14 m 25 0 l
-25 38 m 25 0 l
-25 39 m 25 0 l
-25 39 m 25 0 l
-25 38 m 51 0 l
 0 0 0 C
177 1656 M 9 41 m 3 -3 l
-3 -2 l
-2 2 l
0 3 l
2 5 l
3 2 l
7 2 l
9 0 l
8 -2 l
2 -5 l
0 -7 l
-2 -5 l
-8 -2 l
-7 0 l
7 21 m 5 -2 l
3 -5 l
0 -7 l
-3 -5 l
-5 -2 l
5 -3 l
5 -4 l
2 -5 l
0 -7 l
-2 -5 l
-2 -3 l
-8 -2 l
-9 0 l
-7 2 l
-3 3 l
-2 5 l
0 2 l
2 2 l
3 -2 l
-3 -2 l
27 14 m 2 -7 l
0 -7 l
-2 -5 l
-3 -3 l
-5 -2 l
32 50 m -5 -24 l
5 5 l
7 3 l
7 0 l
7 -3 l
5 -5 l
3 -7 l
0 -5 l
-3 -7 l
-5 -5 l
-7 -2 l
-7 0 l
-7 2 l
-3 3 l
-2 5 l
0 2 l
2 2 l
3 -2 l
-3 -2 l
17 24 m 5 -3 l
5 -5 l
2 -7 l
0 -5 l
-2 -7 l
-5 -5 l
-5 -2 l
-14 50 m 24 0 l
-24 -2 m 12 0 l
12 2 l
33 0 m -7 -2 l
-5 -7 l
-2 -12 l
0 -7 l
2 -12 l
5 -8 l
7 -2 l
5 0 l
7 2 l
5 8 l
3 12 l
0 7 l
-3 12 l
-5 7 l
-7 2 l
-5 0 l
-4 -2 l
-3 -2 l
-2 -5 l
-3 -12 l
0 -7 l
3 -12 l
2 -5 l
3 -3 l
4 -2 l
5 0 m 5 2 l
2 3 l
3 5 l
2 12 l
0 7 l
-2 12 l
-3 5 l
-2 2 l
-5 2 l
 0 0 0 C
66 14 m 25 0 l
-25 39 m 25 0 l
-25 38 m 25 0 l
-25 39 m 25 0 l
-25 38 m 51 0 l
 0 0 0 C
177 1849 M 28 46 m 0 -46 l
3 51 m 0 -51 l
0 51 m -27 -36 l
39 0 l
-22 -15 m 17 0 l
31 51 m -7 -3 l
-5 -7 l
-2 -12 l
0 -7 l
2 -12 l
5 -7 l
7 -3 l
5 0 l
7 3 l
5 7 l
3 12 l
0 7 l
-3 12 l
-5 7 l
-7 3 l
-5 0 l
-5 -3 l
-2 -2 l
-2 -5 l
-3 -12 l
0 -7 l
3 -12 l
2 -5 l
2 -2 l
5 -3 l
5 0 m 5 3 l
2 2 l
3 5 l
2 12 l
0 7 l
-2 12 l
-3 5 l
-2 2 l
CS M
-5 3 l
43 0 m -7 -3 l
-5 -7 l
-2 -12 l
0 -7 l
2 -12 l
5 -7 l
7 -3 l
5 0 l
7 3 l
5 7 l
3 12 l
0 7 l
-3 12 l
-5 7 l
-7 3 l
-5 0 l
-4 -3 l
-3 -2 l
-2 -5 l
-3 -12 l
0 -7 l
3 -12 l
2 -5 l
3 -2 l
4 -3 l
5 0 m 5 3 l
2 2 l
3 5 l
2 12 l
0 7 l
-2 12 l
-3 5 l
-2 2 l
-5 3 l
 0 0 0 C
66 13 m 25 0 l
-25 39 m 25 0 l
-25 38 m 25 0 l
-25 39 m 25 0 l
-25 39 m 51 0 l
 0 0 0 C
177 2042 M 28 46 m 0 -46 l
3 51 m 0 -51 l
0 51 m -27 -36 l
39 0 l
-22 -15 m 17 0 l
22 51 m -5 -24 l
5 5 l
7 2 l
7 0 l
7 -2 l
5 -5 l
3 -7 l
0 -5 l
-3 -7 l
-5 -5 l
-7 -3 l
-7 0 l
-7 3 l
-3 2 l
-2 5 l
0 2 l
2 3 l
3 -3 l
-3 -2 l
17 24 m 5 -2 l
5 -5 l
2 -7 l
0 -5 l
-2 -7 l
-5 -5 l
-5 -3 l
-14 51 m 24 0 l
-24 -2 m 12 0 l
12 2 l
33 0 m -7 -2 l
-5 -8 l
-2 -12 l
0 -7 l
2 -12 l
5 -7 l
7 -3 l
5 0 l
7 3 l
5 7 l
3 12 l
0 7 l
-3 12 l
-5 8 l
-7 2 l
-5 0 l
-4 -2 l
-3 -3 l
-2 -5 l
-3 -12 l
0 -7 l
3 -12 l
2 -5 l
3 -2 l
4 -3 l
5 0 m 5 3 l
2 2 l
3 5 l
2 12 l
0 7 l
-2 12 l
-3 5 l
-2 3 l
-5 2 l
 0 0 0 C
66 13 m 25 0 l
-25 39 m 25 0 l
-25 39 m 25 0 l
-25 38 m 25 0 l
-25 39 m 51 0 l
 0 0 0 C
177 2236 M 12 50 m -5 -24 l
5 5 l
7 2 l
7 0 l
7 -2 l
5 -5 l
2 -7 l
0 -5 l
-2 -7 l
-5 -5 l
-7 -2 l
-7 0 l
-7 2 l
-3 3 l
-2 4 l
0 3 l
2 2 l
3 -2 l
-3 -3 l
17 24 m 5 -2 l
5 -5 l
2 -7 l
0 -5 l
-2 -7 l
-5 -5 l
-5 -2 l
-14 50 m 24 0 l
-24 -2 m 12 0 l
12 2 l
33 0 m -7 -2 l
-5 -7 l
-2 -12 l
0 -8 l
2 -12 l
5 -7 l
7 -2 l
5 0 l
7 2 l
5 7 l
3 12 l
0 8 l
-3 12 l
-5 7 l
-7 2 l
-5 0 l
-5 -2 l
-2 -3 l
-2 -4 l
-3 -12 l
0 -8 l
3 -12 l
2 -4 l
2 -3 l
5 -2 l
5 0 m 5 2 l
2 3 l
3 4 l
2 12 l
0 8 l
-2 12 l
-3 4 l
-2 3 l
-5 2 l
43 0 m -7 -2 l
-5 -7 l
-2 -12 l
0 -8 l
2 -12 l
5 -7 l
7 -2 l
5 0 l
7 2 l
5 7 l
3 12 l
0 8 l
-3 12 l
-5 7 l
-7 2 l
-5 0 l
-4 -2 l
-3 -3 l
-2 -4 l
-3 -12 l
0 -8 l
3 -12 l
2 -4 l
3 -3 l
4 -2 l
5 0 m 5 2 l
2 3 l
3 4 l
2 12 l
0 8 l
-2 12 l
-3 4 l
-2 3 l
-5 2 l
 0 0 0 C
2261 328 M 0 1933 l
2261 328 M -51 0 l
51 39 m -26 0 l
26 39 m -26 0 l
26 38 m -26 0 l
26 39 m -26 0 l
26 38 m -51 0 l
51 39 m -26 0 l
26 39 m -26 0 l
26 38 m -26 0 l
26 39 m -26 0 l
26 39 m -51 0 l
51 38 m -26 0 l
26 39 m -26 0 l
26 39 m -26 0 l
26 38 m -26 0 l
26 39 m -51 0 l
51 39 m -26 0 l
26 38 m -26 0 l
26 39 m -26 0 l
26 39 m -26 0 l
26 38 m -51 0 l
51 39 m -26 0 l
26 39 m -26 0 l
26 38 m -26 0 l
26 39 m -26 0 l
26 39 m -51 0 l
51 38 m -26 0 l
26 39 m -26 0 l
26 39 m -26 0 l
26 38 m -26 0 l
26 39 m -51 0 l
51 39 m -26 0 l
26 38 m -26 0 l
26 39 m -26 0 l
26 39 m -26 0 l
26 38 m -51 0 l
51 39 m -26 0 l
26 39 m -26 0 l
26 38 m -26 0 l
26 39 m -26 0 l
26 38 m -51 0 l
51 39 m -26 0 l
26 39 m -26 0 l
26 38 m -26 0 l
26 39 m -26 0 l
26 39 m -51 0 l
51 38 m -26 0 l
26 39 m -26 0 l
26 39 m -26 0 l
26 38 m -26 0 l
26 39 m -51 0 l
CS [] 0 setdash M
CS [] 0 setdash M
 0 0 0 C
1253 105 M 20 56 m 0 -56 l
4 56 m 0 -56 l
0 44 m 8 8 l
12 4 l
8 0 l
12 -4 l
4 -8 l
0 -44 l
-16 56 m 8 -4 l
4 -8 l
0 -44 l
-56 56 m 16 0 l
-16 -56 m 28 0 l
16 0 m 28 0 l
32 9 m -2 -2 l
2 -2 l
3 2 l
0 2 l
-3 3 l
-4 0 l
-5 -3 l
-3 -4 l
0 -44 l
8 51 m -3 -3 l
-2 -4 l
0 -44 l
-10 34 m 19 0 l
-19 -34 m 17 0 l
 0 0 0 C
CS [] 0 setdash M
CS [] 0 setdash M
 0 0 0 C
 0 0 0 C
 0 0 0 C
 0 0 0 C
 0 0 0 C
108 984 M 23 1024 M 85 -28 l
23 1024 M 85 28 l
35 1024 M 73 24 l
0 -60 m 0 24 l
0 24 m 0 24 l
 0 0 0 C
CS [] 0 setdash M
2 1064 M 0 109 l
CS [] 0 setdash M
 0 0 0 C
19 1076 M 50 0 l
19 1078 M 43 15 l
19 1076 M 50 17 l
19 1110 M 50 -17 l
CS M
19 1110 M 50 0 l
19 1112 M 50 0 l
19 1069 M 0 9 l
0 32 m 0 9 l
50 -50 m 0 14 l
0 19 m 0 17 l
26 1163 M -7 2 l
14 0 l
-7 -2 l
-5 -5 l
-2 -7 l
0 -8 l
2 -7 l
5 -5 l
5 0 l
4 3 l
3 2 l
2 5 l
5 14 l
2 5 l
5 5 l
-21 -34 m 4 5 l
3 5 l
5 14 l
2 5 l
2 3 l
5 2 l
10 0 l
5 -5 l
2 -7 l
0 -7 l
-2 -7 l
-5 -5 l
-7 -3 l
14 0 l
-7 3 l
 0 0 0 C
 0 0 0 C
7 1252 M 129 0 l
7 1256 M 129 0 l
7 1252 M 0 29 l
129 -29 m 0 28 l
23 1313 M 85 0 l
23 1317 M 73 24 l
23 1313 M 85 28 l
23 1369 M 85 -28 l
23 1369 M 85 0 l
23 1373 M 85 0 l
23 1301 M 0 16 l
0 52 m 0 16 l
85 -84 m 0 24 l
0 32 m 0 28 l
-33 24 m 0 48 l
-8 0 l
-8 -4 l
-4 -4 l
-4 -8 l
0 -12 l
4 -12 l
8 -8 l
12 -4 l
9 0 l
12 4 l
8 8 l
4 12 l
0 8 l
-4 12 l
-8 8 l
-21 -4 m -12 0 l
-8 -4 l
-4 -20 m 4 -8 l
8 -8 l
12 -4 l
9 0 l
12 4 l
8 8 l
4 8 l
23 1481 M 85 28 l
23 1485 M 73 24 l
23 1537 M 85 -28 l
23 1473 M 0 24 l
0 24 m 0 24 l
7 1585 M 129 0 l
7 1589 M 129 0 l
7 1561 M 0 28 l
129 -28 m 0 28 l
 0 0 0 C
CS [] 0 setdash M
523 1329 M 0 82 l
28 0 m -56 0 l
28 -82 m 0 -81 l
28 0 m -56 0 l
 0 0 0 C
28 81 m B
4 -27 m 535 1304 L
542 1309 L
547 1315 L
550 1323 L
551 1332 L
549 1340 L
545 1347 L
538 1353 L
531 1356 L
523 1357 L
514 1356 L
507 1353 L
501 1347 L
497 1340 L
495 1332 L
495 1323 L
498 1315 L
504 1309 L
511 1304 L
518 1302 L
527 1302 L
CF M
-4 27 m 0 4 l
28 0 m -56 0 l
28 -4 m 0 -3 l
28 0 m -56 -1 l
660 12 m 0 166 l
28 0 m -56 0 l
28 -166 m 0 -166 l
28 0 m -56 0 l
 0 0 0 C
28 166 m B
4 -28 m 1167 1312 L
1174 1317 L
1179 1323 L
1182 1331 L
1183 1339 L
1181 1347 L
1177 1355 L
1171 1360 L
1163 1364 L
1155 1365 L
1147 1364 L
1139 1360 L
1133 1355 L
1129 1347 L
1127 1339 L
1128 1331 L
1131 1323 L
1136 1317 L
1143 1312 L
1151 1309 L
1159 1309 L
CF M
-4 28 m 0 66 l
28 0 m -56 0 l
28 -66 m 0 -66 l
28 0 m -56 0 l
312 62 m 0 147 l
28 0 m -56 0 l
28 -147 m 0 -147 l
28 0 m -56 0 l
28 147 m 4 -27 m 8 2 l
7 5 l
5 6 l
4 8 l
0 8 l
-2 8 l
-4 8 l
-6 5 l
-7 4 l
-9 1 l
-8 -1 l
-8 -4 l
-6 -5 l
-4 -8 l
-2 -8 l
1 -8 l
3 -8 l
5 -6 l
7 -5 l
8 -2 l
8 0 l
-4 27 m 0 47 l
28 0 m -56 0 l
28 -47 m 0 -46 l
28 0 m -56 0 l
 0 0 0 C
92 340 m 24 -14 m -24 42 l
-25 -42 l
49 0 l
-24 14 m 0 162 l
28 0 m -57 0 l
29 -162 m 0 -147 l
28 0 m -57 0 l
345 -15 m 24 -14 m -24 42 l
-25 -42 l
49 0 l
-24 14 m 0 158 l
28 0 m -56 0 l
28 -158 m 0 -151 l
28 0 m -56 0 l
312 -174 m B
24 -14 m 2103 1168 L
2079 1126 L
2127 1126 L
CF M
-24 14 m 0 131 l
28 0 m -56 0 l
28 -131 m 0 -116 l
28 0 m -56 0 l
-320 182 m B
20 -20 m 1775 1226 L
1735 1226 L
1735 1186 L
1775 1186 L
CF M
-20 20 m 0 116 l
28 0 m -56 0 l
28 -116 m 0 -116 l
28 0 m -56 0 l
stroke
grestore
showpage
end
%%Trailer
%%EOF
