%!PS-Adobe-3.0 EPSF-3.0
%%Creator: GTVIRT 1.1 GILDAS_GROUP 28-Jul-1995
%%Title: Hardcopy GTVIRT metacode on PostScript driver
%%CreationDate: 01-DEC-2004 21:21:08
%%Pages: 1
%%DocumentsFonts: none
%%Orientation: Landscape
%%BoundingBox:        77       30      556      770
%%GregPage:           18.425          17.008         574.016         810.709
%%EndComments
%begin(plot)
% Will remember original state
save
% use a temporary dictionary
50 dict begin
%START GAG_PS_HEADER
/m {stroke moveto} bind def
/l {lineto} bind def
/s {stroke} bind def
/S {currentpoint stroke moveto} bind def
/NP {newpath} bind def
/CPF {closepath fill} bind def
/PenSelect { GAG_pensize mod 3 mul GAG_Pen exch 3 getinterval
 aload pop setrgbcolor } bind def
/PS { grestore GAG_pensize mod 3 mul GAG_Pen exch 3 getinterval
 aload pop setrgbcolor gsave} bind def
/FillSelect { GAG_fillsize mod 3 mul GAG_Fill exch 3 getinterval
 aload pop setrgbcolor } bind def
/FS { grestore GAG_fillsize mod 3 mul GAG_Fill exch 3 getinterval
 aload pop setrgbcolor gsave } bind def
/WS { grestore setlinewidth gsave} bind def
/DS { grestore 0 setdash 1 setlinecap 1 setlinejoin gsave } bind def
% For oldies that do not know colorimage operator
/colorimage where   % is known?
{pop}               % Yes: pop off the dictionary returned
  {                 % no:  define colorimage
  /picstr 32 string def    % implies that image was written as 96Z2.2 !
  /RGBpicstr 96 string def % idem...
  /CopyStr {currentfile picstr readhexstring pop} def
  /CopyRGBStr {currentfile RGBpicstr readhexstring pop} def
  /colorimage
  {                  % def
   pop pop pop       % remove '{readhex...} false 3' operands
   { CopyRGBStr pop
     0 1 31
    { picstr exch
      dup
      RGBpicstr exch 3 mul 3 getinterval {cvr 255 div} forall 0.11 mul exch
      0.59 mul add exch 0.3 mul add 255 mul cvi put
    } for
  picstr } image
  } bind def
 } ifelse          % end of 'false' case
%End GAG_PS_HEADER
/GAG_pensize 8 def
/GAG_Pen GAG_pensize 3 mul array def
  0.0   0.0   0.0
  0.420 0.420 0.420
  0.700 0.700 0.700
  0.140 0.140 0.140
  0.280 0.280 0.280
  0.560 0.560 0.560
  0.840 0.840 0.840
  1.0   1.0   1.0
GAG_Pen astore pop
/GAG_fillsize  16 def
/GAG_Fill GAG_fillsize 3 mul array def 
0.9844 0.9844 0.9844
0.9558 0.9558 0.9558
0.9188 0.9188 0.9188
0.8750 0.8750 0.8750
0.8253 0.8253 0.8253
0.7704 0.7704 0.7704
0.7106 0.7106 0.7106
0.6464 0.6464 0.6464
0.5781 0.5781 0.5781
0.5059 0.5059 0.5059
0.4300 0.4300 0.4300
0.3505 0.3505 0.3505
0.2676 0.2676 0.2676
0.1815 0.1815 0.1815
0.0923 0.0923 0.0923
0.0000 0.0000 0.0000
GAG_Fill astore pop
  18.425  17.008 translate 
 0.132283464074  0.132283464074 scale
%%EndProlog
%%Page: 1 1
gsave
[] DS 
 3.00 WS
 0 PS 
3700 5600 m 3700 800 l 3640 800 l 3700 1120 m 3670 1120 l 3700 1440 m 
3670 1440 l 3700 1759 m 3670 1759 l 3700 2080 m 3670 2080 l 3700 2400 m 
3640 2400 l 3700 2720 m 3670 2720 l 3700 3040 m 3670 3040 l 3700 3359 m 
3670 3359 l 3700 3680 m 3670 3680 l 3700 4000 m 3640 4000 l 3700 4319 m 
3670 4319 l 3700 4640 m 3670 4640 l 3700 4960 m 3670 4960 l 3700 5280 m 
3670 5280 l 3700 5600 m 3640 5600 l 500 5600 m 500 800 l 559 800 l 
500 1120 m 529 1120 l 500 1440 m 529 1440 l 500 1759 m 529 1759 l 
500 2080 m 529 2080 l 500 2400 m 559 2400 l 500 2720 m 529 2720 l 
500 3040 m 529 3040 l 500 3359 m 529 3359 l 500 3680 m 529 3680 l 
500 4000 m 559 4000 l 500 4319 m 529 4319 l 500 4640 m 529 4640 l 
500 4960 m 529 4960 l 500 5280 m 529 5280 l 500 5600 m 559 5600 l 
500 5600 m 3700 5600 l 3700 5540 l 3540 5600 m 3540 5570 l 3380 5600 m 
3380 5570 l 3220 5600 m 3220 5570 l 3060 5600 m 3060 5570 l 2900 5600 m 
2900 5540 l 2740 5600 m 2740 5570 l 2580 5600 m 2580 5570 l 2420 5600 m 
2420 5570 l 2260 5600 m 2260 5570 l 2100 5600 m 2100 5540 l 1940 5600 m 
1940 5570 l 1780 5600 m 1780 5570 l 1620 5600 m 1620 5570 l 1460 5600 m 
1460 5570 l 1300 5600 m 1300 5540 l 1140 5600 m 1140 5570 l 980 5600 m 
980 5570 l 820 5600 m 820 5570 l 659 5600 m 659 5570 l 500 5600 m 
500 5540 l 500 800 m 3700 800 l 3700 860 l 3540 800 m 3540 830 l 
3380 800 m 3380 830 l 3220 800 m 3220 830 l 3060 800 m 3060 830 l 
2900 800 m 2900 860 l 2740 800 m 2740 830 l 2580 800 m 2580 830 l 
2420 800 m 2420 830 l 2260 800 m 2260 830 l 2100 800 m 2100 860 l 
1940 800 m 1940 830 l 1780 800 m 1780 830 l 1620 800 m 1620 830 l 
1460 800 m 1460 830 l 1300 800 m 1300 860 l 1140 800 m 1140 830 l 
980 800 m 980 830 l 820 800 m 820 830 l 659 800 m 659 830 l 500 800 m 
500 860 l 3645 441 m 3649 427 l 3663 418 l 3686 413 l 3700 413 l 3722 418 l 
3736 427 l 3741 441 l 3741 450 l 3736 464 l 3722 473 l 3700 477 l 
3686 477 l 3663 473 l 3649 464 l 3645 450 l 3645 441 l 3649 431 l 
3654 427 l 3663 422 l 3686 418 l 3700 418 l 3722 422 l 3732 427 l 
3736 431 l 3741 441 l 3741 450 m 3736 459 l 3732 464 l 3722 468 l 
3700 473 l 3686 473 l 3663 468 l 3654 464 l 3649 459 l 3645 450 l 
3732 514 m 3736 509 l 3741 514 l 3736 518 l 3732 514 l 3645 573 m 
3649 560 l 3658 555 l 3672 555 l 3681 560 l 3686 573 l 3686 592 l 
3681 605 l 3672 610 l 3658 610 l 3649 605 l 3645 592 l 3645 573 l 
3649 564 l 3658 560 l 3672 560 l 3681 564 l 3686 573 l 3686 592 m 
3681 601 l 3672 605 l 3658 605 l 3649 601 l 3645 592 l 3686 573 m 
3690 560 l 3695 555 l 3704 550 l 3722 550 l 3732 555 l 3736 560 l 
3741 573 l 3741 592 l 3736 605 l 3732 610 l 3722 614 l 3704 614 l 
3695 610 l 3690 605 l 3686 592 l 3686 573 m 3690 564 l 3695 560 l 
3704 555 l 3722 555 l 3732 560 l 3736 564 l 3741 573 l 3741 592 m 
3736 601 l 3732 605 l 3722 610 l 3704 610 l 3695 605 l 3690 601 l 
3686 592 l 3645 651 m 3690 642 l 3681 651 l 3677 665 l 3677 678 l 
3681 692 l 3690 701 l 3704 706 l 3713 706 l 3727 701 l 3736 692 l 
3741 678 l 3741 665 l 3736 651 l 3732 646 l 3722 642 l 3718 642 l 
3713 646 l 3718 651 l 3722 646 l 3677 678 m 3681 688 l 3690 697 l 
3704 701 l 3713 701 l 3727 697 l 3736 688 l 3741 678 l 3645 651 m 
3645 697 l 3649 651 m 3649 674 l 3645 697 l 2845 532 m 2849 518 l 
2863 509 l 2886 505 l 2900 505 l 2922 509 l 2936 518 l 2941 532 l 
2941 541 l 2936 555 l 2922 564 l 2900 569 l 2886 569 l 2863 564 l 
2849 555 l 2845 541 l 2845 532 l 2849 523 l 2854 518 l 2863 514 l 
2886 509 l 2900 509 l 2922 514 l 2932 518 l 2936 523 l 2941 532 l 
2941 541 m 2936 550 l 2932 555 l 2922 560 l 2900 564 l 2886 564 l 
2863 560 l 2854 555 l 2849 550 l 2845 541 l 2932 605 m 2936 601 l 
2941 605 l 2936 610 l 2932 605 l 2877 701 m 2890 697 l 2900 688 l 
2904 674 l 2904 669 l 2900 656 l 2890 646 l 2877 642 l 2872 642 l 
2858 646 l 2849 656 l 2845 669 l 2845 678 l 2849 692 l 2858 701 l 
2872 706 l 2900 706 l 2918 701 l 2927 697 l 2936 688 l 2941 674 l 
2941 660 l 2936 651 l 2927 646 l 2922 646 l 2918 651 l 2922 656 l 
2927 651 l 2904 669 m 2900 660 l 2890 651 l 2877 646 l 2872 646 l 
2858 651 l 2849 660 l 2845 669 l 2845 678 m 2849 688 l 2858 697 l 
2872 701 l 2900 701 l 2918 697 l 2927 692 l 2936 683 l 2941 674 l 
2045 441 m 2049 427 l 2063 418 l 2086 413 l 2100 413 l 2122 418 l 
2136 427 l 2141 441 l 2141 450 l 2136 464 l 2122 473 l 2100 477 l 
2086 477 l 2063 473 l 2049 464 l 2045 450 l 2045 441 l 2049 431 l 
2054 427 l 2063 422 l 2086 418 l 2100 418 l 2122 422 l 2132 427 l 
2136 431 l 2141 441 l 2141 450 m 2136 459 l 2132 464 l 2122 468 l 
2100 473 l 2086 473 l 2063 468 l 2054 464 l 2049 459 l 2045 450 l 
2132 514 m 2136 509 l 2141 514 l 2136 518 l 2132 514 l 2077 610 m 
2090 605 l 2100 596 l 2104 582 l 2104 578 l 2100 564 l 2090 555 l 
2077 550 l 2072 550 l 2058 555 l 2049 564 l 2045 578 l 2045 587 l 
2049 601 l 2058 610 l 2072 614 l 2100 614 l 2118 610 l 2127 605 l 
2136 596 l 2141 582 l 2141 569 l 2136 560 l 2127 555 l 2122 555 l 
2118 560 l 2122 564 l 2127 560 l 2104 578 m 2100 569 l 2090 560 l 
2077 555 l 2072 555 l 2058 560 l 2049 569 l 2045 578 l 2045 587 m 
2049 596 l 2058 605 l 2072 610 l 2100 610 l 2118 605 l 2127 601 l 
2136 592 l 2141 582 l 2045 651 m 2090 642 l 2081 651 l 2077 665 l 
2077 678 l 2081 692 l 2090 701 l 2104 706 l 2113 706 l 2127 701 l 
2136 692 l 2141 678 l 2141 665 l 2136 651 l 2132 646 l 2122 642 l 
2118 642 l 2113 646 l 2118 651 l 2122 646 l 2077 678 m 2081 688 l 
2090 697 l 2104 701 l 2113 701 l 2127 697 l 2136 688 l 2141 678 l 
2045 651 m 2045 697 l 2049 651 m 2049 674 l 2045 697 l 1263 656 m 
1258 665 l 1245 678 l 1341 678 l 1249 674 m 1341 674 l 1341 656 m 
1341 697 l 463 427 m 458 436 l 445 450 l 541 450 l 449 445 m 541 445 l 
541 427 m 541 468 l 532 514 m 536 509 l 541 514 l 536 518 l 532 514 l 
445 578 m 449 564 l 463 555 l 486 550 l 500 550 l 522 555 l 536 564 l 
541 578 l 541 587 l 536 601 l 522 610 l 500 614 l 486 614 l 463 610 l 
449 601 l 445 587 l 445 578 l 449 569 l 454 564 l 463 560 l 486 555 l 
500 555 l 522 560 l 532 564 l 536 569 l 541 578 l 541 587 m 536 596 l 
532 601 l 522 605 l 500 610 l 486 610 l 463 605 l 454 601 l 449 596 l 
445 587 l 445 651 m 490 642 l 481 651 l 477 665 l 477 678 l 481 692 l 
490 701 l 504 706 l 513 706 l 527 701 l 536 692 l 541 678 l 541 665 l 
536 651 l 532 646 l 522 642 l 518 642 l 513 646 l 518 651 l 522 646 l 
477 678 m 481 688 l 490 697 l 504 701 l 513 701 l 527 697 l 536 688 l 
541 678 l 445 651 m 445 697 l 449 651 m 449 674 l 445 697 l 3805 726 m 
3809 713 l 3823 704 l 3846 699 l 3859 699 l 3882 704 l 3896 713 l 
3901 726 l 3901 736 l 3896 749 l 3882 758 l 3859 763 l 3846 763 l 
3823 758 l 3809 749 l 3805 736 l 3805 726 l 3809 717 l 3814 713 l 
3823 708 l 3846 704 l 3859 704 l 3882 708 l 3891 713 l 3896 717 l 
3901 726 l 3901 736 m 3896 745 l 3891 749 l 3882 754 l 3859 758 l 
3846 758 l 3823 754 l 3814 749 l 3809 745 l 3805 736 l 3891 800 m 
3896 795 l 3901 800 l 3896 804 l 3891 800 l 3805 859 m 3809 845 l 
3818 841 l 3832 841 l 3841 845 l 3846 859 l 3846 877 l 3841 891 l 
3832 896 l 3818 896 l 3809 891 l 3805 877 l 3805 859 l 3809 850 l 
3818 845 l 3832 845 l 3841 850 l 3846 859 l 3846 877 m 3841 886 l 
3832 891 l 3818 891 l 3809 886 l 3805 877 l 3846 859 m 3850 845 l 
3855 841 l 3864 836 l 3882 836 l 3891 841 l 3896 845 l 3901 859 l 
3901 877 l 3896 891 l 3891 896 l 3882 900 l 3864 900 l 3855 896 l 
3850 891 l 3846 877 l 3846 859 m 3850 850 l 3855 845 l 3864 841 l 
3882 841 l 3891 845 l 3896 850 l 3901 859 l 3901 877 m 3896 886 l 
3891 891 l 3882 896 l 3864 896 l 3855 891 l 3850 886 l 3846 877 l 
3805 2326 m 3809 2313 l 3823 2304 l 3846 2299 l 3859 2299 l 3882 2304 l 
3896 2313 l 3901 2326 l 3901 2336 l 3896 2349 l 3882 2358 l 3859 2363 l 
3846 2363 l 3823 2358 l 3809 2349 l 3805 2336 l 3805 2326 l 3809 2317 l 
3814 2313 l 3823 2308 l 3846 2304 l 3859 2304 l 3882 2308 l 3891 2313 l 
3896 2317 l 3901 2326 l 3901 2336 m 3896 2345 l 3891 2349 l 3882 2354 l 
3859 2358 l 3846 2358 l 3823 2354 l 3814 2349 l 3809 2345 l 3805 2336 l 
3891 2400 m 3896 2395 l 3901 2400 l 3896 2404 l 3891 2400 l 3837 2496 m 
3850 2491 l 3859 2482 l 3864 2468 l 3864 2464 l 3859 2450 l 3850 2441 l 
3837 2436 l 3832 2436 l 3818 2441 l 3809 2450 l 3805 2464 l 3805 2473 l 
3809 2486 l 3818 2496 l 3832 2500 l 3859 2500 l 3878 2496 l 3887 2491 l 
3896 2482 l 3901 2468 l 3901 2454 l 3896 2445 l 3887 2441 l 3882 2441 l 
3878 2445 l 3882 2450 l 3887 2445 l 3864 2464 m 3859 2454 l 3850 2445 l 
3837 2441 l 3832 2441 l 3818 2445 l 3809 2454 l 3805 2464 l 3805 2473 m 
3809 2482 l 3818 2491 l 3832 2496 l 3859 2496 l 3878 2491 l 3887 2486 l 
3896 2477 l 3901 2468 l 3823 3981 m 3818 3990 l 3805 4004 l 3901 4004 l 
3809 4000 m 3901 4000 l 3901 3981 m 3901 4022 l 3823 5513 m 3818 5522 l 
3805 5536 l 3901 5536 l 3809 5531 m 3901 5531 l 3901 5513 m 3901 5554 l 
3891 5600 m 3896 5595 l 3901 5600 l 3896 5604 l 3891 5600 l 3823 5650 m 
3818 5659 l 3805 5673 l 3901 5673 l 3809 5668 m 3901 5668 l 3901 5650 m 
3901 5691 l  s 
[] DS 
 3.00 WS
3554 800 m 3530 833 l 3425 986 l 3325 1131 l 3230 1270 l 3138 1403 l 
3051 1530 l 2968 1652 l 2888 1769 l 2811 1881 l 2737 1990 l 2666 2094 l 
2597 2195 l 2531 2292 l 2467 2386 l 2405 2476 l 2346 2564 l 2288 2650 l 
2231 2732 l 2177 2812 l 2124 2890 l 2072 2966 l 2022 3039 l 1974 3111 l 
1926 3181 l 1880 3249 l 1835 3315 l 1790 3380 l 1747 3443 l 1705 3505 l 
1664 3565 l 1624 3624 l 1584 3682 l 1546 3738 l 1508 3794 l 1471 3848 l 
1434 3901 l 1398 3953 l 1363 4005 l 1329 4055 l 1295 4104 l 1261 4153 l 
1228 4201 l 1196 4248 l 1164 4294 l 1133 4339 l 1102 4384 l 1072 4428 l 
1042 4471 l 1012 4514 l 983 4556 l 955 4598 l 926 4639 l 898 4679 l 
871 4719 l 843 4758 l 816 4797 l 790 4836 l 763 4874 l 737 4911 l 
711 4948 l 686 4985 l 661 5021 l 636 5057 l 611 5093 l 587 5128 l 
562 5162 l 538 5197 l 515 5231 l 500 5252 l  s 
[   50.00  40.00  50.00  40.00 ] DS 
 3.00 WS
3596 800 m 3596 800 l 3568 841 l 3545 874 m 3517 915 l 3494 948 m 
3466 990 l 3444 1023 m 3430 1044 l 3416 1064 l 3393 1097 m 3365 1139 l 
3343 1172 m 3315 1213 l 3292 1246 m 3280 1265 l 3264 1288 l 3242 1321 m 
3214 1362 l 3192 1395 m 3164 1437 l 3141 1470 m 3113 1511 l 3091 1545 m 
3080 1561 l 3063 1586 l 3041 1619 m 3019 1651 l 3013 1661 l 2990 1694 m 
2963 1735 l 2940 1769 m 2912 1810 l 2890 1843 m 2862 1885 l 2840 1918 m 
2812 1960 l 2790 1993 m 2762 2034 l 2740 2068 m 2712 2109 l 2690 2142 m 
2662 2184 l 2640 2217 m 2614 2255 l 2612 2259 l 2590 2292 m 2572 2319 l 
2562 2334 l 2540 2367 m 2531 2380 l 2512 2408 l 2490 2442 m 2462 2483 l 
2440 2516 m 2416 2551 l 2412 2558 l 2390 2591 m 2380 2605 l 2362 2633 l 
2340 2666 m 2312 2707 l 2312 2708 l 2290 2741 m 2280 2756 l 2262 2783 l 
2240 2816 m 2218 2848 l 2212 2857 l 2190 2891 m 2188 2893 l 2162 2932 l 
2140 2966 m 2131 2978 l 2112 3007 l 2090 3040 m 2078 3058 l 2062 3082 l 
2040 3115 m 2027 3134 l 2012 3157 l 1990 3190 m 1979 3206 l 1962 3232 l 
1940 3265 m 1933 3275 l 1912 3306 l 1890 3340 m 1869 3371 l 1862 3381 l 
1839 3414 m 1828 3431 l 1812 3456 l 1789 3489 m 1771 3517 l 1761 3531 l 
1739 3564 m 1735 3570 l 1717 3596 l 1711 3605 l 1689 3639 m 1683 3647 l 
1667 3671 l 1661 3680 l 1639 3713 m 1635 3718 l 1620 3741 l 1611 3755 l 
1588 3788 m 1575 3807 l 1561 3828 l 1560 3829 l 1538 3862 m 1533 3869 l 
1520 3889 l 1510 3904 l 1487 3937 m 1481 3946 l 1468 3965 l 1459 3978 l 
1437 4011 m 1432 4018 l 1420 4036 l 1409 4052 l 1409 4053 l 1386 4086 m 
1375 4101 l 1365 4117 l 1358 4127 l 1335 4160 m 1333 4163 l 1323 4178 l 
1313 4192 l 1307 4201 l 1284 4234 m 1284 4234 l 1275 4248 l 1266 4261 l 
1257 4275 l 1256 4275 l 1233 4308 m 1230 4313 l 1222 4326 l 1213 4338 l 
1205 4350 l 1182 4382 m 1180 4385 l 1172 4397 l 1165 4408 l 1157 4419 l 
1154 4424 l 1131 4456 m 1127 4462 l 1120 4472 l 1113 4483 l 1106 4493 l 
1102 4497 l 1079 4530 m 1078 4532 l 1071 4542 l 1065 4551 l 1058 4560 l 
1052 4569 l 1051 4571 l 1028 4604 m 1027 4605 l 1021 4613 l 1015 4622 l 
1009 4630 l 1003 4639 l 999 4645 l 976 4677 m 975 4679 l 969 4687 l 
964 4694 l 959 4702 l 953 4709 l 948 4717 l 947 4718 l 924 4751 m 
922 4753 l 917 4760 l 913 4767 l 908 4773 l 903 4780 l 898 4787 l 
895 4791 l 871 4824 m 870 4826 l 866 4832 l 861 4838 l 857 4844 l 
853 4850 l 848 4856 l 844 4862 l 842 4865 l 819 4897 m 815 4902 l 
811 4907 l 807 4913 l 803 4918 l 799 4924 l 796 4929 l 792 4934 l 
789 4937 l 766 4970 m 766 4970 l 762 4975 l 759 4980 l 755 4984 l 
752 4989 l 748 4994 l 745 4999 l 741 5003 l 738 5008 l 736 5010 l 
713 5042 m 712 5044 l 708 5048 l 705 5052 l 702 5057 l 699 5061 l 
696 5065 l 693 5069 l 690 5073 l 687 5077 l 684 5081 l 683 5082 l 
659 5115 m 658 5116 l 655 5120 l 652 5124 l 649 5128 l 646 5131 l 
644 5135 l 641 5139 l 638 5142 l 636 5146 l 633 5149 l 630 5153 l 
629 5155 l 605 5187 m 605 5187 l 602 5190 l 600 5193 l 597 5197 l 
595 5200 l 592 5203 l 590 5206 l 588 5209 l 585 5212 l 583 5216 l 
581 5219 l 578 5222 l 576 5225 l 575 5226 l 550 5258 m 549 5260 l 
547 5263 l 545 5265 l 543 5268 l 541 5271 l 538 5274 l 536 5276 l 
534 5279 l 532 5282 l 530 5285 l 528 5287 l 526 5290 l 524 5292 l 
522 5295 l 520 5298 l 520 5298 l  s 
[    5.00  20.00   5.00  20.00 ] DS 
 3.00 WS
3330 813 m 3327 818 l 3316 834 m 3313 838 l 3302 855 m 3299 859 l 
3288 876 m 3286 880 l 3286 880 l 3274 897 m 3272 901 l 3261 918 m 
3258 922 l 3247 938 m 3244 943 l 3233 959 m 3230 963 l 3219 980 m 
3216 984 l 3205 1001 m 3203 1005 l 3192 1022 m 3189 1026 l 3178 1043 m 
3175 1047 l 3164 1063 m 3161 1068 l 3150 1084 m 3147 1088 l 3136 1105 m 
3134 1109 l 3123 1126 m 3120 1130 l 3109 1147 m 3106 1151 l 3095 1168 m 
3092 1172 l 3081 1189 m 3079 1193 l 3068 1209 m 3065 1214 l 3054 1230 m 
3051 1235 l 3040 1251 m 3037 1255 l 3026 1272 m 3024 1276 l 3013 1293 m 
3010 1297 l 2999 1314 m 2996 1318 l 2985 1335 m 2982 1339 l 2971 1356 m 
2971 1357 l 2969 1360 l 2958 1377 m 2955 1381 l 2944 1398 m 2941 1402 l 
2930 1418 m 2928 1423 l 2917 1439 m 2914 1444 l 2903 1460 m 2900 1464 l 
2889 1481 m 2887 1485 l 2876 1502 m 2873 1506 l 2862 1523 m 2859 1527 l 
2848 1544 m 2846 1548 l 2835 1565 m 2832 1569 l 2821 1586 m 2818 1590 l 
2807 1607 m 2805 1611 l 2794 1628 m 2791 1632 l 2780 1649 m 2777 1653 l 
2767 1670 m 2764 1674 l 2753 1691 m 2750 1695 l 2739 1712 m 2737 1716 l 
2726 1733 m 2723 1737 l 2712 1754 m 2709 1758 l 2699 1775 m 2696 1779 l 
2685 1796 m 2682 1800 l 2671 1817 m 2669 1821 l 2658 1838 m 2655 1842 l 
2644 1859 m 2641 1863 l 2631 1880 m 2628 1884 l 2617 1901 m 2614 1905 l 
2604 1922 m 2601 1926 l 2590 1943 m 2587 1947 l 2576 1964 m 2574 1968 l 
2563 1985 m 2560 1989 l 2549 2006 m 2547 2010 l 2536 2027 m 2533 2031 l 
2522 2048 m 2520 2052 l 2509 2069 m 2506 2073 l 2495 2090 m 2493 2094 l 
2482 2111 m 2479 2115 l 2468 2132 m 2466 2136 l 2455 2153 m 2452 2157 l 
2441 2174 m 2439 2178 l 2428 2195 m 2425 2199 l 2414 2216 m 2412 2220 l 
2401 2237 m 2398 2241 l 2387 2258 m 2385 2262 l 2374 2279 m 2371 2283 l 
2361 2300 m 2358 2305 l 2347 2321 m 2344 2326 l 2334 2342 m 2331 2347 l 
2320 2364 m 2320 2364 l 2317 2368 l 2307 2385 m 2304 2389 l 2293 2406 m 
2291 2410 l 2280 2427 m 2277 2431 l 2266 2448 m 2264 2452 l 2253 2469 m 
2250 2473 l 2240 2490 m 2237 2494 l 2226 2511 m 2224 2515 l 2213 2532 m 
2210 2537 l 2199 2553 m 2197 2558 l 2186 2575 m 2183 2579 l 2173 2596 m 
2170 2600 l 2159 2617 m 2157 2621 l 2146 2638 m 2143 2642 l 2133 2659 m 
2130 2663 l 2119 2680 m 2117 2684 l 2106 2701 m 2103 2706 l 2093 2722 m 
2090 2727 l 2079 2744 m 2077 2748 l 2066 2765 m 2063 2769 l 2053 2786 m 
2050 2790 l 2039 2807 m 2037 2811 l 2026 2828 m 2023 2832 l 2013 2849 m 
2010 2854 l 1999 2871 m 1997 2875 l 1986 2892 m 1983 2896 l 1973 2913 m 
1970 2917 l 1959 2934 m 1957 2938 l 1946 2955 m 1943 2959 l 1933 2976 m 
1930 2981 l 1920 2998 m 1917 3002 l 1906 3019 m 1904 3023 l 1893 3040 m 
1890 3044 l 1880 3061 m 1877 3065 l 1866 3082 m 1864 3087 l 1853 3104 m 
1851 3108 l 1840 3125 m 1837 3129 l 1827 3146 m 1824 3150 l 1813 3167 m 
1811 3171 l 1800 3188 m 1798 3193 l 1787 3210 m 1784 3214 l 1774 3231 m 
1771 3235 l 1761 3252 m 1758 3256 l 1747 3273 m 1745 3277 l 1734 3294 m 
1732 3299 l 1721 3316 m 1718 3320 l 1708 3337 m 1705 3341 l 1695 3358 m 
1692 3362 l 1681 3379 m 1679 3384 l 1668 3401 m 1666 3405 l 1655 3422 m 
1652 3426 l 1642 3443 m 1639 3447 l 1629 3464 m 1626 3469 l 1616 3486 m 
1613 3490 l 1602 3507 m 1600 3511 l 1589 3528 m 1587 3532 l 1576 3549 m 
1573 3554 l 1563 3571 m 1560 3575 l 1550 3592 m 1547 3596 l 1537 3613 m 
1534 3618 l 1524 3635 m 1522 3636 l 1521 3639 l 1510 3656 m 1508 3660 l 
1497 3677 m 1495 3681 l 1484 3698 m 1482 3703 l 1471 3720 m 1469 3724 l 
1458 3741 m 1455 3745 l 1445 3762 m 1442 3767 l 1432 3784 m 1429 3788 l 
1419 3805 m 1416 3809 l 1406 3826 m 1405 3827 l 1403 3830 l 1393 3847 m 
1390 3852 l 1380 3869 m 1377 3873 l 1366 3890 m 1364 3894 l 1353 3911 m 
1351 3916 l 1340 3933 m 1338 3937 l 1327 3954 m 1325 3958 l 1314 3975 m 
1312 3980 l 1301 3997 m 1299 4001 l 1288 4018 m 1287 4020 l 1286 4022 l 
1275 4039 m 1273 4044 l 1262 4061 m 1260 4065 l 1249 4082 m 1247 4086 l 
1236 4103 m 1234 4108 l 1223 4125 m 1221 4129 l 1210 4146 m 1208 4150 l 
1197 4167 m 1194 4172 l 1184 4189 m 1181 4193 l 1171 4210 m 1168 4214 l 
1158 4232 m 1156 4236 l 1145 4253 m 1143 4257 l 1132 4274 m 1130 4279 l 
1119 4296 m 1117 4300 l 1106 4317 m 1104 4321 l 1093 4338 m 1091 4343 l 
1080 4360 m 1078 4364 l 1067 4381 m 1065 4385 l 1054 4403 m 1052 4407 l 
1041 4424 m 1039 4428 l 1029 4445 m 1026 4450 l 1016 4467 m 1013 4471 l 
1003 4488 m 1000 4492 l 990 4510 m 987 4514 l 977 4531 m 974 4535 l 
964 4552 m 961 4557 l 951 4574 m 948 4578 l 938 4595 m 936 4599 l 
925 4617 m 923 4621 l 912 4638 m 910 4642 l 899 4659 m 897 4664 l 
887 4681 m 884 4685 l 874 4702 m 871 4707 l 861 4724 m 858 4728 l 
848 4745 m 845 4749 l 835 4767 m 832 4771 l 822 4788 m 820 4792 l 
809 4809 m 807 4814 l 796 4831 m 794 4835 l 784 4852 m 781 4857 l 
771 4874 m 768 4878 l 758 4895 m 755 4900 l 745 4917 m 743 4921 l 
732 4938 m 730 4942 l 719 4960 m 717 4964 l 707 4981 m 704 4985 l 
694 5003 m 691 5007 l 681 5024 m 678 5028 l 668 5045 m 666 5050 l 
655 5067 m 653 5071 l 643 5088 m 640 5093 l 630 5110 m 627 5114 l 
617 5131 m 615 5136 l 604 5153 m 602 5157 l 591 5174 m 589 5179 l 
579 5196 m 576 5200 l 566 5217 m 563 5222 l 553 5239 m 551 5243 l 
540 5260 m 538 5265 l 528 5282 m 525 5286 l 515 5303 m 512 5308 l 
502 5325 m 500 5329 l  s 
[] DS 
 3.00 WS
3925 4660 m 4021 4628 l 3925 4660 m 4021 4692 l 3938 4660 m 4021 4687 l 
4021 4618 m 4021 4646 l 4021 4673 m 4021 4701 l 3868 4721 m 3935 4721 l 
3868 4724 m 3926 4744 l 3868 4721 m 3935 4744 l 3868 4766 m 3935 4744 l 
3868 4766 m 3935 4766 l 3868 4769 m 3935 4769 l 3868 4712 m 3868 4724 l 
3868 4766 m 3868 4779 l 3935 4712 m 3935 4731 l 3935 4756 m 3935 4779 l 
3878 4836 m 3868 4840 l 3887 4840 l 3878 4836 l 3871 4830 l 3868 4820 l 
3868 4811 l 3871 4801 l 3878 4795 l 3884 4795 l 3890 4798 l 3894 4801 l 
3897 4808 l 3903 4827 l 3906 4833 l 3913 4840 l 3884 4795 m 3890 4801 l 
3894 4808 l 3900 4827 l 3903 4833 l 3906 4836 l 3913 4840 l 3926 4840 l 
3932 4833 l 3935 4824 l 3935 4814 l 3932 4804 l 3926 4798 l 3916 4795 l 
3935 4795 l 3926 4798 l 3906 4941 m 4053 4858 l 3925 4996 m 4021 4964 l 
3925 4996 m 4021 5028 l 3938 4996 m 4021 5023 l 4021 4954 m 4021 4982 l 
4021 5009 m 4021 5037 l 3868 5057 m 3935 5057 l 3868 5060 m 3926 5080 l 
3868 5057 m 3935 5080 l 3868 5102 m 3935 5080 l 3868 5102 m 3935 5102 l 
3868 5105 m 3935 5105 l 3868 5048 m 3868 5060 l 3868 5102 m 3868 5115 l 
3935 5048 m 3935 5067 l 3935 5092 m 3935 5115 l 3878 5172 m 3868 5176 l 
3887 5176 l 3878 5172 l 3871 5166 l 3868 5156 l 3868 5147 l 3871 5137 l 
3878 5131 l 3884 5131 l 3890 5134 l 3894 5137 l 3897 5144 l 3903 5163 l 
3906 5169 l 3913 5176 l 3884 5131 m 3890 5137 l 3894 5144 l 3900 5163 l 
3903 5169 l 3906 5172 l 3913 5176 l 3926 5176 l 3932 5169 l 3935 5160 l 
3935 5150 l 3932 5140 l 3926 5134 l 3916 5131 l 3935 5131 l 3926 5134 l  s 
[] DS 
 3.00 WS
4005 4740 m 4008 4744 l 4012 4740 l 4008 4737 l 4005 4737 l 3999 4740 l 
3996 4744 l 3992 4753 l 3992 4766 l 3996 4776 l 3999 4779 l 4005 4782 l 
4012 4782 l 4018 4779 l 4024 4769 l 4031 4753 l 4034 4747 l 4040 4740 l 
4050 4737 l 4059 4737 l 3992 4766 m 3996 4772 l 3999 4776 l 4005 4779 l 
4012 4779 l 4018 4776 l 4024 4766 l 4031 4753 l 4053 4737 m 4050 4740 l 
4050 4747 l 4056 4763 l 4056 4772 l 4053 4779 l 4050 4782 l 4050 4747 m 
4059 4763 l 4059 4776 l 4056 4779 l 4050 4782 l 4043 4782 l  s 
[] DS 
 3.00 WS
3992 5086 m 3996 5077 l 4005 5070 l 4021 5067 l 4031 5067 l 4047 5070 l 
4056 5077 l 4059 5086 l 4059 5093 l 4056 5102 l 4047 5109 l 4031 5112 l 
4021 5112 l 4005 5109 l 3996 5102 l 3992 5093 l 3992 5086 l 3996 5080 l 
3999 5077 l 4005 5074 l 4021 5070 l 4031 5070 l 4047 5074 l 4053 5077 l 
4056 5080 l 4059 5086 l 4059 5093 m 4056 5099 l 4053 5102 l 4047 5106 l 
4031 5109 l 4021 5109 l 4005 5106 l 3999 5102 l 3996 5099 l 3992 5093 l  s 
[] DS 
 3.00 WS
925 140 m 1021 108 l 925 140 m 1021 172 l 938 140 m 1021 167 l 1021 98 m 
1021 126 l 1021 153 m 1021 181 l 868 201 m 935 201 l 868 204 m 926 224 l 
868 201 m 935 224 l 868 246 m 935 224 l 868 246 m 935 246 l 868 249 m 
935 249 l 868 192 m 868 204 l 868 246 m 868 259 l 935 192 m 935 211 l 
935 236 m 935 259 l 878 316 m 868 320 l 887 320 l 878 316 l 871 310 l 
868 300 l 868 291 l 871 281 l 878 275 l 884 275 l 890 278 l 894 281 l 
897 288 l 903 307 l 906 313 l 913 320 l 884 275 m 890 281 l 894 288 l 
900 307 l 903 313 l 906 316 l 913 320 l 926 320 l 932 313 l 935 304 l 
935 294 l 932 284 l 926 278 l 916 275 l 935 275 l 926 278 l 906 421 m 
1053 338 l 925 476 m 1021 444 l 925 476 m 1021 508 l 938 476 m 1021 503 l 
1021 434 m 1021 462 l 1021 489 m 1021 517 l 868 537 m 935 537 l 
868 540 m 926 560 l 868 537 m 935 560 l 868 582 m 935 560 l 868 582 m 
935 582 l 868 585 m 935 585 l 868 528 m 868 540 l 868 582 m 868 595 l 
935 528 m 935 547 l 935 572 m 935 595 l 878 652 m 868 656 l 887 656 l 
878 652 l 871 646 l 868 636 l 868 627 l 871 617 l 878 611 l 884 611 l 
890 614 l 894 617 l 897 624 l 903 643 l 906 649 l 913 656 l 884 611 m 
890 617 l 894 624 l 900 643 l 903 649 l 906 652 l 913 656 l 926 656 l 
932 649 l 935 640 l 935 630 l 932 620 l 926 614 l 916 611 l 935 611 l 
926 614 l  s 
[] DS 
 3.00 WS
1005 220 m 1008 224 l 1011 220 l 1008 217 l 1005 217 l 999 220 l 995 224 l 
992 233 l 992 246 l 995 256 l 1002 259 l 1011 259 l 1018 256 l 1021 246 l 
1021 236 l 992 246 m 995 252 l 1002 256 l 1011 256 l 1018 252 l 1021 246 l 
1024 252 l 1031 259 l 1037 262 l 1047 262 l 1053 259 l 1056 256 l 
1059 246 l 1059 233 l 1056 224 l 1053 220 l 1047 217 l 1043 217 l 
1040 220 l 1043 224 l 1047 220 l 1027 256 m 1037 259 l 1047 259 l 
1053 256 l 1056 252 l 1059 246 l  s 
[] DS 
 3.00 WS
1005 550 m 1008 553 l 1011 550 l 1008 547 l 1005 547 l 999 550 l 995 553 l 
992 563 l 992 576 l 995 585 l 999 589 l 1005 592 l 1011 592 l 1018 589 l 
1024 579 l 1031 563 l 1034 557 l 1040 550 l 1050 547 l 1059 547 l 
992 576 m 995 582 l 999 585 l 1005 589 l 1011 589 l 1018 585 l 1024 576 l 
1031 563 l 1053 547 m 1050 550 l 1050 557 l 1056 573 l 1056 582 l 
1053 589 l 1050 592 l 1050 557 m 1059 573 l 1059 585 l 1056 589 l 
1050 592 l 1043 592 l  s 
[] DS 
 3.00 WS
3840 4718 m 3840 4841 l  s 
[] DS 
 3.00 WS
3840 5058 m 3840 5181 l  s 
[] DS 
 3.00 WS
840 538 m 840 661 l  s 
[] DS 
 3.00 WS
840 198 m 840 321 l 
stroke grestore
%end(plot)
%%Trailer
showpage
% End of temporary dictionary
end
% restore original state
restore
