{
   "rLmsbar" : [
      0.0,
      4.5709071188828357e-190,
      1.234444636372917e-126,
      6.2039705218680245e-95,
      6.37894831052071e-76,
      2.9767095917742515e-63,
      3.3031702256702439e-54,
      1.9942138726266621e-47,
      3.7272358693228115e-42,
      6.1204596741387046e-38,
      1.7147347311293851e-34,
      1.2757107637789661e-31,
      3.4232644284446833e-29,
      4.1232580310807815e-27,
      2.6169357787736918e-25,
      9.8700803831045813e-24,
      2.4252263246309445e-22,
      4.1700275692778335e-21,
      5.3087341749184714e-20,
      5.2349644706175651e-19,
      4.1473985304937117e-18,
      2.7199347453316913e-17,
      1.5135056345007903e-16,
      7.2943437164589202e-16,
      3.097906281211855e-15,
      1.1764626338749485e-14,
      4.0450370313694689e-14,
      1.2727261670313816e-13,
      3.6983621643292984e-13,
      1.0004761485017061e-12,
      2.5371182457910892e-12,
      6.0680345856498068e-12,
      1.3760857851104453e-11,
      2.9728772458847709e-11,
      6.1440179682161883e-11,
      1.2192160663234002e-10,
      2.3307522801074502e-10,
      4.3050890821302213e-10,
      7.7035391698619527e-10,
      1.3386184578435838e-09,
      2.2636885815000684e-09,
      3.7326367651408904e-09,
      6.0120278077498395e-09,
      9.4739180385600165e-09,
      1.4627724686469362e-08,
      2.2158596513475357e-08,
      3.2972844794533154e-08,
      4.8250897103915832e-08,
      6.9508118016482541e-08,
      9.8663704597674681e-08,
      1.3811771499345349e-07,
      1.908361305218381e-07,
      2.6044369054183878e-07,
      3.5132408005981077e-07,
      4.6872689723202489e-07,
      6.1888068584372427e-07,
      8.0911119007314749e-07,
      1.0479638782634753e-06,
      1.3453296911623752e-06,
      1.7125728995414533e-06,
      2.1626599069583192e-06,
      2.7102878056989087e-06,
      3.3720114870826991e-06,
      4.1663681202778311e-06,
      5.1139978451016433e-06,
      6.2377595722056563e-06,
      7.5628408465702742e-06,
      9.1168608052286387e-06,
      1.0929965345401284e-05,
      1.3034913712551698e-05,
      1.5467155817120982e-05,
      1.8264899691822436e-05,
      2.146916860646009e-05,
      2.5123847462536703e-05,
      2.9275718193860736e-05,
      3.3974484000574852e-05,
      3.9272782341330505e-05,
      4.5226186700722357e-05,
      5.1893197235788065e-05,
      5.9335220485730422e-05,
      6.7616538402584869e-05,
      7.6804267027029494e-05,
      8.6968305192741059e-05,
      9.8181273694608061e-05,
      0.00011051844540077354,
      0.00012405766682604919,
      0.00013887927171496748,
      0.00015506598720688343,
      0.00017270283317348566,
      0.00019187701533117206,
      0.00021267781273743829,
      0.00023519646028211468,
      0.00025952602678142299,
      0.00028576128927586231,
      0.00031399860412227831,
      0.00034433577545658434,
      0.00037687192158688886,
      0.00041170733985762314,
      0.00044894337050406887,
      0.000488682259993799,
      0.00053102702432725668,
      0.00057608131274442312,
      0.00062394927225843764,
      0.0006747354134104505,
      0.00072854447761315196,
      0.00078548130642354147,
      0.00084565071305869877,
      0.00090915735644192194,
      0.00097610561804054637,
      0.0010465994817314022,
      0.0011207424169050553,
      0.0011986372649961513,
      0.0012803861296040073,
      0.0013660902703454779,
      0.0014558500005609563,
      0.0015497645889741337,
      0.0016479321653870948,
      0.0017504496304740836,
      0.0018574125697203851,
      0.0019689151715366572,
      0.0020850501495641828,
      0.0022059086691725081,
      0.0023315802781381182,
      0.0024621528414808108,
      0.0025977124804235237,
      0.0027383435154312488,
      0.0028841284132756686,
      0.0030351477380637371,
      0.0031914801061610804,
      0.0033532021449343419,
      0.0035203884552307795,
      0.0036931115775081362,
      0.0038714419615233221,
      0.0040554479394845338,
      0.0042451957025681454,
      0.0044407492806989787,
      0.0046421705254902903,
      0.0048495190962381972,
      0.0050628524488638121,
      0.0052822258276957459,
      0.005507692259984885,
      0.0057393025530435449,
      0.0059771052939010519,
      0.0062211468513684639,
      0.0064714713804060022,
      0.0067281208286876261,
      0.0069911349452585186,
      0.0072605512911829038,
      0.0075364052520808539,
      0.0078187300524550033,
      0.0081075567717096876,
      0.0084029143617673132,
      0.0087048296661887212,
      0.0090133274407067886,
      0.009328430375084731,
      0.0096501591162129908,
      0.0099785322923608803,
      0.010313566538502118,
      0.010655276522635213,
      0.011003674973022815,
      0.011358772706276228,
      0.011720578656214257,
      0.012089099903427526,
      0.012464341705482553,
      0.012846307527701892,
      0.01323499907445924,
      0.013630416320931225,
      0.014032557545249218,
      0.014441419360997696,
      0.014856996750007583,
      0.015279283095395229,
      0.015708270214800295,
      0.016143948393777516,
      0.016586306419299892,
      0.017035331613332608,
      0.017491009866439235,
      0.017953325671383788,
      0.018422262156693528,
      0.018897801120150489,
      0.019379923062179984,
      0.019868607219107579,
      0.02036383159625646,
      0.02086557300085963,
      0.021373807074762646,
      0.021888508326893871,
      0.022409650165481323,
      0.022937204929995902,
      0.023471143922802671,
      0.024011437440502988,
      0.024558054804951369,
      0.02511096439393273,
      0.025670133671485965,
      0.02623552921786183,
      0.026807116759103407,
      0.027384861196239157,
      0.027968726634078678,
      0.028558676409603155,
      0.029154673119942857,
      0.029756678649934521,
      0.030364654199253369,
      0.030978560309114143,
      0.031598356888536752,
      0.032224003240173271,
      0.032855458085692464,
      0.03349267959072022,
      0.034135625389333409,
      0.034784252608106109,
      0.035438517889707657,
      0.036098377416051874,
      0.036763786930998139,
      0.037434701762604237,
      0.038111076844933256,
      0.038792866739414615,
      0.039480025655762196,
      0.040172507472451269,
      0.040870265756756591,
      0.041573253784354877,
      0.042281424558494735,
      0.042994730828736769,
      0.043713125109268454,
      0.044436559696796801,
      0.045164986688023399,
      0.045898357996705615,
      0.046636625370308792,
      0.047379740406253611,
      0.048127654567763738,
      0.048880319199318227,
      0.049637685541714077,
      0.050399704746743483,
      0.051166327891491642,
      0.05193750599225945,
      0.052713190018117868,
      0.053493330904097587,
      0.054277879564020956,
      0.055066786902980842,
      0.055860003829472371,
      0.056657481267182973,
      0.057459170166446125,
      0.058265021515365265,
      0.059074986350612105,
      0.059889015767906548,
      0.060707060932182332,
      0.0615290730874457,
      0.06235500356633062,
      0.063184803799358605,
      0.064018425323906336,
      0.064855819792888347,
      0.065696938983159481,
      0.06654173480364288,
      0.067390159303188424,
      0.068242164678168335,
      0.069097703279813405,
      0.069956727621297038,
      0.070819190384570699,
      0.071685044426957709,
      0.072554242787508688,
      0.073426738693125437,
      0.074302485564457038,
      0.075181437021573816,
      0.076063546889424016,
      0.076948769203077888,
      0.077837058212763988,
      0.078728368388702549,
      0.079622654425740569,
      0.080519871247792973,
      0.081419974012094956,
      0.082322918113269097,
      0.08322865918721277,
      0.084137153114808641,
      0.085048356025464733,
      0.085962224300485349,
      0.086878714576280186,
      0.087797783747412775,
      0.088719388969494314,
      0.089643487661925897,
      0.09057003751049289,
      0.091498996469815491,
      0.092430322765659823,
      0.09336397489711154,
      0.094299911638617451,
      0.095238092041897038,
      0.096178475437729005,
      0.097121021437613989,
      0.098065689935319306,
      0.099012441108306981,
      0.099961235419048958,
      0.10091203361623355,
      0.10186479673586384,
      0.102819486102254,
      0.1037760633289237,
      0.10473449031939572,
      0.10569472926789794,
      0.10665674265997337,
      0.10762049327300084,
      0.10858594417662876,
      0.10955305873312422,
      0.11052180059764127,
      0.11149213371840871,
      0.1124640223368425,
      0.11343743098758241,
      0.11441232449845722,
      0.11538866799037996,
      0.1163664268771756,
      0.11734556686534263,
      0.11832605395375231,
      0.11930785443328532,
      0.12029093488641047,
      0.1212752621867049,
      0.12226080349831966,
      0.12324752627539159,
      0.12423539826140303,
      0.12522438748849229,
      0.12621446227671571,
      0.12720559123326325,
      0.1281977432516293,
      0.12919088751074045,
      0.13018499347404147,
      0.13118003088854138,
      0.13217596978382143,
      0.13317278047100523,
      0.13417043354169356,
      0.13516889986686575,
      0.13616815059574694,
      0.13716815715464459,
      0.13816889124575465,
      0.13917032484593869,
      0.14017243020547313,
      0.14117517984677236,
      0.1421785465630859,
      0.14318250341717162,
      0.14418702373994599,
      0.14519208112911186,
      0.14619764944776548,
      0.14720370282298323,
      0.14821021564438985,
      0.14921716256270767,
      0.15022451848829016,
      0.15123225858963749,
      0.15224035829189833,
      0.15324879327535623,
      0.15425753947390275,
      0.15526657307349753,
      0.15627587051061692,
      0.15728540847069009,
      0.15829516388652656,
      0.15930511393673183,
      0.16031523604411538,
      0.16132550787408986,
      0.16233590733306211,
      0.16334641256681792,
      0.16435700195889949,
      0.16536765412897772,
      0.1663783479312185,
      0.16738906245264507,
      0.1683997770114955,
      0.16941047115557681,
      0.1704211246606169,
      0.17143171752861189,
      0.17244222998617306,
      0.17345264248287207,
      0.17446293568958332,
      0.17547309049682791,
      0.1764830880131156,
      0.17749290956328753,
      0.17850253668685936,
      0.17951195113636528,
      0.1805211348757032,
      0.18153007007848199,
      0.1825387391263695,
      0.18354712460744524,
      0.18455520931455244,
      0.18556297624365631,
      0.18657040859220342,
      0.18757748975748528,
      0.18858420333500603,
      0.18959053311685398,
      0.19059646309007716,
      0.19160197743506474,
      0.19260706052393109,
      0.19361169691890773,
      0.19461587137073807,
      0.19561956881707965,
      0.19662277438091072,
      0.19762547336894304,
      0.19862765127004239,
      0.1996292937536526,
      0.20063038666822858,
      0.20163091603967465,
      0.20263086806979036,
      0.20363022913472256,
      0.20462898578342562,
      0.20562712473612821,
      0.20662463288280702,
      0.20762149728166998,
      0.20861770515764458,
      0.2096132439008756,
      0.2106081010652307,
      0.21160226436681315,
      0.21259572168248328,
      0.21358846104838783,
      0.21458047065849808,
      0.21557173886315578,
      0.2165622541676272,
      0.21755200523066709,
      0.21854098086308946,
      0.21952917002634881,
      0.22051656183112781,
      0.2215031455359365,
      0.22248891054571796,
      0.22347384641046378,
      0.22445794282383905,
      0.22544118962181478,
      0.22642357678131111,
      0.22740509441884776,
      0.22838573278920526,
      0.22936548228409365,
      0.23034433343083166,
      0.2313222768910341,
      0.23229930345930896,
      0.2332754040619629,
      0.23425056975571712,
      0.23522479172643176,
      0.23619806128783857,
      0.23717036988028467,
      0.23814170906948431,
      0.23911207054528005,
      0.24008144612041274,
      0.24104982772930172,
      0.24201720742683361,
      0.24298357738715978,
      0.24394892990250386,
      0.24491325738197836,
      0.24587655235040923,
      0.24683880744717165,
      0.24780001542503288,
      0.24876016914900517,
      0.2497192615952083,
      0.25067728584973936,
      0.25163423510755412,
      0.25259010267135512,
      0.25354488195048969,
      0.2544985664598568,
      0.25545114981882361,
      0.25640262575014938,
      0.25735298807891915,
      0.25830223073148673,
      0.25925034773442507,
      0.26019733321348709,
      0.26114318139257336,
      0.26208788659271065,
      0.26303144323103661,
      0.26397384581979566,
      0.26491508896534105,
      0.26585516736714776,
      0.26679407581683134,
      0.26773180919717787,
      0.26866836248118015,
      0.26960373073108324,
      0.27053790909743902,
      0.27147089281816678,
      0.27240267721762446,
      0.27333325770568695,
      0.27426262977683274,
      0.27519078900923793,
      0.27611773106387971,
      0.27704345168364647,
      0.27796794669245711,
      0.27889121199438682,
      0.27981324357280229,
      0.28073403748950293,
      0.28165358988387212,
      0.28257189697203372,
      0.28348895504601818,
      0.28440476047293517,
      0.28531930969415409,
      0.28623259922449235,
      0.28714462565141052,
      0.2880553856342154,
      0.28896487590327041,
      0.28987309325921307,
      0.29078003457217977,
      0.29168569678103751,
      0.2925900768926239,
      0.29349317198099267,
      0.29439497918666757,
      0.29529549571590247,
      0.29619471883994836,
      0.29709264589432843,
      0.29798927427811867,
      0.29888460145323537,
      0.29977862494373014,
      0.30067134233509174,
      0.30156275127355275,
      0.30245284946540563,
      0.3033416346763228,
      0.30422910473068443,
      0.30511525751091323,
      0.30600009095681402,
      0.30688360306492057,
      0.30776579188784969,
      0.30864665553365961,
      0.30952619216521615,
      0.31040439999956349,
      0.31128127730730315,
      0.31215682241197723,
      0.31303103368945834,
      0.31390390956734499,
      0.31477544852436429,
      0.31564564908977855,
      0.31651450984279922,
      0.31738202941200533,
      0.3182482064747692,
      0.31911303975668642,
      0.31997652803101206,
      0.32083867011810185,
      0.3216994648848604,
      0.32255891124419278,
      0.32341700815446356,
      0.32427375461895941,
      0.32512914968535817,
      0.32598319244520341,
      0.32683588203338321,
      0.32768721762761482,
      0.32853719844793428,
      0.32938582375619135,
      0.33023309285554908,
      0.33107900508998911,
      0.33192355984382083,
      0.33276675654119681,
      0.33360859464563164,
      0.33444907365952753,
      0.33528819312370256,
      0.33612595261692507,
      0.33696235175545225,
      0.33779739019257415,
      0.33863106761816081,
      0.33946338375821561,
      0.34029433837443179,
      0.34112393126375518,
      0.34195216225794905,
      0.34277903122316533,
      0.34360453805951985,
      0.34442868270067067,
      0.34525146511340277,
      0.34607288529721492,
      0.34689294328391274,
      0.34771163913720371,
      0.34852897295229901,
      0.34934494485551654,
      0.35015955500389062,
      0.35097280358478433,
      0.35178469081550573,
      0.35259521694292834,
      0.35340438224311671,
      0.35421218702095331,
      0.35501863160977182,
      0.35582371637099242,
      0.35662744169376209,
      0.35742980799459767,
      0.35823081571703397,
      0.35903046533127336,
      0.35982875733384118,
      0.36062569224724383,
      0.3614212706196302,
      0.36221549302445677,
      0.36300836006015702,
      0.36379987234981281,
      0.36459003054083028,
      0.36537883530461929,
      0.36616628733627488,
      0.36695238735426378,
      0.36773713610011344,
      0.36852053433810356,
      0.36930258285496242,
      0.37008328245956484,
      0.3708626339826348,
      0.37164063827645033,
      0.37241729621455127,
      0.37319260869145066,
      0.37396657662234933,
      0.37473920094285301,
      0.37551048260869263,
      0.37628042259544769,
      0.37704902189827211,
      0.37781628153162383,
      0.37858220252899705,
      0.37934678594265608,
      0.38011003284337369,
      0.38087194432017185,
      0.3816325214800646,
      0.38239176544780368,
      0.38314967736562783,
      0.38390625839301418,
      0.38466150970643165,
      0.38541543249909843,
      0.38616802798074068,
      0.38691929737735475,
      0.38766924193097152,
      0.38841786289942304,
      0.38916516155611269,
      0.38991113918978626,
      0.39065579710430748,
      0.39139913661843329,
      0.39214115906559499,
      0.39288186579367834,
      0.39362125816480803,
      0.39435933755513447,
      0.3950961053546217,
      0.3958315629668393,
      0.39656571180875388,
      0.39729855331052688,
      0.39803008891531011,
      0.39876032007904721,
      0.39948924827027454,
      0.40021687496992597,
      0.40094320167113945,
      0.40166822987906481,
      0.40239196111067455,
      0.40311439689457723,
      0.40383553877083095,
      0.40455538829076082,
      0.40527394701677733,
      0.40599121652219727,
      0.40670719839106673,
      0.40742189421798419,
      0.40813530560792977,
      0.40884743417609098,
      0.40955828154769464,
      0.41026784935783883,
      0.41097613925132642,
      0.41168315288250212,
      0.41238889191508882,
      0.41309335802202807,
      0.41379655288532136,
      0.41449847819587238,
      0.415199135653333,
      0.41589852696594887,
      0.41659665385040801,
      0.41729351803169124,
      0.41798912124292237,
      0.41868346522522304,
      0.41937655172756677,
      0.4200683825066357,
      0.42075895932667878,
      0.42144828395937123,
      0.42213635818367606,
      0.42282318378570705,
      0.42350876255859266,
      0.42419309630234237,
      0.42487618682371409,
      0.42555803593608293,
      0.42623864545931162,
      0.42691801721962247,
      0.42759615304947041,
      0.42827305478741806,
      0.42894872427801189,
      0.42962316337165962,
      0.43029637392450926,
      0.4309683577983292,
      0.43163911686039075,
      0.43230865298334958,
      0.43297696804513208,
      0.4336440639288196,
      0.43430994252253602,
      0.43497460571933605,
      0.43563805541709483,
      0.43630029351839827,
      0.43696132193043608,
      0.43762114256489426,
      0.4382797573378503,
      0.43893716816966816,
      0.43959337698489648,
      0.44024838571216562,
      0.44090219628408772,
      0.44155481063715663,
      0.44220623071165005,
      0.44285645845153271,
      0.44350549580435866,
      0.44415334472117879,
      0.44480000715644519,
      0.4454454850679187,
      0.4460897804165776,
      0.44673289516652742,
      0.44737483128491051,
      0.44801559074181813,
      0.4486551755102029,
      0.44929358756579235,
      0.44993082888700353,
      0.45056690145485906,
      0.45120180725290332
   ]
}
